
=================================================================

 TDLDA   2009 Mar 13 14: 7:30  -240 UTC

 Running serial version (no MPI)

Version date : Fri Jan  2 17:07:49 EST 2009
architecture = intel_oic
pre-processing options = -DUSEMKL
compilation options = -O3 -ip -xT -align

=================================================================


 Electronic structure data :
 ---------------------------

 Reading electron wavefunctions from file parsec.dat/wfn.dat

 Wavefunction file created on 13-MAR-2009 14:07:30 -0400 UTC

 Spin polarized calculation.

  Number of occupied levels, spin            1  :    4.00000000000000     
 DFT Eigenvalues (eV), spin            1  :
 -19.61  -8.48  -8.48  -8.48   1.05   2.99   2.99   2.99   4.98   4.98
   5.01   5.01   5.01   8.79   8.79   8.79   8.81   8.81   8.81   8.85
   9.63  11.88  11.88  11.88  12.72  12.75  12.75  12.81  12.81  12.81
  12.83  12.83  12.83  13.11  13.11  13.19  13.19  13.19  17.11  17.11
  17.11  17.18  17.18  17.18  17.23  17.23  17.23  17.24  17.24  19.74
  19.74  19.74  19.78  19.78  19.78  19.88  21.89  21.89  21.99  21.99
  21.99  22.02  22.04  22.08  22.08  22.08  22.09  22.09  22.09  23.41
  25.30  25.30  25.48  25.48  25.48  25.70  25.70  25.70  26.07  26.15
 Irreducible representations, spin            1  :
    1    6    7    8    1    6    7    8    1    1
    3    4    2    6    7    8    8    7    6    5
    1    6    7    8    1    1    1    4    3    2
    3    2    4    1    1    4    3    2    7    6
    8    7    6    8    8    7    6    5    5    8
    6    7    8    7    6    5    1    1    4    2
    3    1    1    4    2    3    2    3    4    1
    1    1    2    3    4    8    6    7    1    1
 
  Number of occupied levels, spin            2  :    1.00000000000000     
 DFT Eigenvalues (eV), spin            2  :
 -14.88  -4.16  -4.16  -4.16   1.66   3.69   3.69   3.69   5.27   5.27
   5.30   5.30   5.30   8.93   8.93   8.93   8.95   8.95   8.95   8.99
  10.52  12.82  12.85  12.85  12.90  12.90  12.90  12.93  12.93  12.93
  12.95  12.95  12.95  13.85  13.85  13.93  13.93  13.93  17.18  17.18
  17.18  17.25  17.25  17.25  17.30  17.30  17.30  17.31  17.31  20.15
  20.15  20.15  20.20  20.20  20.20  20.30  21.95  21.95  22.04  22.04
  22.04  22.07  22.09  22.13  22.13  22.13  22.14  22.14  22.14  24.50
  26.30  26.30  26.35  26.50  26.50  26.50  26.50  26.50  26.53  26.53
 Irreducible representations, spin            2  :
    1    6    8    7    1    6    8    7    1    1
    4    3    2    6    7    8    8    7    6    5
    1    1    1    1    4    2    3    2    3    4
    6    7    8    1    1    4    3    2    7    6
    8    7    6    8    8    7    6    5    5    8
    6    7    8    7    6    5    1    1    4    2
    3    1    1    2    4    3    2    3    4    1
    1    1    1    3    2    4    1    1    3    2
 
 Maximum value of electron density (a.u.^-3) =   0.47235883E+00
 Total number of electrons =     5.0000

 MPI data :
 ----------

  Group partition information: 
  Distributing            1  processors among            1  groups.
  Each group contains            1  processors.
  I am processor rank            0  in group            0
  I am master in my group, with master rank            0
  My group has representations: 
    1    2    3    4    5    6    7    8

  Wavefunction partition information: 
  Distributing            1  processors among            1  groups.
  Each group contains            1  processors.
  I am processor rank            0  in group            0
  I am master in my group, with master rank    0


 Grid data :
 -----------

 Gradients and Laplacians calculated with FFT

  ELECTRONIC SYSTEM IS CONFINED !


 Confining radius (a.u.) =         7.980445

 Grid spacing (a.u.) =         0.500000        0.500000        0.500000

 Real-space FFT grid =   64  64  64  66

 Long-wavelength Coulomb energy (eV) =         0.0000000000

 Coulomb truncation length (a.u.) =        15.9608896995

 Full grid has      17256 points.
 Irreducible wedge has       2157 points.

 ELAPSED TIME =        0.01 s. parsec_wfn:  reading wave functions

 Read wavefunctions for         80 levels, spin    1

 Read wavefunctions for         80 levels, spin    2

-----------------------------------------------------------------


-----------------------------------------------------------------

 ELAPSED TIME =        0.01 s. Calling setup_g

-----------------------------------------------------------------

 Polarizability input data: 
 -------------------------

 Number of transitions per representation in TDLDA polarizabillity:
      67      41      41      40      32      54      54      54
 total =        383

 No energy cutoff in TDLDA polarizability
 Not using the Tamm-Dancoff approximation in TDLDA polarizability.

 Coulomb potential is being truncated in the TDLDA equation.


 Memory needed to store wavefunctions :       2.63 MB/proc.
 Memory needed to calculate kernel matrix elements :       0.08 MB/proc.

 Memory needed for diagonalization :       0.10 MB/proc.

-----------------------------------------------------------------

 ELAPSED TIME =        0.07 s.  Calling readmatrix kernel_p

 Calculating kernel matrix elements in blocks of        50000 (buffer size) 

  kernel K_x + K_f (TDLDA spin singlet)
 Using           77  data blocks to store matrix elements.
 ELAPSED TIME =        0.07 s.  Creating   64 x   64 x   64 FFT MKL descriptors.
 ELAPSED TIME =        0.09 s. Starting calculation of kernel
Kernel done!       3190 matrix elements calculated by PE  0 representation  1
 Buffer sizes:            5
        1176         912         912         190           0
 
       50000       50000       50000       50000       50000
 
 ELAPSED TIME =        4.38 s. FFT finalized
  Reconstructing kernel in blocks of        50000  matrix elements

*****************************************************************
  WARNING!!!! Removing the long-wavelength exchange. 
*****************************************************************

 ELAPSED TIME =        4.38 s.  Calling diag_pol

#################################################################
 Calculation of polarizability eigenvectors for representation  1
 number of pair transitions =           67
 pair transitions per PE =           67
#################################################################

 ELAPSED TIME =        4.38 s. diag_pol: Calling eigensolver
 ELAPSED TIME =        4.42 s. diag_pol: eigensolver done
 ELAPSED TIME =        4.42 s. diag_pol: energy factors included in eigenvectors
  Lowest energy eigenvalues in polarizability (eV): 
       11.316086
       11.316086
       12.112712
 ELAPSED TIME =        4.43 s.  Calling readmatrix kernel_p

 Calculating kernel matrix elements in blocks of        50000 (buffer size) 

  kernel K_x + K_f (TDLDA spin singlet)
 Using           51  data blocks to store matrix elements.
 ELAPSED TIME =        4.43 s.  Creating   64 x   64 x   64 FFT MKL descriptors.
 ELAPSED TIME =        4.46 s. Starting calculation of kernel
Kernel done!       1149 matrix elements calculated by PE  0 representation  2
 Buffer sizes:            5
         528         288         288          45           0
 
       50000       50000       50000       50000       50000
 
 ELAPSED TIME =        7.48 s. FFT finalized
  Reconstructing kernel in blocks of        50000  matrix elements

*****************************************************************
  WARNING!!!! Removing the long-wavelength exchange. 
*****************************************************************

 ELAPSED TIME =        7.48 s.  Calling diag_pol

#################################################################
 Calculation of polarizability eigenvectors for representation  2
 number of pair transitions =           41
 pair transitions per PE =           41
#################################################################

 ELAPSED TIME =        7.48 s. diag_pol: Calling eigensolver
 ELAPSED TIME =        7.48 s. diag_pol: eigensolver done
 ELAPSED TIME =        7.48 s. diag_pol: energy factors included in eigenvectors
  Lowest energy eigenvalues in polarizability (eV): 
       11.304510
       11.470550
       17.108658
 ELAPSED TIME =        7.49 s.  Calling readmatrix kernel_p

 Calculating kernel matrix elements in blocks of        50000 (buffer size) 

  kernel K_x + K_f (TDLDA spin singlet)
 Using           51  data blocks to store matrix elements.
 ELAPSED TIME =        7.49 s.  Creating   64 x   64 x   64 FFT MKL descriptors.
 ELAPSED TIME =        7.52 s. Starting calculation of kernel
Kernel done!       1149 matrix elements calculated by PE  0 representation  3
 Buffer sizes:            5
         528         288         288          45           0
 
       50000       50000       50000       50000       50000
 
 ELAPSED TIME =       10.49 s. FFT finalized
  Reconstructing kernel in blocks of        50000  matrix elements

*****************************************************************
  WARNING!!!! Removing the long-wavelength exchange. 
*****************************************************************

 ELAPSED TIME =       10.49 s.  Calling diag_pol

#################################################################
 Calculation of polarizability eigenvectors for representation  3
 number of pair transitions =           41
 pair transitions per PE =           41
#################################################################

 ELAPSED TIME =       10.49 s. diag_pol: Calling eigensolver
 ELAPSED TIME =       10.49 s. diag_pol: eigensolver done
 ELAPSED TIME =       10.49 s. diag_pol: energy factors included in eigenvectors
  Lowest energy eigenvalues in polarizability (eV): 
       11.304510
       11.470550
       17.108658
 ELAPSED TIME =       10.50 s.  Calling readmatrix kernel_p

 Calculating kernel matrix elements in blocks of        50000 (buffer size) 

  kernel K_x + K_f (TDLDA spin singlet)
 Using           50  data blocks to store matrix elements.
 ELAPSED TIME =       10.50 s.  Creating   64 x   64 x   64 FFT MKL descriptors.
 ELAPSED TIME =       10.53 s. Starting calculation of kernel
Kernel done!       1076 matrix elements calculated by PE  0 representation  4
 Buffer sizes:            5
         528         256         256          36           0
 
       50000       50000       50000       50000       50000
 
 ELAPSED TIME =       12.87 s. FFT finalized
  Reconstructing kernel in blocks of        50000  matrix elements

*****************************************************************
  WARNING!!!! Removing the long-wavelength exchange. 
*****************************************************************

 ELAPSED TIME =       12.88 s.  Calling diag_pol

#################################################################
 Calculation of polarizability eigenvectors for representation  4
 number of pair transitions =           40
 pair transitions per PE =           40
#################################################################

 ELAPSED TIME =       12.88 s. diag_pol: Calling eigensolver
 ELAPSED TIME =       12.88 s. diag_pol: eigensolver done
 ELAPSED TIME =       12.88 s. diag_pol: energy factors included in eigenvectors
  Lowest energy eigenvalues in polarizability (eV): 
       11.304510
       11.470550
       17.108658
 ELAPSED TIME =       12.88 s.  Calling readmatrix kernel_p

 Calculating kernel matrix elements in blocks of        50000 (buffer size) 

  kernel K_x + K_f (TDLDA spin singlet)
 Using           42  data blocks to store matrix elements.
 ELAPSED TIME =       12.88 s.  Creating   64 x   64 x   64 FFT MKL descriptors.
 ELAPSED TIME =       12.91 s. Starting calculation of kernel
Kernel done!        640 matrix elements calculated by PE  0 representation  5
 Buffer sizes:            5
         406         112         112          10           0
 
       50000       50000       50000       50000       50000
 
 ELAPSED TIME =       15.57 s. FFT finalized
  Reconstructing kernel in blocks of        50000  matrix elements

*****************************************************************
  WARNING!!!! Removing the long-wavelength exchange. 
*****************************************************************

 ELAPSED TIME =       15.57 s.  Calling diag_pol

#################################################################
 Calculation of polarizability eigenvectors for representation  5
 number of pair transitions =           32
 pair transitions per PE =           32
#################################################################

 ELAPSED TIME =       15.57 s. diag_pol: Calling eigensolver
 ELAPSED TIME =       15.57 s. diag_pol: eigensolver done
 ELAPSED TIME =       15.57 s. diag_pol: energy factors included in eigenvectors
  Lowest energy eigenvalues in polarizability (eV): 
       13.295457
       13.482124
       13.482124
 ELAPSED TIME =       15.58 s.  Calling readmatrix kernel_p

 Calculating kernel matrix elements in blocks of        50000 (buffer size) 

  kernel K_x + K_f (TDLDA spin singlet)
 Using           64  data blocks to store matrix elements.
 ELAPSED TIME =       15.58 s.  Creating   64 x   64 x   64 FFT MKL descriptors.
 ELAPSED TIME =       15.61 s. Starting calculation of kernel
Kernel done!       1925 matrix elements calculated by PE  0 representation  6
 Buffer sizes:            5
         990         440         440          55           0
 
       50000       50000       50000       50000       50000
 
 ELAPSED TIME =       19.39 s. FFT finalized
  Reconstructing kernel in blocks of        50000  matrix elements

*****************************************************************
  WARNING!!!! Removing the long-wavelength exchange. 
*****************************************************************

 ELAPSED TIME =       19.39 s.  Calling diag_pol

#################################################################
 Calculation of polarizability eigenvectors for representation  6
 number of pair transitions =           54
 pair transitions per PE =           54
#################################################################

 ELAPSED TIME =       19.39 s. diag_pol: Calling eigensolver
 ELAPSED TIME =       19.39 s. diag_pol: eigensolver done
 ELAPSED TIME =       19.39 s. diag_pol: energy factors included in eigenvectors
  Lowest energy eigenvalues in polarizability (eV): 
        9.413463
       11.000629
       13.278791
 ELAPSED TIME =       19.40 s.  Calling readmatrix kernel_p

 Calculating kernel matrix elements in blocks of        50000 (buffer size) 

  kernel K_x + K_f (TDLDA spin singlet)
 Using           64  data blocks to store matrix elements.
 ELAPSED TIME =       19.40 s.  Creating   64 x   64 x   64 FFT MKL descriptors.
 ELAPSED TIME =       19.42 s. Starting calculation of kernel
Kernel done!       1925 matrix elements calculated by PE  0 representation  7
 Buffer sizes:            5
         990         440         440          55           0
 
       50000       50000       50000       50000       50000
 
 ELAPSED TIME =       22.98 s. FFT finalized
  Reconstructing kernel in blocks of        50000  matrix elements

*****************************************************************
  WARNING!!!! Removing the long-wavelength exchange. 
*****************************************************************

 ELAPSED TIME =       22.99 s.  Calling diag_pol

#################################################################
 Calculation of polarizability eigenvectors for representation  7
 number of pair transitions =           54
 pair transitions per PE =           54
#################################################################

 ELAPSED TIME =       22.99 s. diag_pol: Calling eigensolver
 ELAPSED TIME =       22.99 s. diag_pol: eigensolver done
 ELAPSED TIME =       22.99 s. diag_pol: energy factors included in eigenvectors
  Lowest energy eigenvalues in polarizability (eV): 
        9.413467
       11.000708
       13.278818
 ELAPSED TIME =       23.00 s.  Calling readmatrix kernel_p

 Calculating kernel matrix elements in blocks of        50000 (buffer size) 

  kernel K_x + K_f (TDLDA spin singlet)
 Using           64  data blocks to store matrix elements.
 ELAPSED TIME =       23.00 s.  Creating   64 x   64 x   64 FFT MKL descriptors.
 ELAPSED TIME =       23.03 s. Starting calculation of kernel
Kernel done!       1925 matrix elements calculated by PE  0 representation  8
 Buffer sizes:            5
         990         440         440          55           0
 
       50000       50000       50000       50000       50000
 
 ELAPSED TIME =       26.31 s. FFT finalized
  Reconstructing kernel in blocks of        50000  matrix elements

*****************************************************************
  WARNING!!!! Removing the long-wavelength exchange. 
*****************************************************************

 ELAPSED TIME =       26.31 s.  Calling diag_pol

#################################################################
 Calculation of polarizability eigenvectors for representation  8
 number of pair transitions =           54
 pair transitions per PE =           54
#################################################################

 ELAPSED TIME =       26.31 s. diag_pol: Calling eigensolver
 ELAPSED TIME =       26.31 s. diag_pol: eigensolver done
 ELAPSED TIME =       26.31 s. diag_pol: energy factors included in eigenvectors
  Lowest energy eigenvalues in polarizability (eV): 
        9.413493
       11.001315
       13.279041

-----------------------------------------------------------------

 Checking oscillator strength sum rule
 Ratio between numerical and exact values :
                            Field polarization
                           x  ----  y  ----  z  ---- average
  RPA-LDA Sum Rule  =   0.6813   0.6812   0.6807      0.6811
     ALDA Sum Rule  =   0.6813   0.6812   0.6807      0.6811

-----------------------------------------------------------------

 Static polarizability (a.u.) 
                                 Field polarization 
                                x  ----  y  ----  z  ---- average
 RPA-LDA Polarizability =     9.85     9.85     9.85        9.851
    ALDA Polarizability =     8.07     8.07     8.07        8.069

  Average ALDA sum rule =   0.681073983516443     
  Average static RPA-LDA polarizability =    9.85099872286540     
-----------------------------------------------------------------

  Lowest energy eigenvalues in polarizability, all representations:
 Order      Energy (eV)  Representation
    1        9.413463         6
    2        9.413467         7
    3        9.413493         8
    4       11.000629         6
    5       11.000708         7
    6       11.001315         8
    7       11.304510         3
    8       11.304510         2
    9       11.304510         4
   10       11.316086         1

-----------------------------------------------------------------
                               CPU [s]     WALL [s]           #

 SETUP_T:                         0.062        0.066          1
 KERNEL:                         26.146       13.162          8
 
 DIAG_POL:                        0.057        0.024          8
 POISSON_FFT:                     0.000        0.000          0
 EIGENSOLVER:                     0.000        0.000          0
 INTEGRATION:                     0.000        0.000          0

                TOTAL            26.331       13.312

 Finished 2009 Mar 13 14: 7:43  -240 UTC
-----------------------------------------------------------------
