
=================================================================

 SIGMA   2009 Mar 10 16: 2:46  -240 UTC

 Running serial version (no MPI)

Version date : Fri Jan  2 17:07:49 EST 2009
architecture = intel_oic
pre-processing options = -DUSEMKL
compilation options = -O3 -ip -xT -align

=================================================================


 Electronic structure data :
 ---------------------------

 Reading electron wavefunctions from file parsec.dat/wfn.dat

 Wavefunction file created on 10-MAR-2009 16:02:40 -0400 UTC

-*--*--*--*--*--*--*--*--*--*--*--*--*--*--*--*--*--*--*--*--*--*--*-
 Wavefunctions are complex
-*--*--*--*--*--*--*--*--*--*--*--*--*--*--*--*--*--*--*--*--*--*--*-


 Spin unpolarized calculation.

 K-point =      0.245000     0.155000     0.465000
  Number of occupied levels, spin            1  :    4.00000000000000     
 DFT Eigenvalues (eV), spin            1  :
   2.89   7.70  11.47  13.17  17.54  18.44  20.05  20.86  23.12  25.81
  26.77  27.97
 Irreducible representations, spin            1  :
    1    1    1    1    1    1    1    1    1    1
    1    1
 
 K-point =      0.245000     0.155000     0.965000
  Number of occupied levels, spin            1  :    4.00000000000000     
 DFT Eigenvalues (eV), spin            1  :
   2.16  10.00  13.08  14.17  17.89  18.53  20.24  21.12  23.18  25.74
  26.01  28.19
 Irreducible representations, spin            1  :
    1    1    1    1    1    1    1    1    1    1
    1    1
 
 K-point =      0.245000     0.655000     0.465000
  Number of occupied levels, spin            1  :    4.00000000000000     
 DFT Eigenvalues (eV), spin            1  :
   4.62   5.76  11.02  11.75  18.51  19.29  19.50  23.12  24.48  26.25
  28.25  29.62
 Irreducible representations, spin            1  :
    1    1    1    1    1    1    1    1    1    1
    1    1
 
 K-point =      0.245000     0.655000     0.965000
  Number of occupied levels, spin            1  :    4.00000000000000     
 DFT Eigenvalues (eV), spin            1  :
   3.76   7.18  10.95  13.74  18.53  19.83  21.68  23.20  23.73  25.80
  28.13  30.18
 Irreducible representations, spin            1  :
    1    1    1    1    1    1    1    1    1    1
    1    1
 
 K-point =      0.745000     0.155000     0.465000
  Number of occupied levels, spin            1  :    4.00000000000000     
 DFT Eigenvalues (eV), spin            1  :
   4.51   5.96  10.94  11.82  17.75  20.01  21.20  21.85  24.89  25.99
  28.60  30.01
 Irreducible representations, spin            1  :
    1    1    1    1    1    1    1    1    1    1
    1    1
 
 K-point =      0.745000     0.155000     0.965000
  Number of occupied levels, spin            1  :    4.00000000000000     
 DFT Eigenvalues (eV), spin            1  :
   2.62   8.71  12.02  14.39  18.11  18.69  21.03  22.29  24.19  25.71
  26.97  27.98
 Irreducible representations, spin            1  :
    1    1    1    1    1    1    1    1    1    1
    1    1
 
 K-point =      0.745000     0.655000     0.465000
  Number of occupied levels, spin            1  :    4.00000000000000     
 DFT Eigenvalues (eV), spin            1  :
   3.58   7.09  11.24  13.10  17.89  19.15  21.53  21.93  24.23  24.49
  27.32  29.60
 Irreducible representations, spin            1  :
    1    1    1    1    1    1    1    1    1    1
    1    1
 
 K-point =      0.745000     0.655000     0.965000
  Number of occupied levels, spin            1  :    4.00000000000000     
 DFT Eigenvalues (eV), spin            1  :
   2.83   8.92  12.68  13.66  17.21  18.64  21.14  22.80  24.32  26.84
  27.37  29.58
 Irreducible representations, spin            1  :
    1    1    1    1    1    1    1    1    1    1
    1    1
 
 Maximum value of electron density (a.u.^-3) =   0.88558501E-01
 Total number of electrons =     8.0000

 MPI data :
 ----------

  Group partition information: 
  Distributing            1  processors among            1  groups.
  Each group contains            1  processors.
  I am processor rank            0  in group            0
  I am master in my group, with master rank            0
  My group has representations: 
    1

  Wavefunction partition information: 
  Distributing            1  processors among            1  groups.
  Each group contains            1  processors.
  I am processor rank            0  in group            0
  I am master in my group, with master rank    0

 Atom data :
 -----------

 Atom coordinates input in lattice vector units.

  Atomic coordinates (all atoms) are :
           x [a.u.]          y [a.u.]          z [a.u.]           Type
   1      -1.282500000      -1.282500000      -1.282500000         Si
   2       1.282500000       1.282500000       1.282500000         Si

 Total number of atoms =    2
 Total number of atom types =    1

 Pseudopotential messages, element Si :
 --------------------------------------

 Pseudopotential format : FHIPP
 Pseudopotential file for this atom type is Si_FHIPP.DAT

 logarithmic parameters of pseudopot. radial grid
 r(i) = a*[Exp(b(i-1)) - 1)]
 a (a.u.) = 0.410785E-04 b = 0.100000E-01 c =  0.00000     nr =     1488

 # of pseudopot= 3, Local component is l = 2
 Core radius (a.u.) =  2.00

 Normalization check and Kleinman-Bylander Integral:
                        s             p             d
 Normalization        1.00001667    1.00001667   22.70016577
 K-B Integral (Ry)    0.77430718    0.36189495  -31.01867873

 Grid data :
 -----------

 Gradients and Laplacians calculated with finite differences, order   6

 Number of finite difference directions =  6
 Finite difference directions:
     1     0     0     weight =  0.500000
     0     1     0     weight =  0.500000
     0     0     1     weight =  0.500000
    -1     0     1     weight =  0.500000
    -1     1     0     weight =  0.500000
     0    -1     1     weight =  0.500000

  BULK BOUNDARY CONDITIONS !

 Volume of periodic cell (a.u.^3) =       270.011394

 Unit lattice vectors (a.u.) = 
   0.000000000000000   5.130000000000000   5.130000000000000
   5.130000000000000   0.000000000000000   5.130000000000000
   5.130000000000000   5.130000000000000   0.000000000000000

 Grid spacing (a.u.) =         1.209153        1.209153        1.209153

 Real-space FFT grid =    6   6   6   8

 Long-wavelength Coulomb energy (eV) =         5.2234453789

 No Coulomb truncation

 Full grid has        216 points.
 Irreducible wedge has        216 points.

 ELAPSED TIME =        0.02 s. parsec_wfn:  reading wave functions

 Read wavefunctions for         12 levels, spin    1 k-point    1

 Read wavefunctions for         12 levels, spin    1 k-point    2

 Read wavefunctions for         12 levels, spin    1 k-point    3

 Read wavefunctions for         12 levels, spin    1 k-point    4

 Read wavefunctions for         12 levels, spin    1 k-point    5

 Read wavefunctions for         12 levels, spin    1 k-point    6

 Read wavefunctions for         12 levels, spin    1 k-point    7

 Read wavefunctions for         12 levels, spin    1 k-point    8

-----------------------------------------------------------------


-----------------------------------------------------------------

 ELAPSED TIME =        0.03 s. Calling setup_s
 
  Matching k-points : 
 q-point #  1 =         0.0000000000        0.0000000000        0.0000000000
  k-point and (k-q) point 
    0.2450    0.1550    0.4650         0.2450    0.1550    0.4650
    0.2450    0.1550    0.9650         0.2450    0.1550    0.9650
    0.2450    0.6550    0.4650         0.2450    0.6550    0.4650
    0.2450    0.6550    0.9650         0.2450    0.6550    0.9650
    0.7450    0.1550    0.4650         0.7450    0.1550    0.4650
    0.7450    0.1550    0.9650         0.7450    0.1550    0.9650
    0.7450    0.6550    0.4650         0.7450    0.6550    0.4650
    0.7450    0.6550    0.9650         0.7450    0.6550    0.9650
 q-point #  2 =         0.0000000000        0.0000000000        0.5000000000
  k-point and (k-q) point 
    0.2450    0.1550    0.4650         0.2450    0.1550    0.9650
    0.2450    0.1550    0.9650         0.2450    0.1550    0.4650
    0.2450    0.6550    0.4650         0.2450    0.6550    0.9650
    0.2450    0.6550    0.9650         0.2450    0.6550    0.4650
    0.7450    0.1550    0.4650         0.7450    0.1550    0.9650
    0.7450    0.1550    0.9650         0.7450    0.1550    0.4650
    0.7450    0.6550    0.4650         0.7450    0.6550    0.9650
    0.7450    0.6550    0.9650         0.7450    0.6550    0.4650
 q-point #  3 =         0.0000000000        0.5000000000        0.0000000000
  k-point and (k-q) point 
    0.2450    0.1550    0.4650         0.2450    0.6550    0.4650
    0.2450    0.1550    0.9650         0.2450    0.6550    0.9650
    0.2450    0.6550    0.4650         0.2450    0.1550    0.4650
    0.2450    0.6550    0.9650         0.2450    0.1550    0.9650
    0.7450    0.1550    0.4650         0.7450    0.6550    0.4650
    0.7450    0.1550    0.9650         0.7450    0.6550    0.9650
    0.7450    0.6550    0.4650         0.7450    0.1550    0.4650
    0.7450    0.6550    0.9650         0.7450    0.1550    0.9650
 q-point #  4 =         0.0000000000        0.5000000000        0.5000000000
  k-point and (k-q) point 
    0.2450    0.1550    0.4650         0.2450    0.6550    0.9650
    0.2450    0.1550    0.9650         0.2450    0.6550    0.4650
    0.2450    0.6550    0.4650         0.2450    0.1550    0.9650
    0.2450    0.6550    0.9650         0.2450    0.1550    0.4650
    0.7450    0.1550    0.4650         0.7450    0.6550    0.9650
    0.7450    0.1550    0.9650         0.7450    0.6550    0.4650
    0.7450    0.6550    0.4650         0.7450    0.1550    0.9650
    0.7450    0.6550    0.9650         0.7450    0.1550    0.4650
 q-point #  5 =         0.5000000000        0.0000000000        0.0000000000
  k-point and (k-q) point 
    0.2450    0.1550    0.4650         0.7450    0.1550    0.4650
    0.2450    0.1550    0.9650         0.7450    0.1550    0.9650
    0.2450    0.6550    0.4650         0.7450    0.6550    0.4650
    0.2450    0.6550    0.9650         0.7450    0.6550    0.9650
    0.7450    0.1550    0.4650         0.2450    0.1550    0.4650
    0.7450    0.1550    0.9650         0.2450    0.1550    0.9650
    0.7450    0.6550    0.4650         0.2450    0.6550    0.4650
    0.7450    0.6550    0.9650         0.2450    0.6550    0.9650
 q-point #  6 =         0.5000000000        0.0000000000        0.5000000000
  k-point and (k-q) point 
    0.2450    0.1550    0.4650         0.7450    0.1550    0.9650
    0.2450    0.1550    0.9650         0.7450    0.1550    0.4650
    0.2450    0.6550    0.4650         0.7450    0.6550    0.9650
    0.2450    0.6550    0.9650         0.7450    0.6550    0.4650
    0.7450    0.1550    0.4650         0.2450    0.1550    0.9650
    0.7450    0.1550    0.9650         0.2450    0.1550    0.4650
    0.7450    0.6550    0.4650         0.2450    0.6550    0.9650
    0.7450    0.6550    0.9650         0.2450    0.6550    0.4650
 q-point #  7 =         0.5000000000        0.5000000000        0.0000000000
  k-point and (k-q) point 
    0.2450    0.1550    0.4650         0.7450    0.6550    0.4650
    0.2450    0.1550    0.9650         0.7450    0.6550    0.9650
    0.2450    0.6550    0.4650         0.7450    0.1550    0.4650
    0.2450    0.6550    0.9650         0.7450    0.1550    0.9650
    0.7450    0.1550    0.4650         0.2450    0.6550    0.4650
    0.7450    0.1550    0.9650         0.2450    0.6550    0.9650
    0.7450    0.6550    0.4650         0.2450    0.1550    0.4650
    0.7450    0.6550    0.9650         0.2450    0.1550    0.9650
 q-point #  8 =         0.5000000000        0.5000000000        0.5000000000
  k-point and (k-q) point 
    0.2450    0.1550    0.4650         0.7450    0.6550    0.9650
    0.2450    0.1550    0.9650         0.7450    0.6550    0.4650
    0.2450    0.6550    0.4650         0.7450    0.1550    0.9650
    0.2450    0.6550    0.9650         0.7450    0.1550    0.4650
    0.7450    0.1550    0.4650         0.2450    0.6550    0.9650
    0.7450    0.1550    0.9650         0.2450    0.6550    0.4650
    0.7450    0.6550    0.4650         0.2450    0.1550    0.9650
    0.7450    0.6550    0.9650         0.2450    0.1550    0.4650

 k-point     0.2450    0.1550    0.4650   1
  Calculating           12  diagonal matrix elements
  and           66  off-diagonal matrix elements.
  Calculating           12  diagonal matrix elements
  and           66  off-diagonal matrix elements beyond COHSEX.

 k-point     0.2450    0.1550    0.9650   2
  Calculating           12  diagonal matrix elements
  and           66  off-diagonal matrix elements.
  Calculating           12  diagonal matrix elements
  and           66  off-diagonal matrix elements beyond COHSEX.

 k-point     0.2450    0.6550    0.4650   3
  Calculating           12  diagonal matrix elements
  and           66  off-diagonal matrix elements.
  Calculating           12  diagonal matrix elements
  and           66  off-diagonal matrix elements beyond COHSEX.

 k-point     0.2450    0.6550    0.9650   4
  Calculating           12  diagonal matrix elements
  and           66  off-diagonal matrix elements.
  Calculating           12  diagonal matrix elements
  and           66  off-diagonal matrix elements beyond COHSEX.

 k-point     0.7450    0.1550    0.4650   5
  Calculating           12  diagonal matrix elements
  and           66  off-diagonal matrix elements.
  Calculating           12  diagonal matrix elements
  and           66  off-diagonal matrix elements beyond COHSEX.

 k-point     0.7450    0.1550    0.9650   6
  Calculating           12  diagonal matrix elements
  and           66  off-diagonal matrix elements.
  Calculating           12  diagonal matrix elements
  and           66  off-diagonal matrix elements beyond COHSEX.

 k-point     0.7450    0.6550    0.4650   7
  Calculating           12  diagonal matrix elements
  and           66  off-diagonal matrix elements.
  Calculating           12  diagonal matrix elements
  and           66  off-diagonal matrix elements beyond COHSEX.

 k-point     0.7450    0.6550    0.9650   8
  Calculating           12  diagonal matrix elements
  and           66  off-diagonal matrix elements.
  Calculating           12  diagonal matrix elements
  and           66  off-diagonal matrix elements beyond COHSEX.
  Calculating exchange matrix elements, spin            1
 Functional : Slater exchange
  Calculating correlation matrix elements, spin            1
 Functional : Perdew & Zunger
  Calculating exchange matrix elements, spin            1
 Functional : Slater exchange
  Calculating correlation matrix elements, spin            1
 Functional : Perdew & Zunger

 V_xc MATRIX ELEMENTS (eV): 
   n     E_dft     E_0       V_xc      V_x       V_c
   1     2.889     2.889   -11.258    -9.768    -1.491
   2     7.703     7.703   -11.515   -10.008    -1.507
   3    11.471    11.471   -10.366    -8.933    -1.433
   4    13.175    13.175   -11.128    -9.644    -1.483
   5    17.543    17.543   -10.457    -9.019    -1.437
   6    18.435    18.435    -9.723    -8.334    -1.390
   7    20.047    20.047    -9.494    -8.120    -1.373
   8    20.860    20.860   -10.244    -8.816    -1.427
   9    23.116    23.116    -9.859    -8.459    -1.400
  10    25.809    25.809    -9.304    -7.948    -1.356
  11    26.774    26.774   -10.450    -9.013    -1.436
  12    27.969    27.969    -9.671    -8.287    -1.384
-----------------------------------------------------------------

  Calculating exchange matrix elements, spin            1
 Functional : Slater exchange
  Calculating correlation matrix elements, spin            1
 Functional : Perdew & Zunger
  Calculating exchange matrix elements, spin            1
 Functional : Slater exchange
  Calculating correlation matrix elements, spin            1
 Functional : Perdew & Zunger
  Calculating exchange matrix elements, spin            1
 Functional : Slater exchange
  Calculating correlation matrix elements, spin            1
 Functional : Perdew & Zunger

 V_xc MATRIX ELEMENTS (eV): 
   n     E_dft     E_0       V_xc      V_x       V_c
   1     2.156     2.156   -11.084    -9.605    -1.479
   2    10.003    10.003   -11.575   -10.064    -1.511
   3    13.082    13.082   -10.749    -9.291    -1.458
   4    14.171    14.171   -10.975    -9.502    -1.473
   5    17.895    17.895   -10.243    -8.819    -1.424
   6    18.531    18.531   -10.677    -9.227    -1.450
   7    20.244    20.244   -10.152    -8.732    -1.419
   8    21.123    21.123    -9.891    -8.490    -1.402
   9    23.185    23.185   -10.015    -8.605    -1.410
  10    25.744    25.744    -9.177    -7.828    -1.349
  11    26.011    26.011    -9.471    -8.099    -1.373
  12    28.193    28.193    -9.073    -7.730    -1.343
-----------------------------------------------------------------

  Calculating exchange matrix elements, spin            1
 Functional : Slater exchange
  Calculating correlation matrix elements, spin            1
 Functional : Perdew & Zunger
  Calculating exchange matrix elements, spin            1
 Functional : Slater exchange
  Calculating correlation matrix elements, spin            1
 Functional : Perdew & Zunger
  Calculating exchange matrix elements, spin            1
 Functional : Slater exchange
  Calculating correlation matrix elements, spin            1
 Functional : Perdew & Zunger

 V_xc MATRIX ELEMENTS (eV): 
   n     E_dft     E_0       V_xc      V_x       V_c
   1     4.621     4.621   -11.406    -9.906    -1.500
   2     5.764     5.764   -11.511   -10.004    -1.507
   3    11.017    11.017   -10.144    -8.725    -1.419
   4    11.752    11.752   -10.430    -8.992    -1.438
   5    18.513    18.513    -9.614    -8.232    -1.382
   6    19.291    19.291    -9.523    -8.149    -1.374
   7    19.504    19.504   -10.187    -8.765    -1.422
   8    23.123    23.123   -10.312    -8.885    -1.427
   9    24.479    24.479   -10.542    -9.097    -1.446
  10    26.247    26.247   -10.549    -9.105    -1.444
  11    28.247    28.247   -10.554    -9.111    -1.443
  12    29.616    29.616    -9.541    -8.168    -1.372
-----------------------------------------------------------------

  Calculating exchange matrix elements, spin            1
 Functional : Slater exchange
  Calculating correlation matrix elements, spin            1
 Functional : Perdew & Zunger
  Calculating exchange matrix elements, spin            1
 Functional : Slater exchange
  Calculating correlation matrix elements, spin            1
 Functional : Perdew & Zunger
  Calculating exchange matrix elements, spin            1
 Functional : Slater exchange
  Calculating correlation matrix elements, spin            1
 Functional : Perdew & Zunger

 V_xc MATRIX ELEMENTS (eV): 
   n     E_dft     E_0       V_xc      V_x       V_c
   1     3.760     3.760   -11.331    -9.836    -1.496
   2     7.176     7.176   -11.328    -9.833    -1.495
   3    10.953    10.953   -10.039    -8.627    -1.412
   4    13.744    13.744   -10.741    -9.283    -1.458
   5    18.525    18.525   -10.312    -8.885    -1.427
   6    19.826    19.826   -10.139    -8.725    -1.415
   7    21.679    21.679    -9.788    -8.396    -1.392
   8    23.200    23.200   -10.057    -8.645    -1.412
   9    23.727    23.727   -10.033    -8.618    -1.415
  10    25.803    25.803   -10.285    -8.858    -1.427
  11    28.131    28.131    -8.710    -7.395    -1.315
  12    30.178    30.178   -10.400    -8.970    -1.430
-----------------------------------------------------------------

  Calculating exchange matrix elements, spin            1
 Functional : Slater exchange
  Calculating correlation matrix elements, spin            1
 Functional : Perdew & Zunger
  Calculating exchange matrix elements, spin            1
 Functional : Slater exchange
  Calculating correlation matrix elements, spin            1
 Functional : Perdew & Zunger
  Calculating exchange matrix elements, spin            1
 Functional : Slater exchange
  Calculating correlation matrix elements, spin            1
 Functional : Perdew & Zunger

 V_xc MATRIX ELEMENTS (eV): 
   n     E_dft     E_0       V_xc      V_x       V_c
   1     4.515     4.515   -11.471    -9.967    -1.504
   2     5.959     5.959   -11.435    -9.933    -1.502
   3    10.936    10.936   -10.087    -8.672    -1.415
   4    11.824    11.824   -10.440    -9.002    -1.438
   5    17.749    17.749    -9.708    -8.320    -1.388
   6    20.010    20.010    -9.629    -8.248    -1.381
   7    21.199    21.199   -10.065    -8.652    -1.413
   8    21.848    21.848   -10.390    -8.958    -1.432
   9    24.891    24.891   -10.470    -9.029    -1.441
  10    25.988    25.988   -10.212    -8.789    -1.423
  11    28.602    28.602   -10.897    -9.432    -1.464
  12    30.006    30.006   -10.408    -8.976    -1.432
-----------------------------------------------------------------

  Calculating exchange matrix elements, spin            1
 Functional : Slater exchange
  Calculating correlation matrix elements, spin            1
 Functional : Perdew & Zunger
  Calculating exchange matrix elements, spin            1
 Functional : Slater exchange
  Calculating correlation matrix elements, spin            1
 Functional : Perdew & Zunger
  Calculating exchange matrix elements, spin            1
 Functional : Slater exchange
  Calculating correlation matrix elements, spin            1
 Functional : Perdew & Zunger

 V_xc MATRIX ELEMENTS (eV): 
   n     E_dft     E_0       V_xc      V_x       V_c
   1     2.621     2.621   -11.162    -9.678    -1.485
   2     8.712     8.712   -11.413    -9.913    -1.500
   3    12.017    12.017   -10.334    -8.903    -1.431
   4    14.394    14.394   -11.029    -9.552    -1.477
   5    18.114    18.114   -10.462    -9.026    -1.436
   6    18.689    18.689   -10.810    -9.350    -1.460
   7    21.034    21.034    -9.402    -8.034    -1.367
   8    22.289    22.289    -9.988    -8.576    -1.412
   9    24.194    24.194   -10.332    -8.902    -1.430
  10    25.706    25.706    -9.305    -7.947    -1.358
  11    26.968    26.968    -9.935    -8.529    -1.405
  12    27.983    27.983    -9.889    -8.491    -1.398
-----------------------------------------------------------------

  Calculating exchange matrix elements, spin            1
 Functional : Slater exchange
  Calculating correlation matrix elements, spin            1
 Functional : Perdew & Zunger
  Calculating exchange matrix elements, spin            1
 Functional : Slater exchange
  Calculating correlation matrix elements, spin            1
 Functional : Perdew & Zunger
  Calculating exchange matrix elements, spin            1
 Functional : Slater exchange
  Calculating correlation matrix elements, spin            1
 Functional : Perdew & Zunger

 V_xc MATRIX ELEMENTS (eV): 
   n     E_dft     E_0       V_xc      V_x       V_c
   1     3.577     3.577   -11.251    -9.760    -1.491
   2     7.089     7.089   -11.458    -9.955    -1.503
   3    11.242    11.242   -10.155    -8.736    -1.420
   4    13.096    13.096   -10.920    -9.450    -1.470
   5    17.893    17.893    -9.847    -8.448    -1.398
   6    19.147    19.147    -9.571    -8.193    -1.378
   7    21.532    21.532   -10.034    -8.626    -1.408
   8    21.926    21.926   -10.084    -8.666    -1.417
   9    24.227    24.227   -10.193    -8.774    -1.419
  10    24.490    24.490   -10.028    -8.617    -1.411
  11    27.319    27.319    -8.832    -7.507    -1.325
  12    29.601    29.601   -10.390    -8.957    -1.433
-----------------------------------------------------------------

  Calculating exchange matrix elements, spin            1
 Functional : Slater exchange
  Calculating correlation matrix elements, spin            1
 Functional : Perdew & Zunger
  Calculating exchange matrix elements, spin            1
 Functional : Slater exchange
  Calculating correlation matrix elements, spin            1
 Functional : Perdew & Zunger
  Calculating exchange matrix elements, spin            1
 Functional : Slater exchange
  Calculating correlation matrix elements, spin            1
 Functional : Perdew & Zunger

 V_xc MATRIX ELEMENTS (eV): 
   n     E_dft     E_0       V_xc      V_x       V_c
   1     2.826     2.826   -11.089    -9.609    -1.480
   2     8.924     8.924   -11.536   -10.027    -1.508
   3    12.679    12.679   -10.612    -9.162    -1.450
   4    13.657    13.657   -10.786    -9.324    -1.462
   5    17.205    17.205    -9.375    -8.010    -1.365
   6    18.639    18.639    -9.806    -8.411    -1.395
   7    21.136    21.136   -10.076    -8.663    -1.413
   8    22.800    22.800   -10.459    -9.017    -1.441
   9    24.324    24.324   -10.505    -9.064    -1.441
  10    26.842    26.842    -9.637    -8.252    -1.386
  11    27.370    27.370    -9.501    -8.131    -1.370
  12    29.578    29.578    -8.484    -7.180    -1.304
-----------------------------------------------------------------

  Calculating exchange matrix elements, spin            1
 Functional : Slater exchange
  Calculating correlation matrix elements, spin            1
 Functional : Perdew & Zunger
 ELAPSED TIME =        0.05 s.  Creating    6 x    6 x    6 FFT MKL descriptors.
 ELAPSED TIME =        0.05 s. FFT finalized
 ELAPSED TIME =        0.05 s.  Creating    6 x    6 x    6 FFT MKL descriptors.
 ELAPSED TIME =        0.06 s. FFT finalized
 ELAPSED TIME =        0.06 s.  Creating    6 x    6 x    6 FFT MKL descriptors.
 ELAPSED TIME =        0.06 s. FFT finalized
 ELAPSED TIME =        0.06 s.  Creating    6 x    6 x    6 FFT MKL descriptors.
 ELAPSED TIME =        0.06 s. FFT finalized
 ELAPSED TIME =        0.06 s.  Creating    6 x    6 x    6 FFT MKL descriptors.
 ELAPSED TIME =        0.06 s. FFT finalized
 ELAPSED TIME =        0.07 s.  Creating    6 x    6 x    6 FFT MKL descriptors.
 ELAPSED TIME =        0.07 s. FFT finalized
 ELAPSED TIME =        0.07 s.  Creating    6 x    6 x    6 FFT MKL descriptors.
 ELAPSED TIME =        0.07 s. FFT finalized
 ELAPSED TIME =        0.07 s.  Creating    6 x    6 x    6 FFT MKL descriptors.
 ELAPSED TIME =        0.07 s. FFT finalized
 
 WARNING! Local pseudopotential energy is wrong in periodic systems
 WARNING! Ion-ion pseudopotential energy is wrong in periodic systems
 WARNING! Total pseudopotential energy is wrong in periodic systems
 
                  Eigenvalue Energy =         5.2827994067 [Ry]
                     Kinetic Energy =        23.6336653197 [Ry]
       Local Pseudopotential Energy =         0.0000000000 [Ry]
   Non-local Pseudopotential Energy =         2.8458051265 [Ry]
                     Ion-ion Energy =         0.0000000000 [Ry]
                       Total Energy =        15.8811349265 [Ry]
 Total energy excludes Exc - Int_{Vxc*rho}/2 term.
 

-----------------------------------------------------------------

 Self-energy input data: 
 -----------------------

 Number of transitions per representation in TDLDA polarizabillity:
     256     256     256     256     256     256     256     256
 total =       2048

 No energy cutoff in TDLDA polarizability

 LDA kernel is not included in polarizability

 Calculating TDLDA polarizability within the Tamm-Dancoff approximation.

 Sum rule not renormalized

 Order of highest LDA state included in Green function =    12
 Order of highest LDA state included in COHSEX approximation =    12

 Energy resolution in energy poles, self-energy (eV) =  1.361    

 Energy range used to calculate self-energy  =    20.0000 eV 

 Number of data points used to calculate self-energy =    21

 Calculating < n_1 | Sigma | n_2 > at the energy of orbital n_1

 Calculating W_pol in static limit with nr =          216
 Fraction of electron density within nr =    100.000000000000       %
 Disk space used =       6.75 MB

 Memory needed to store wavefunctions :       0.32 MB/proc.
 Memory needed to calculate kernel matrix elements :       0.02 MB/proc.
 Memory needed for diagonalization :       1.50 MB/proc.
 Memory needed in self-energy calculation :      7.75 MB/proc.
 Minimum memory needed :       7.75 MB/proc.

-----------------------------------------------------------------


*****************************************************************

  Start self-consistent iteration            0  out of            0
 
 Reading polarizability eigenvalues/eigenvectors  from pol_diag.dat 
 
  File created on 2009 Mar 10 16: 2:40  -240 UTC
  Representation            1  out of            1
  Lowest energy eigenvalues in polarizability (eV): 
        3.763240
        3.906579
        4.050680
  Representation            1  out of            1
  Lowest energy eigenvalues in polarizability (eV): 
        3.411651
        3.584933
        4.218011
  Representation            1  out of            1
  Lowest energy eigenvalues in polarizability (eV): 
        2.911749
        4.217076
        4.319846
  Representation            1  out of            1
  Lowest energy eigenvalues in polarizability (eV): 
        3.607308
        3.896437
        4.285783
  Representation            1  out of            1
  Lowest energy eigenvalues in polarizability (eV): 
        3.545030
        3.601692
        4.059346
  Representation            1  out of            1
  Lowest energy eigenvalues in polarizability (eV): 
        3.296686
        3.732426
        4.175367
  Representation            1  out of            1
  Lowest energy eigenvalues in polarizability (eV): 
        3.173012
        4.247203
        4.296820
  Representation            1  out of            1
  Lowest energy eigenvalues in polarizability (eV): 
        3.872618
        4.022939
        4.161748
 ELAPSED TIME =        0.08 s.  Calling readmatrix kernel_p

 readmatrix: skipping reading of matrix elements 

 ELAPSED TIME =        0.08 s.  Calling readmatrix kernel_p

 readmatrix: skipping reading of matrix elements 

 ELAPSED TIME =        0.08 s.  Calling readmatrix kernel_p

 readmatrix: skipping reading of matrix elements 

 ELAPSED TIME =        0.08 s.  Calling readmatrix kernel_p

 readmatrix: skipping reading of matrix elements 

 ELAPSED TIME =        0.08 s.  Calling readmatrix kernel_p

 readmatrix: skipping reading of matrix elements 

 ELAPSED TIME =        0.08 s.  Calling readmatrix kernel_p

 readmatrix: skipping reading of matrix elements 

 ELAPSED TIME =        0.08 s.  Calling readmatrix kernel_p

 readmatrix: skipping reading of matrix elements 

 ELAPSED TIME =        0.08 s.  Calling readmatrix kernel_p

 readmatrix: skipping reading of matrix elements 


-----------------------------------------------------------------

 Checking oscillator strength sum rule
 Ratio between numerical and exact values :
                            Field polarization
                           x  ----  y  ----  z  ---- average
  RPA-LDA Sum Rule  =   0.6551   0.5959   0.5030      0.5847
     ALDA Sum Rule  =   1.4650   1.2342   0.8823      1.1938

-----------------------------------------------------------------

 Static polarizability (a.u.) 
                                 Field polarization 
                                x  ----  y  ----  z  ---- average
 RPA-LDA Polarizability =   135.02   118.29    72.73      108.679
    ALDA Polarizability =    58.91    56.18    41.02       52.033

  Average ALDA sum rule =    1.19382973199627     
  Average static RPA-LDA polarizability =    108.678707929028     
-----------------------------------------------------------------

  Lowest energy eigenvalues in polarizability, all representations:
 Order      Energy (eV)  Representation
    1        3.763240         1
    2        3.906579         1
    3        4.050680         1
    4        4.430513         1
    5        4.496253         1
    6        4.614539         1
    7        4.701004         1
    8        4.853789         1
    9        4.931370         1
   10        5.298554         1

-----------------------------------------------------------------
 Dielectric constant (RPA, no local fields) =    11.1158466055389     
-----------------------------------------------------------------

 ELAPSED TIME =        0.09 s.  Creating    6 x    6 x    6 FFT MKL descriptors.

=================================================================
 WARNING !!!! f_lda = zero 
=================================================================

 ELAPSED TIME =        0.09 s.  Memory allocation done. Start calculating vvc,fvc.
 ELAPSED TIME =        0.09 s.  vvc/fvc calculation
        51 out of        256 representation  1 spin  1
 ELAPSED TIME =        0.09 s.  vvc/fvc calculation
       102 out of        256 representation  1 spin  1
 ELAPSED TIME =        0.09 s.  vvc/fvc calculation
       153 out of        256 representation  1 spin  1
 ELAPSED TIME =        0.09 s.  vvc/fvc calculation
       204 out of        256 representation  1 spin  1
 ELAPSED TIME =        0.10 s.  vvc/fvc calculation
       255 out of        256 representation  1 spin  1
 ELAPSED TIME =        0.10 s. FFT finalized
 ELAPSED TIME =        0.10 s. Finished calculation of vvc/fvc.
  Distributing grid points among PEs. 
         216  grid points per PE. 
 Seek representation   1 in pol_diag.dat.   1  1     256
 ELAPSED TIME =        0.26 s.  vr/fr calculation
        43 out of        216 representation  1 processor    0
 ELAPSED TIME =        0.34 s.  vr/fr calculation
        86 out of        216 representation  1 processor    0
 ELAPSED TIME =        0.42 s.  vr/fr calculation
       129 out of        216 representation  1 processor    0
 ELAPSED TIME =        0.50 s.  vr/fr calculation
       172 out of        216 representation  1 processor    0
 ELAPSED TIME =        0.58 s.  vr/fr calculation
       215 out of        216 representation  1 processor    0

 Checkpoint control =     0

 ELAPSED TIME =        0.69 s.  Calling exchange
 ELAPSED TIME =        0.69 s.  Creating    6 x    6 x    6 FFT MKL descriptors.
 ELAPSED TIME =        0.75 s. FFT finalized
 ELAPSED TIME =        0.75 s.  Creating    6 x    6 x    6 FFT MKL descriptors.
 ELAPSED TIME =        0.80 s. FFT finalized
 ELAPSED TIME =        0.80 s.  Creating    6 x    6 x    6 FFT MKL descriptors.
 ELAPSED TIME =        0.85 s. FFT finalized
 ELAPSED TIME =        0.85 s.  Creating    6 x    6 x    6 FFT MKL descriptors.
 ELAPSED TIME =        0.88 s. FFT finalized
 ELAPSED TIME =        0.88 s.  Creating    6 x    6 x    6 FFT MKL descriptors.
 ELAPSED TIME =        0.89 s. FFT finalized
 ELAPSED TIME =        0.89 s.  Creating    6 x    6 x    6 FFT MKL descriptors.
 ELAPSED TIME =        0.91 s. FFT finalized
 ELAPSED TIME =        0.91 s.  Creating    6 x    6 x    6 FFT MKL descriptors.
 ELAPSED TIME =        0.92 s. FFT finalized
 ELAPSED TIME =        0.92 s.  Creating    6 x    6 x    6 FFT MKL descriptors.
 ELAPSED TIME =        0.93 s. FFT finalized

 Checkpoint control =     9


-----------------------------------------------------------------
 Working now with representation   1 out of   1

 q-vector #    1 (       0.00000000      0.00000000      0.00000000 )

 Seek representation   1 in pol_diag.dat.   1  1     256
 ELAPSED TIME =        0.94 s.  Calling readmatrix kernel_c

 Calculating kernel matrix elements in blocks of        50000 (buffer size) 

  kernel K_x (Hartree/Exchange kernel)
 Using          263  data blocks to store matrix elements.
 ELAPSED TIME =        0.94 s.  Creating    6 x    6 x    6 FFT MKL descriptors.
 ELAPSED TIME =        0.94 s. Starting calculation of kernel
 ELAPSED TIME =        0.97 s.  Kernel matrix calculation
     49536 matrix elements calculated by PE  0 representation  1 spin  1 1
 ELAPSED TIME =        0.99 s.  Kernel matrix calculation
     99072 matrix elements calculated by PE  0 representation  1 spin  1 1
 ELAPSED TIME =        1.02 s.  Kernel matrix calculation
    148608 matrix elements calculated by PE  0 representation  1 spin  1 1
 ELAPSED TIME =        1.04 s.  Kernel matrix calculation
    198144 matrix elements calculated by PE  0 representation  1 spin  1 1
 ELAPSED TIME =        1.07 s.  Kernel matrix calculation
    247680 matrix elements calculated by PE  0 representation  1 spin  1 1
Kernel done!     294912 matrix elements calculated by PE  0 representation  1
 Buffer sizes:            7
       49536       49536       49536       49536       49536       47232
           0
 
       50000       50000       50000       50000       50000       50000
       50000
 
 ELAPSED TIME =        1.09 s. FFT finalized
  Reconstructing kernel in blocks of        50000  matrix elements
 ELAPSED TIME =        1.15 s.  Calling potential pot_c
 ELAPSED TIME =        1.27 s.  Calling correlation
 CORRELATION , xsum =         1.0000000000 spin    1   1
 CORRELATION , xsum =         1.0000000000 spin    1   2
 CORRELATION , xsum =         1.0000000000 spin    1   3
 CORRELATION , xsum =         1.0000000000 spin    1   4
 CORRELATION , xsum =         1.0000000000 spin    1   5
 CORRELATION , xsum =         1.0000000000 spin    1   6
 CORRELATION , xsum =         1.0000000000 spin    1   7
 CORRELATION , xsum =         1.0000000000 spin    1   8

 Checkpoint control =    10


 Checkpoint control =    10


-----------------------------------------------------------------
 Working now with representation   1 out of   1

 q-vector #    2 (       0.00000000      0.00000000      0.50000000 )

 Seek representation   1 in pol_diag.dat.   1  2     256
 ELAPSED TIME =        2.23 s.  Calling readmatrix kernel_c

 Calculating kernel matrix elements in blocks of        50000 (buffer size) 

  kernel K_x (Hartree/Exchange kernel)
 Using          263  data blocks to store matrix elements.
 ELAPSED TIME =        2.23 s.  Creating    6 x    6 x    6 FFT MKL descriptors.
 ELAPSED TIME =        2.23 s. Starting calculation of kernel
 ELAPSED TIME =        2.53 s.  Kernel matrix calculation
     49536 matrix elements calculated by PE  0 representation  1 spin  1 1
 ELAPSED TIME =        2.84 s.  Kernel matrix calculation
     99072 matrix elements calculated by PE  0 representation  1 spin  1 1
 ELAPSED TIME =        3.15 s.  Kernel matrix calculation
    148608 matrix elements calculated by PE  0 representation  1 spin  1 1
 ELAPSED TIME =        3.46 s.  Kernel matrix calculation
    198144 matrix elements calculated by PE  0 representation  1 spin  1 1
 ELAPSED TIME =        3.77 s.  Kernel matrix calculation
    247680 matrix elements calculated by PE  0 representation  1 spin  1 1
Kernel done!     294912 matrix elements calculated by PE  0 representation  1
 Buffer sizes:            7
       49536       49536       49536       49536       49536       47232
           0
 
       50000       50000       50000       50000       50000       50000
       50000
 
 ELAPSED TIME =        4.06 s. FFT finalized
  Reconstructing kernel in blocks of        50000  matrix elements
 ELAPSED TIME =        4.12 s.  Calling potential pot_c
 ELAPSED TIME =        4.23 s.  Calling correlation
 CORRELATION , xsum =         1.0000000000 spin    1   1
 CORRELATION , xsum =         1.0000000000 spin    1   2
 CORRELATION , xsum =         1.0000000000 spin    1   3
 CORRELATION , xsum =         1.0000000000 spin    1   4
 CORRELATION , xsum =         1.0000000000 spin    1   5
 CORRELATION , xsum =         1.0000000000 spin    1   6
 CORRELATION , xsum =         1.0000000000 spin    1   7
 CORRELATION , xsum =         1.0000000000 spin    1   8

 Checkpoint control =    11


 Checkpoint control =    11


-----------------------------------------------------------------
 Working now with representation   1 out of   1

 q-vector #    3 (       0.00000000      0.50000000      0.00000000 )

 Seek representation   1 in pol_diag.dat.   1  3     256
 ELAPSED TIME =        5.10 s.  Calling readmatrix kernel_c

 Calculating kernel matrix elements in blocks of        50000 (buffer size) 

  kernel K_x (Hartree/Exchange kernel)
 Using          263  data blocks to store matrix elements.
 ELAPSED TIME =        5.10 s.  Creating    6 x    6 x    6 FFT MKL descriptors.
 ELAPSED TIME =        5.10 s. Starting calculation of kernel
 ELAPSED TIME =        5.41 s.  Kernel matrix calculation
     49536 matrix elements calculated by PE  0 representation  1 spin  1 1
 ELAPSED TIME =        5.72 s.  Kernel matrix calculation
     99072 matrix elements calculated by PE  0 representation  1 spin  1 1
 ELAPSED TIME =        6.03 s.  Kernel matrix calculation
    148608 matrix elements calculated by PE  0 representation  1 spin  1 1
 ELAPSED TIME =        6.33 s.  Kernel matrix calculation
    198144 matrix elements calculated by PE  0 representation  1 spin  1 1
 ELAPSED TIME =        6.64 s.  Kernel matrix calculation
    247680 matrix elements calculated by PE  0 representation  1 spin  1 1
Kernel done!     294912 matrix elements calculated by PE  0 representation  1
 Buffer sizes:            7
       49536       49536       49536       49536       49536       47232
           0
 
       50000       50000       50000       50000       50000       50000
       50000
 
 ELAPSED TIME =        6.94 s. FFT finalized
  Reconstructing kernel in blocks of        50000  matrix elements
 ELAPSED TIME =        7.00 s.  Calling potential pot_c
 ELAPSED TIME =        7.11 s.  Calling correlation
 CORRELATION , xsum =         1.0000000000 spin    1   1
 CORRELATION , xsum =         1.0000000000 spin    1   2
 CORRELATION , xsum =         1.0000000000 spin    1   3
 CORRELATION , xsum =         1.0000000000 spin    1   4
 CORRELATION , xsum =         1.0000000000 spin    1   5
 CORRELATION , xsum =         1.0000000000 spin    1   6
 CORRELATION , xsum =         1.0000000000 spin    1   7
 CORRELATION , xsum =         1.0000000000 spin    1   8

 Checkpoint control =    12


 Checkpoint control =    12


-----------------------------------------------------------------
 Working now with representation   1 out of   1

 q-vector #    4 (       0.00000000      0.50000000      0.50000000 )

 Seek representation   1 in pol_diag.dat.   1  4     256
 ELAPSED TIME =        8.21 s.  Calling readmatrix kernel_c

 Calculating kernel matrix elements in blocks of        50000 (buffer size) 

  kernel K_x (Hartree/Exchange kernel)
 Using          263  data blocks to store matrix elements.
 ELAPSED TIME =        8.22 s.  Creating    6 x    6 x    6 FFT MKL descriptors.
 ELAPSED TIME =        8.22 s. Starting calculation of kernel
 ELAPSED TIME =        8.67 s.  Kernel matrix calculation
     49536 matrix elements calculated by PE  0 representation  1 spin  1 1
 ELAPSED TIME =        9.12 s.  Kernel matrix calculation
     99072 matrix elements calculated by PE  0 representation  1 spin  1 1
 ELAPSED TIME =        9.57 s.  Kernel matrix calculation
    148608 matrix elements calculated by PE  0 representation  1 spin  1 1
 ELAPSED TIME =       10.02 s.  Kernel matrix calculation
    198144 matrix elements calculated by PE  0 representation  1 spin  1 1
 ELAPSED TIME =       10.47 s.  Kernel matrix calculation
    247680 matrix elements calculated by PE  0 representation  1 spin  1 1
Kernel done!     294912 matrix elements calculated by PE  0 representation  1
 Buffer sizes:            7
       49536       49536       49536       49536       49536       47232
           0
 
       50000       50000       50000       50000       50000       50000
       50000
 
 ELAPSED TIME =       10.90 s. FFT finalized
  Reconstructing kernel in blocks of        50000  matrix elements
 ELAPSED TIME =       10.96 s.  Calling potential pot_c
 ELAPSED TIME =       11.07 s.  Calling correlation
 CORRELATION , xsum =         1.0000000000 spin    1   1
 CORRELATION , xsum =         1.0000000000 spin    1   2
 CORRELATION , xsum =         1.0000000000 spin    1   3
 CORRELATION , xsum =         1.0000000000 spin    1   4
 CORRELATION , xsum =         1.0000000000 spin    1   5
 CORRELATION , xsum =         1.0000000000 spin    1   6
 CORRELATION , xsum =         1.0000000000 spin    1   7
 CORRELATION , xsum =         1.0000000000 spin    1   8

 Checkpoint control =    13


 Checkpoint control =    13


-----------------------------------------------------------------
 Working now with representation   1 out of   1

 q-vector #    5 (       0.50000000      0.00000000      0.00000000 )

 Seek representation   1 in pol_diag.dat.   1  5     256
 ELAPSED TIME =       11.94 s.  Calling readmatrix kernel_c

 Calculating kernel matrix elements in blocks of        50000 (buffer size) 

  kernel K_x (Hartree/Exchange kernel)
 Using          263  data blocks to store matrix elements.
 ELAPSED TIME =       11.94 s.  Creating    6 x    6 x    6 FFT MKL descriptors.
 ELAPSED TIME =       11.94 s. Starting calculation of kernel
 ELAPSED TIME =       12.25 s.  Kernel matrix calculation
     49536 matrix elements calculated by PE  0 representation  1 spin  1 1
 ELAPSED TIME =       12.55 s.  Kernel matrix calculation
     99072 matrix elements calculated by PE  0 representation  1 spin  1 1
 ELAPSED TIME =       12.86 s.  Kernel matrix calculation
    148608 matrix elements calculated by PE  0 representation  1 spin  1 1
 ELAPSED TIME =       13.17 s.  Kernel matrix calculation
    198144 matrix elements calculated by PE  0 representation  1 spin  1 1
 ELAPSED TIME =       13.48 s.  Kernel matrix calculation
    247680 matrix elements calculated by PE  0 representation  1 spin  1 1
Kernel done!     294912 matrix elements calculated by PE  0 representation  1
 Buffer sizes:            7
       49536       49536       49536       49536       49536       47232
           0
 
       50000       50000       50000       50000       50000       50000
       50000
 
 ELAPSED TIME =       13.78 s. FFT finalized
  Reconstructing kernel in blocks of        50000  matrix elements
 ELAPSED TIME =       13.84 s.  Calling potential pot_c
 ELAPSED TIME =       13.95 s.  Calling correlation
 CORRELATION , xsum =         1.0000000000 spin    1   1
 CORRELATION , xsum =         1.0000000000 spin    1   2
 CORRELATION , xsum =         1.0000000000 spin    1   3
 CORRELATION , xsum =         1.0000000000 spin    1   4
 CORRELATION , xsum =         1.0000000000 spin    1   5
 CORRELATION , xsum =         1.0000000000 spin    1   6
 CORRELATION , xsum =         1.0000000000 spin    1   7
 CORRELATION , xsum =         1.0000000000 spin    1   8

 Checkpoint control =    14


 Checkpoint control =    14


-----------------------------------------------------------------
 Working now with representation   1 out of   1

 q-vector #    6 (       0.50000000      0.00000000      0.50000000 )

 Seek representation   1 in pol_diag.dat.   1  6     256
 ELAPSED TIME =       14.69 s.  Calling readmatrix kernel_c

 Calculating kernel matrix elements in blocks of        50000 (buffer size) 

  kernel K_x (Hartree/Exchange kernel)
 Using          263  data blocks to store matrix elements.
 ELAPSED TIME =       14.69 s.  Creating    6 x    6 x    6 FFT MKL descriptors.
 ELAPSED TIME =       14.69 s. Starting calculation of kernel
 ELAPSED TIME =       15.14 s.  Kernel matrix calculation
     49536 matrix elements calculated by PE  0 representation  1 spin  1 1
 ELAPSED TIME =       15.59 s.  Kernel matrix calculation
     99072 matrix elements calculated by PE  0 representation  1 spin  1 1
 ELAPSED TIME =       16.04 s.  Kernel matrix calculation
    148608 matrix elements calculated by PE  0 representation  1 spin  1 1
 ELAPSED TIME =       16.49 s.  Kernel matrix calculation
    198144 matrix elements calculated by PE  0 representation  1 spin  1 1
 ELAPSED TIME =       16.94 s.  Kernel matrix calculation
    247680 matrix elements calculated by PE  0 representation  1 spin  1 1
Kernel done!     294912 matrix elements calculated by PE  0 representation  1
 Buffer sizes:            7
       49536       49536       49536       49536       49536       47232
           0
 
       50000       50000       50000       50000       50000       50000
       50000
 
 ELAPSED TIME =       17.37 s. FFT finalized
  Reconstructing kernel in blocks of        50000  matrix elements
 ELAPSED TIME =       17.43 s.  Calling potential pot_c
 ELAPSED TIME =       17.54 s.  Calling correlation
 CORRELATION , xsum =         1.0000000000 spin    1   1
 CORRELATION , xsum =         1.0000000000 spin    1   2
 CORRELATION , xsum =         1.0000000000 spin    1   3
 CORRELATION , xsum =         1.0000000000 spin    1   4
 CORRELATION , xsum =         1.0000000000 spin    1   5
 CORRELATION , xsum =         1.0000000000 spin    1   6
 CORRELATION , xsum =         1.0000000000 spin    1   7
 CORRELATION , xsum =         1.0000000000 spin    1   8

 Checkpoint control =    15


 Checkpoint control =    15


-----------------------------------------------------------------
 Working now with representation   1 out of   1

 q-vector #    7 (       0.50000000      0.50000000      0.00000000 )

 Seek representation   1 in pol_diag.dat.   1  7     256
 ELAPSED TIME =       18.68 s.  Calling readmatrix kernel_c

 Calculating kernel matrix elements in blocks of        50000 (buffer size) 

  kernel K_x (Hartree/Exchange kernel)
 Using          263  data blocks to store matrix elements.
 ELAPSED TIME =       18.69 s.  Creating    6 x    6 x    6 FFT MKL descriptors.
 ELAPSED TIME =       18.69 s. Starting calculation of kernel
 ELAPSED TIME =       19.13 s.  Kernel matrix calculation
     49536 matrix elements calculated by PE  0 representation  1 spin  1 1
 ELAPSED TIME =       19.58 s.  Kernel matrix calculation
     99072 matrix elements calculated by PE  0 representation  1 spin  1 1
 ELAPSED TIME =       20.03 s.  Kernel matrix calculation
    148608 matrix elements calculated by PE  0 representation  1 spin  1 1
 ELAPSED TIME =       20.48 s.  Kernel matrix calculation
    198144 matrix elements calculated by PE  0 representation  1 spin  1 1
 ELAPSED TIME =       20.93 s.  Kernel matrix calculation
    247680 matrix elements calculated by PE  0 representation  1 spin  1 1
Kernel done!     294912 matrix elements calculated by PE  0 representation  1
 Buffer sizes:            7
       49536       49536       49536       49536       49536       47232
           0
 
       50000       50000       50000       50000       50000       50000
       50000
 
 ELAPSED TIME =       21.37 s. FFT finalized
  Reconstructing kernel in blocks of        50000  matrix elements
 ELAPSED TIME =       21.43 s.  Calling potential pot_c
 ELAPSED TIME =       21.54 s.  Calling correlation
 CORRELATION , xsum =         1.0000000000 spin    1   1
 CORRELATION , xsum =         1.0000000000 spin    1   2
 CORRELATION , xsum =         1.0000000000 spin    1   3
 CORRELATION , xsum =         1.0000000000 spin    1   4
 CORRELATION , xsum =         1.0000000000 spin    1   5
 CORRELATION , xsum =         1.0000000000 spin    1   6
 CORRELATION , xsum =         1.0000000000 spin    1   7
 CORRELATION , xsum =         1.0000000000 spin    1   8

 Checkpoint control =    16


 Checkpoint control =    16


-----------------------------------------------------------------
 Working now with representation   1 out of   1

 q-vector #    8 (       0.50000000      0.50000000      0.50000000 )

 Seek representation   1 in pol_diag.dat.   1  8     256
 ELAPSED TIME =       22.48 s.  Calling readmatrix kernel_c

 Calculating kernel matrix elements in blocks of        50000 (buffer size) 

  kernel K_x (Hartree/Exchange kernel)
 Using          263  data blocks to store matrix elements.
 ELAPSED TIME =       22.49 s.  Creating    6 x    6 x    6 FFT MKL descriptors.
 ELAPSED TIME =       22.49 s. Starting calculation of kernel
 ELAPSED TIME =       23.00 s.  Kernel matrix calculation
     49536 matrix elements calculated by PE  0 representation  1 spin  1 1
 ELAPSED TIME =       23.52 s.  Kernel matrix calculation
     99072 matrix elements calculated by PE  0 representation  1 spin  1 1
 ELAPSED TIME =       24.04 s.  Kernel matrix calculation
    148608 matrix elements calculated by PE  0 representation  1 spin  1 1
 ELAPSED TIME =       24.56 s.  Kernel matrix calculation
    198144 matrix elements calculated by PE  0 representation  1 spin  1 1
 ELAPSED TIME =       25.08 s.  Kernel matrix calculation
    247680 matrix elements calculated by PE  0 representation  1 spin  1 1
Kernel done!     294912 matrix elements calculated by PE  0 representation  1
 Buffer sizes:            7
       49536       49536       49536       49536       49536       47232
           0
 
       50000       50000       50000       50000       50000       50000
       50000
 
 ELAPSED TIME =       25.58 s. FFT finalized
  Reconstructing kernel in blocks of        50000  matrix elements
 ELAPSED TIME =       25.64 s.  Calling potential pot_c
 ELAPSED TIME =       25.76 s.  Calling correlation
 CORRELATION , xsum =         1.0000000000 spin    1   1
 CORRELATION , xsum =         1.0000000000 spin    1   2
 CORRELATION , xsum =         1.0000000000 spin    1   3
 CORRELATION , xsum =         1.0000000000 spin    1   4
 CORRELATION , xsum =         1.0000000000 spin    1   5
 CORRELATION , xsum =         1.0000000000 spin    1   6
 CORRELATION , xsum =         1.0000000000 spin    1   7
 CORRELATION , xsum =         1.0000000000 spin    1   8

 Checkpoint control =    17


 Checkpoint control =    17


 Found wpol0.dat file. Calculating static correction 


 Reading static correction from file wpol0.dat.
      r          rho        Wpol0_v          Wpol0_f
   1   0   2      0.0886     -0.3566      0.0000
   0   0  -1      0.0886     -0.4478      0.0000
  -2  -1   0      0.0886     -0.3590      0.0000
   0   2   0      0.0886     -0.4170      0.0000
   0   2   1      0.0886     -0.3620      0.0000
  -1   0   0      0.0886     -0.4161      0.0000
   0   1   2      0.0886     -0.3542      0.0000
   2   0   1      0.0886     -0.3536      0.0000
   0   1   0      0.0886     -0.4135      0.0000
   0  -1  -2      0.0886     -0.3542      0.0000
 

 Checkpoint control =    18

 ELAPSED TIME =       27.04 s.  All matrix elements calculated. Start printout
 ELAPSED TIME =       27.06 s.  Calling rotate.
 
 Spin  1
 Maximum difference between input and output densities : 
    0.1613224533E-01 a.u.^-3
 Standard deviation of the difference between densities : 
    0.3832930121E-02 a.u.^-3
 Old integrated charge =      8.000000000    
 New integrated charge =      8.000000000    

 ELAPSED TIME =       27.07 s.  Creating    6 x    6 x    6 FFT MKL descriptors.
 ELAPSED TIME =       27.07 s. FFT finalized
 ELAPSED TIME =       27.09 s.  Creating    6 x    6 x    6 FFT MKL descriptors.
 ELAPSED TIME =       27.09 s. FFT finalized
 ELAPSED TIME =       27.09 s.  Creating    6 x    6 x    6 FFT MKL descriptors.
 ELAPSED TIME =       27.09 s. FFT finalized
 ELAPSED TIME =       27.09 s.  Creating    6 x    6 x    6 FFT MKL descriptors.
 ELAPSED TIME =       27.09 s. FFT finalized
 ELAPSED TIME =       27.10 s.  Creating    6 x    6 x    6 FFT MKL descriptors.
 ELAPSED TIME =       27.10 s. FFT finalized
 ELAPSED TIME =       27.10 s.  Creating    6 x    6 x    6 FFT MKL descriptors.
 ELAPSED TIME =       27.10 s. FFT finalized
 ELAPSED TIME =       27.10 s.  Creating    6 x    6 x    6 FFT MKL descriptors.
 ELAPSED TIME =       27.10 s. FFT finalized
 ELAPSED TIME =       27.10 s.  Creating    6 x    6 x    6 FFT MKL descriptors.
 ELAPSED TIME =       27.11 s. FFT finalized
 ELAPSED TIME =       27.11 s.  Creating    6 x    6 x    6 FFT MKL descriptors.
 ELAPSED TIME =       27.11 s. FFT finalized
 
 WARNING! Local pseudopotential energy is wrong in periodic systems
 WARNING! Ion-ion pseudopotential energy is wrong in periodic systems
 WARNING! Total pseudopotential energy is wrong in periodic systems
 
                  Eigenvalue Energy =         4.8060050917 [Ry]
                     Kinetic Energy =        23.9662437740 [Ry]
       Local Pseudopotential Energy =         0.0000000000 [Ry]
   Non-local Pseudopotential Energy =         2.8682959602 [Ry]
                     Ion-ion Energy =         0.0000000000 [Ry]
                       Total Energy =        15.8202724130 [Ry]
 Total energy excludes Exc - Int_{Vxc*rho}/2 term.
 

 Iteration     0. Maximum potential (eV) =    2.70055


-----------------------------------------------------------------
                               CPU [s]     WALL [s]           #

 SETUP_S:                         0.018        0.018          1
 KERNEL:                         17.311       17.321         16
 DIAG_POL:                        0.000        0.000          0
 WPOL_0:                          0.605        0.178          1
 EXCHANGE:                        0.242        0.110          8
 POTENTIAL:                       0.865        0.220          8
 CORRELATION:                     7.851        5.690          8
 VERTEX:                          0.000        0.000          0
 
 ROTATE:                          0.026        0.013          1
 POISSON_FFT:                    12.734       12.416    1374722
 EIGENSOLVER:                     0.000        0.000          0
 INTEGRATION:                    16.571       16.586       2048

                TOTAL            27.124       24.403

 Finished 2009 Mar 10 16: 3:10  -240 UTC
-----------------------------------------------------------------
