
=================================================================

 BSESOLV   2009 Mar 10 13:26:29  -420 UTC

 Running serial version (no MPI)

Version date : Fri Jan  2 17:07:49 EST 2009
architecture = sp5_nersc
pre-processing options = -DUSEESSL 
compilation options = -O3 -qextname=flush -qarch=auto -qtune=auto -qhot -qalias=noaryovrlp -Q -qautodbl=dbl4 -q64

=================================================================


 Electronic structure data :
 ---------------------------

 Reading electron wavefunctions from file GWC

 Spin unpolarized calculation.

 K-point =      0.245000     0.155000     0.465000
  Number of occupied bands, spin  1  :  4
 DFT Eigenvalues (eV), spin  1  :
   5.45  10.19  12.06  13.85  18.68  18.85  20.37  21.16  23.39  25.67
  27.58  28.02
 
 K-point =      0.245000     0.155000     0.965000
  Number of occupied bands, spin  1  :  4
 DFT Eigenvalues (eV), spin  1  :
   4.48  12.13  13.57  13.96  17.22  19.29  20.16  20.52  23.23  24.47
  25.90  27.51
 
 K-point =      0.245000     0.655000     0.465000
  Number of occupied bands, spin  1  :  4
 DFT Eigenvalues (eV), spin  1  :
   7.16   8.52  11.30  12.10  18.90  19.65  20.19  22.11  24.60  26.63
  28.04  29.77
 
 K-point =      0.245000     0.655000     0.965000
  Number of occupied bands, spin  1  :  4
 DFT Eigenvalues (eV), spin  1  :
   6.31   9.18  11.28  13.56  17.57  20.58  21.50  22.13  23.20  23.36
  28.43  30.05
 
 K-point =      0.745000     0.155000     0.465000
  Number of occupied bands, spin  1  :  4
 DFT Eigenvalues (eV), spin  1  :
   7.30   8.37  11.19  12.20  18.40  20.19  20.75  21.54  24.59  26.30
  28.29  29.89
 
 K-point =      0.745000     0.155000     0.965000
  Number of occupied bands, spin  1  :  4
 DFT Eigenvalues (eV), spin  1  :
   5.00  10.75  12.46  14.42  18.39  19.14  20.02  21.04  22.29  25.77
  26.52  27.70
 
 K-point =      0.745000     0.655000     0.465000
  Number of occupied bands, spin  1  :  4
 DFT Eigenvalues (eV), spin  1  :
   5.96   9.58  11.59  13.51  18.36  19.36  20.79  21.77  23.82  24.47
  28.09  29.35
 
 K-point =      0.745000     0.655000     0.965000
  Number of occupied bands, spin  1  :  4
 DFT Eigenvalues (eV), spin  1  :
   5.02  11.16  13.02  13.35  16.83  18.45  21.11  21.64  24.47  25.38
  26.96  28.52
 
 Maximum value of electron density (a.u.^-3) =   0.87189890E-01
 Total number of electrons =     8.0000

 MPI data :
 ----------

  Group partition information: 
  Distributing  1  processors among  1  groups.
  Each group contains  1  processors.
  I am processor rank  0  in group  0
  I am master in my group, with master rank  0
  My group has representations: 
    1

  Wavefunction partition information: 
  Distributing  1  processors among  1  groups.
  Each group contains  1  processors.
  I am processor rank  0  in group  0
  I am master in my group, with master rank    0

 Atom data :
 -----------

 Atom coordinates input in lattice vector units.

  Atomic coordinates (all atoms) are :
           x [a.u.]          y [a.u.]          z [a.u.]           Type
   1      -1.282500000      -1.282500000      -1.282500000         Si
   2       1.282500000       1.282500000       1.282500000         Si

 Total number of atoms =    2
 Total number of atom types =    1

 Pseudopotential messages, element Si :
 


--------------------------------------
 Pseudopotential format : FHIPP
 Pseudopotential file for this atom type is Si_POT.DAT

 logarithmic parameters of pseudopot. radial grid
 r(i) = a*[Exp(b(i-1)) - 1)]
 a (a.u.) = 0.435668E-03 b = 0.243999E-01 c =  0.00000     nr =      496

 # of pseudopot= 3, Local component is l = 2
 Core radius (a.u.) =  1.97

 Normalization check and Kleinman-Bylander Integral:
                        s             p             d
 Normalization        1.00009923    1.00009923    1.05082652
 K-B Integral (Ry)    0.67750605    0.26926130   -5.36760663

 Grid data :
 -----------

 Gradients and Laplacians calculated with FFT

  BULK BOUNDARY CONDITIONS !

 Unit lattice vectors (a.u.) = 
   0.000000000000000   5.130000000000000   5.130000000000000
   5.130000000000000   0.000000000000000   5.130000000000000
   5.130000000000000   5.130000000000000   0.000000000000000

 Grid spacing (a.u.) =         0.453432        0.453432        0.453432

 Volume of periodic cell (a.u.^3) =       270.011394

 Real-space FFT grid =   16  16  16  18

 Long-wavelength Coulomb energy (eV) =         5.2234453789

 No Coulomb truncation

 Full grid has       4096 points.
 Irreducible wedge has       4096 points.

 ELAPSED TIME =        0.00 s. paratec_wfn:  reading wave functions

 Read wavefunctions for         12 levels, spin    1 k-point    1

 Read wavefunctions for         12 levels, spin    1 k-point    2

 Read wavefunctions for         12 levels, spin    1 k-point    3

 Read wavefunctions for         12 levels, spin    1 k-point    4

 Read wavefunctions for         12 levels, spin    1 k-point    5

 Read wavefunctions for         12 levels, spin    1 k-point    6

 Read wavefunctions for         12 levels, spin    1 k-point    7

 Read wavefunctions for         12 levels, spin    1 k-point    8
 ELAPSED TIME =        0.03 s. FFT finalized

-----------------------------------------------------------------


-----------------------------------------------------------------

 ELAPSED TIME =        0.04 s. Calling setup_b
 ELAPSED TIME =        0.06 s. FFT finalized
 ELAPSED TIME =        0.12 s. FFT finalized
 ELAPSED TIME =        0.19 s. FFT finalized
 ELAPSED TIME =        0.25 s. FFT finalized
 ELAPSED TIME =        0.31 s. FFT finalized
 ELAPSED TIME =        0.38 s. FFT finalized
 ELAPSED TIME =        0.44 s. FFT finalized
 ELAPSED TIME =        0.51 s. FFT finalized
 
  Matching k-points : 
 q-point #  1 =         0.0000000000        0.0000000000        0.0000000000
  k-point and (k-q) point 
    0.2450    0.1550    0.4650         0.2450    0.1550    0.4650
    0.2450    0.1550    0.9650         0.2450    0.1550    0.9650
    0.2450    0.6550    0.4650         0.2450    0.6550    0.4650
    0.2450    0.6550    0.9650         0.2450    0.6550    0.9650
    0.7450    0.1550    0.4650         0.7450    0.1550    0.4650
    0.7450    0.1550    0.9650         0.7450    0.1550    0.9650
    0.7450    0.6550    0.4650         0.7450    0.6550    0.4650
    0.7450    0.6550    0.9650         0.7450    0.6550    0.9650
 q-point #  2 =         0.0000000000        0.0000000000        0.5000000000
  k-point and (k-q) point 
    0.2450    0.1550    0.4650         0.2450    0.1550    0.9650
    0.2450    0.1550    0.9650         0.2450    0.1550    0.4650
    0.2450    0.6550    0.4650         0.2450    0.6550    0.9650
    0.2450    0.6550    0.9650         0.2450    0.6550    0.4650
    0.7450    0.1550    0.4650         0.7450    0.1550    0.9650
    0.7450    0.1550    0.9650         0.7450    0.1550    0.4650
    0.7450    0.6550    0.4650         0.7450    0.6550    0.9650
    0.7450    0.6550    0.9650         0.7450    0.6550    0.4650
 q-point #  3 =         0.0000000000        0.5000000000        0.0000000000
  k-point and (k-q) point 
    0.2450    0.1550    0.4650         0.2450    0.6550    0.4650
    0.2450    0.1550    0.9650         0.2450    0.6550    0.9650
    0.2450    0.6550    0.4650         0.2450    0.1550    0.4650
    0.2450    0.6550    0.9650         0.2450    0.1550    0.9650
    0.7450    0.1550    0.4650         0.7450    0.6550    0.4650
    0.7450    0.1550    0.9650         0.7450    0.6550    0.9650
    0.7450    0.6550    0.4650         0.7450    0.1550    0.4650
    0.7450    0.6550    0.9650         0.7450    0.1550    0.9650
 q-point #  4 =         0.0000000000        0.5000000000        0.5000000000
  k-point and (k-q) point 
    0.2450    0.1550    0.4650         0.2450    0.6550    0.9650
    0.2450    0.1550    0.9650         0.2450    0.6550    0.4650
    0.2450    0.6550    0.4650         0.2450    0.1550    0.9650
    0.2450    0.6550    0.9650         0.2450    0.1550    0.4650
    0.7450    0.1550    0.4650         0.7450    0.6550    0.9650
    0.7450    0.1550    0.9650         0.7450    0.6550    0.4650
    0.7450    0.6550    0.4650         0.7450    0.1550    0.9650
    0.7450    0.6550    0.9650         0.7450    0.1550    0.4650
 q-point #  5 =         0.5000000000        0.0000000000        0.0000000000
  k-point and (k-q) point 
    0.2450    0.1550    0.4650         0.7450    0.1550    0.4650
    0.2450    0.1550    0.9650         0.7450    0.1550    0.9650
    0.2450    0.6550    0.4650         0.7450    0.6550    0.4650
    0.2450    0.6550    0.9650         0.7450    0.6550    0.9650
    0.7450    0.1550    0.4650         0.2450    0.1550    0.4650
    0.7450    0.1550    0.9650         0.2450    0.1550    0.9650
    0.7450    0.6550    0.4650         0.2450    0.6550    0.4650
    0.7450    0.6550    0.9650         0.2450    0.6550    0.9650
 q-point #  6 =         0.5000000000        0.0000000000        0.5000000000
  k-point and (k-q) point 
    0.2450    0.1550    0.4650         0.7450    0.1550    0.9650
    0.2450    0.1550    0.9650         0.7450    0.1550    0.4650
    0.2450    0.6550    0.4650         0.7450    0.6550    0.9650
    0.2450    0.6550    0.9650         0.7450    0.6550    0.4650
    0.7450    0.1550    0.4650         0.2450    0.1550    0.9650
    0.7450    0.1550    0.9650         0.2450    0.1550    0.4650
    0.7450    0.6550    0.4650         0.2450    0.6550    0.9650
    0.7450    0.6550    0.9650         0.2450    0.6550    0.4650
 q-point #  7 =         0.5000000000        0.5000000000        0.0000000000
  k-point and (k-q) point 
    0.2450    0.1550    0.4650         0.7450    0.6550    0.4650
    0.2450    0.1550    0.9650         0.7450    0.6550    0.9650
    0.2450    0.6550    0.4650         0.7450    0.1550    0.4650
    0.2450    0.6550    0.9650         0.7450    0.1550    0.9650
    0.7450    0.1550    0.4650         0.2450    0.6550    0.4650
    0.7450    0.1550    0.9650         0.2450    0.6550    0.9650
    0.7450    0.6550    0.4650         0.2450    0.1550    0.4650
    0.7450    0.6550    0.9650         0.2450    0.1550    0.9650
 q-point #  8 =         0.5000000000        0.5000000000        0.5000000000
  k-point and (k-q) point 
    0.2450    0.1550    0.4650         0.7450    0.6550    0.9650
    0.2450    0.1550    0.9650         0.7450    0.6550    0.4650
    0.2450    0.6550    0.4650         0.7450    0.1550    0.9650
    0.2450    0.6550    0.9650         0.7450    0.1550    0.4650
    0.7450    0.1550    0.4650         0.2450    0.6550    0.9650
    0.7450    0.1550    0.9650         0.2450    0.6550    0.4650
    0.7450    0.6550    0.4650         0.2450    0.1550    0.9650
    0.7450    0.6550    0.9650         0.2450    0.1550    0.4650
 
  Matching k-points (BSE) : 
 q-point # 1 =         0.0000000000        0.0000000000        0.0000000000
  k-point and (k-q) point 
    0.2450    0.1550    0.9650         0.2450    0.1550    0.9650
    0.2450    0.6550    0.4650         0.2450    0.6550    0.4650
    0.7450    0.1550    0.4650         0.7450    0.1550    0.4650
    0.7450    0.1550    0.9650         0.7450    0.1550    0.9650
    0.7450    0.6550    0.4650         0.7450    0.6550    0.4650
    0.7450    0.6550    0.9650         0.7450    0.6550    0.9650
 ELAPSED TIME =        0.58 s. FFT finalized
 ELAPSED TIME =        0.65 s. FFT finalized
 ELAPSED TIME =        0.71 s. FFT finalized
 ELAPSED TIME =        0.77 s. FFT finalized
 ELAPSED TIME =        0.84 s. FFT finalized
 ELAPSED TIME =        0.90 s. FFT finalized
 ELAPSED TIME =        0.96 s. FFT finalized
 ELAPSED TIME =        1.03 s. FFT finalized
 ELAPSED TIME =        1.09 s. FFT finalized
 ELAPSED TIME =        1.15 s. FFT finalized
 ELAPSED TIME =        1.22 s. FFT finalized
 ELAPSED TIME =        1.28 s. FFT finalized
 ELAPSED TIME =        1.35 s. FFT finalized
 ELAPSED TIME =        1.41 s. FFT finalized
 ELAPSED TIME =        1.47 s. FFT finalized
 ELAPSED TIME =        1.54 s. FFT finalized

-----------------------------------------------------------------

 BSE input data: 
 ---------------

 Number of transitions per representation in TDLDA polarizabillity:
     256     256     256     256     256     256     256     256
 total =       2048

 No energy cutoff in TDLDA polarizability
 LDA kernel is not included in polarizability

 Calculating TDLDA polarizability within the Tamm-Dancoff approximation.

 Number of transitions per representation in BSE polarizabillity: 
     256
 total =        256

 No energy cutoff in BSE polarizability

Sum rule not renormalized

 BSE for spin singlet excitations

 No block mixing in BSE

 Negative energy reference. Neglecting dynamical screening effects 

 Using no energy resolution in BSE, energy poles

 Coulomb potential is being truncated in the BSE equation.


 Memory needed to store wavefunctions :       6.00 MB/proc.
 Memory needed to calculate kernel matrix elements :       0.31 MB/proc.

 Memory needed for polarizability diagonalization :       1.50 MB/proc.
 Memory needed in potentials calculation :       8.00 MB/proc.
 Memory needed for single proc. BSE diagonalization :       1.50 MB/proc.

-----------------------------------------------------------------

 ELAPSED TIME =        1.57 s.  Calling readmatrix kernel_p

 Calculating kernel matrix elements in blocks of        50000 (buffer size) 

  kernel K_x (Hartree/Exchange kernel)
 Using  263  data blocks to store matrix elements.
 ELAPSED TIME =        1.58 s. Starting calculation of kernel
 ELAPSED TIME =        3.14 s.  Kernel matrix calculation
     49920 matrix elements calculated by PE  0 representation  1 spin  1 1
Kernel done!      65536 matrix elements calculated by PE  0 representation  1
 Buffer sizes:  3
 49920 15616 0
 
 50000 50000 50000
 
 ELAPSED TIME =        3.64 s. FFT finalized
  Reconstructing kernel in blocks of  50000  matrix elements
 ELAPSED TIME =        3.66 s.  Calling diag_pol

#################################################################
 Calculation of polarizability eigenvectors for representation  1
 number of pair transitions =          256
 pair transitions per PE =          256
#################################################################


*****************************************************************
 WARNING!!!! Keeping the long-wavelength exchange.
*****************************************************************

 ELAPSED TIME =        3.66 s. diag_pol: Calling eigensolver
 ELAPSED TIME =        4.02 s. diag_pol: eigensolver done
 ELAPSED TIME =        4.02 s. diag_pol: energy factors included in eigenvectors
  Lowest energy eigenvalues in polarizability (eV): 
        3.466411
        3.718377
        3.795187
 ELAPSED TIME =        4.03 s.  Calling readmatrix kernel_p

 Calculating kernel matrix elements in blocks of        50000 (buffer size) 

  kernel K_x (Hartree/Exchange kernel)
 Using  263  data blocks to store matrix elements.
 ELAPSED TIME =        4.03 s. Starting calculation of kernel
 ELAPSED TIME =       14.05 s.  Kernel matrix calculation
     49920 matrix elements calculated by PE  0 representation  1 spin  1 1
Kernel done!      65536 matrix elements calculated by PE  0 representation  1
 Buffer sizes:  3
 49920 15616 0
 
 50000 50000 50000
 
 ELAPSED TIME =       17.19 s. FFT finalized
  Reconstructing kernel in blocks of  50000  matrix elements
 ELAPSED TIME =       17.20 s.  Calling diag_pol

#################################################################
 Calculation of polarizability eigenvectors for representation  1
 number of pair transitions =          256
 pair transitions per PE =          256
#################################################################


*****************************************************************
 WARNING!!!! Keeping the long-wavelength exchange.
*****************************************************************

 ELAPSED TIME =       17.20 s. diag_pol: Calling eigensolver
 ELAPSED TIME =       17.56 s. diag_pol: eigensolver done
 ELAPSED TIME =       17.56 s. diag_pol: energy factors included in eigenvectors
  Lowest energy eigenvalues in polarizability (eV): 
        3.405038
        3.503494
        4.102912
 ELAPSED TIME =       17.57 s.  Calling readmatrix kernel_p

 Calculating kernel matrix elements in blocks of        50000 (buffer size) 

  kernel K_x (Hartree/Exchange kernel)
 Using  263  data blocks to store matrix elements.
 ELAPSED TIME =       17.57 s. Starting calculation of kernel
 ELAPSED TIME =       27.58 s.  Kernel matrix calculation
     49920 matrix elements calculated by PE  0 representation  1 spin  1 1
Kernel done!      65536 matrix elements calculated by PE  0 representation  1
 Buffer sizes:  3
 49920 15616 0
 
 50000 50000 50000
 
 ELAPSED TIME =       30.72 s. FFT finalized
  Reconstructing kernel in blocks of  50000  matrix elements
 ELAPSED TIME =       30.74 s.  Calling diag_pol

#################################################################
 Calculation of polarizability eigenvectors for representation  1
 number of pair transitions =          256
 pair transitions per PE =          256
#################################################################


*****************************************************************
 WARNING!!!! Keeping the long-wavelength exchange.
*****************************************************************

 ELAPSED TIME =       30.74 s. diag_pol: Calling eigensolver
 ELAPSED TIME =       31.10 s. diag_pol: eigensolver done
 ELAPSED TIME =       31.10 s. diag_pol: energy factors included in eigenvectors
  Lowest energy eigenvalues in polarizability (eV): 
        2.527404
        3.711233
        3.760190
 ELAPSED TIME =       31.12 s.  Calling readmatrix kernel_p

 Calculating kernel matrix elements in blocks of        50000 (buffer size) 

  kernel K_x (Hartree/Exchange kernel)
 Using  263  data blocks to store matrix elements.
 ELAPSED TIME =       31.12 s. Starting calculation of kernel
 ELAPSED TIME =       45.35 s.  Kernel matrix calculation
     49920 matrix elements calculated by PE  0 representation  1 spin  1 1
Kernel done!      65536 matrix elements calculated by PE  0 representation  1
 Buffer sizes:  3
 49920 15616 0
 
 50000 50000 50000
 
 ELAPSED TIME =       49.83 s. FFT finalized
  Reconstructing kernel in blocks of  50000  matrix elements
 ELAPSED TIME =       49.84 s.  Calling diag_pol

#################################################################
 Calculation of polarizability eigenvectors for representation  1
 number of pair transitions =          256
 pair transitions per PE =          256
#################################################################


*****************************************************************
 WARNING!!!! Keeping the long-wavelength exchange.
*****************************************************************

 ELAPSED TIME =       49.84 s. diag_pol: Calling eigensolver
 ELAPSED TIME =       50.20 s. diag_pol: eigensolver done
 ELAPSED TIME =       50.21 s. diag_pol: energy factors included in eigenvectors
  Lowest energy eigenvalues in polarizability (eV): 
        3.830817
        4.069130
        4.809632
 ELAPSED TIME =       50.22 s.  Calling readmatrix kernel_p

 Calculating kernel matrix elements in blocks of        50000 (buffer size) 

  kernel K_x (Hartree/Exchange kernel)
 Using  263  data blocks to store matrix elements.
 ELAPSED TIME =       50.22 s. Starting calculation of kernel
 ELAPSED TIME =       60.23 s.  Kernel matrix calculation
     49920 matrix elements calculated by PE  0 representation  1 spin  1 1
Kernel done!      65536 matrix elements calculated by PE  0 representation  1
 Buffer sizes:  3
 49920 15616 0
 
 50000 50000 50000
 
 ELAPSED TIME =       63.37 s. FFT finalized
  Reconstructing kernel in blocks of  50000  matrix elements
 ELAPSED TIME =       63.38 s.  Calling diag_pol

#################################################################
 Calculation of polarizability eigenvectors for representation  1
 number of pair transitions =          256
 pair transitions per PE =          256
#################################################################


*****************************************************************
 WARNING!!!! Keeping the long-wavelength exchange.
*****************************************************************

 ELAPSED TIME =       63.38 s. diag_pol: Calling eigensolver
 ELAPSED TIME =       63.75 s. diag_pol: eigensolver done
 ELAPSED TIME =       63.75 s. diag_pol: energy factors included in eigenvectors
  Lowest energy eigenvalues in polarizability (eV): 
        2.915691
        3.371234
        4.306958
 ELAPSED TIME =       63.77 s.  Calling readmatrix kernel_p

 Calculating kernel matrix elements in blocks of        50000 (buffer size) 

  kernel K_x (Hartree/Exchange kernel)
 Using  263  data blocks to store matrix elements.
 ELAPSED TIME =       63.77 s. Starting calculation of kernel
 ELAPSED TIME =       78.00 s.  Kernel matrix calculation
     49920 matrix elements calculated by PE  0 representation  1 spin  1 1
Kernel done!      65536 matrix elements calculated by PE  0 representation  1
 Buffer sizes:  3
 49920 15616 0
 
 50000 50000 50000
 
 ELAPSED TIME =       82.47 s. FFT finalized
  Reconstructing kernel in blocks of  50000  matrix elements
 ELAPSED TIME =       82.48 s.  Calling diag_pol

#################################################################
 Calculation of polarizability eigenvectors for representation  1
 number of pair transitions =          256
 pair transitions per PE =          256
#################################################################


*****************************************************************
 WARNING!!!! Keeping the long-wavelength exchange.
*****************************************************************

 ELAPSED TIME =       82.48 s. diag_pol: Calling eigensolver
 ELAPSED TIME =       82.84 s. diag_pol: eigensolver done
 ELAPSED TIME =       82.85 s. diag_pol: energy factors included in eigenvectors
  Lowest energy eigenvalues in polarizability (eV): 
        4.162116
        4.404287
        4.568796
 ELAPSED TIME =       82.86 s.  Calling readmatrix kernel_p

 Calculating kernel matrix elements in blocks of        50000 (buffer size) 

  kernel K_x (Hartree/Exchange kernel)
 Using  263  data blocks to store matrix elements.
 ELAPSED TIME =       82.86 s. Starting calculation of kernel
 ELAPSED TIME =       97.10 s.  Kernel matrix calculation
     49920 matrix elements calculated by PE  0 representation  1 spin  1 1
Kernel done!      65536 matrix elements calculated by PE  0 representation  1
 Buffer sizes:  3
 49920 15616 0
 
 50000 50000 50000
 
 ELAPSED TIME =      101.56 s. FFT finalized
  Reconstructing kernel in blocks of  50000  matrix elements
 ELAPSED TIME =      101.57 s.  Calling diag_pol

#################################################################
 Calculation of polarizability eigenvectors for representation  1
 number of pair transitions =          256
 pair transitions per PE =          256
#################################################################


*****************************************************************
 WARNING!!!! Keeping the long-wavelength exchange.
*****************************************************************

 ELAPSED TIME =      101.57 s. diag_pol: Calling eigensolver
 ELAPSED TIME =      101.93 s. diag_pol: eigensolver done
 ELAPSED TIME =      101.94 s. diag_pol: energy factors included in eigenvectors
  Lowest energy eigenvalues in polarizability (eV): 
        3.029350
        3.241074
        3.402601
 ELAPSED TIME =      101.96 s.  Calling readmatrix kernel_p

 Calculating kernel matrix elements in blocks of        50000 (buffer size) 

  kernel K_x (Hartree/Exchange kernel)
 Using  263  data blocks to store matrix elements.
 ELAPSED TIME =      101.96 s. Starting calculation of kernel
 ELAPSED TIME =      118.31 s.  Kernel matrix calculation
     49920 matrix elements calculated by PE  0 representation  1 spin  1 1
Kernel done!      65536 matrix elements calculated by PE  0 representation  1
 Buffer sizes:  3
 49920 15616 0
 
 50000 50000 50000
 
 ELAPSED TIME =      123.44 s. FFT finalized
  Reconstructing kernel in blocks of  50000  matrix elements
 ELAPSED TIME =      123.45 s.  Calling diag_pol

#################################################################
 Calculation of polarizability eigenvectors for representation  1
 number of pair transitions =          256
 pair transitions per PE =          256
#################################################################


*****************************************************************
 WARNING!!!! Keeping the long-wavelength exchange.
*****************************************************************

 ELAPSED TIME =      123.45 s. diag_pol: Calling eigensolver
 ELAPSED TIME =      123.79 s. diag_pol: eigensolver done
 ELAPSED TIME =      123.80 s. diag_pol: energy factors included in eigenvectors
  Lowest energy eigenvalues in polarizability (eV): 
        3.106845
        3.809390
        4.530833

-----------------------------------------------------------------

 Checking oscillator strength sum rule
 Ratio between numerical and exact values :
                            Field polarization
                           x  ----  y  ----  z  ---- average
  RPA-LDA Sum Rule  =   1.3348   1.3378   0.8438      1.1721
     ALDA Sum Rule  =   4.4634   4.5552   1.4772      3.4986

-----------------------------------------------------------------

 Static polarizability (a.u.) 
                                 Field polarization 
                                x  ----  y  ----  z  ---- average
 RPA-LDA Polarizability =   308.85   328.69    80.74      239.427
    ALDA Polarizability =    85.65    87.60    44.88       72.708

  Average ALDA sum rule =  3.49860777149015023
  Average static RPA-LDA polarizability =  239.426692486421814
-----------------------------------------------------------------

  Lowest energy eigenvalues in polarizability, all representations:
 Order      Energy (eV)  Representation
    1        3.466411         1
    2        3.718377         1
    3        3.795187         1
    4        3.997972         1
    5        4.050834         1
    6        4.846288         1
    7        4.914622         1
    8        5.037997         1
    9        5.183647         1
   10        5.221303         1

-----------------------------------------------------------------
 Dielectric constant (RPA, no local fields) =  23.2859080736021298
-----------------------------------------------------------------

  Checkpoint control =  0
 ELAPSED TIME =      123.83 s. Calling quasiparticle

Reading quasi-particle Hamiltonian from file hmat_qp.


 All values in eV. Read    144 spin      1 k-point      1 matrix elements.
  QP HAMILTONIAN IS SYMMETRIZED

-----------------------------------------------------------------

 1-electron, quasi-particle eigenvalues, occupied states:
  SPIN UP
  DFT orbital  QP orbital   DFT energy [eV]   QP energy [eV]   proj     occ
      1           1            5.448            4.466         0.999   1.000
      2           2           10.187            9.551         0.983   1.000
      3           3           12.056           11.715         0.983   1.000
      4           4           13.849           13.403         0.999   1.000

-----------------------------------------------------------------


 1-electron, quasi-particle eigenvalues, unoccupied states:
  SPIN UP
  DFT orbital  QP orbital   DFT energy [eV]   QP energy [eV]   proj     occ
      5           5           18.678           19.823         0.960   0.000
      6           6           18.851           20.124         0.957   0.000
      7           7           20.375           21.827         0.978   0.000
      8           8           21.155           22.373         0.988   0.000
      9           9           23.388           24.917         0.988   0.000
     10          10           25.674           27.194         0.981   0.000
     11          11           27.582           29.282         0.802   0.000
     12          12           28.023           30.178         0.807   0.000

-----------------------------------------------------------------

 Energy of highest occupied level (eV) =     13.403
 Energy of lowest unoccupied level (eV) =     19.823

Reading quasi-particle Hamiltonian from file hmat_qp.


 All values in eV. Read    144 spin      1 k-point      2 matrix elements.
  QP HAMILTONIAN IS SYMMETRIZED

-----------------------------------------------------------------

 1-electron, quasi-particle eigenvalues, occupied states:
  SPIN UP
  DFT orbital  QP orbital   DFT energy [eV]   QP energy [eV]   proj     occ
      1           1            4.476            3.432         1.000   1.000
      2           2           12.126           11.535         0.987   1.000
      3           3           13.566           13.190         0.941   1.000
      4           4           13.962           13.485         0.932   1.000

-----------------------------------------------------------------


 1-electron, quasi-particle eigenvalues, unoccupied states:
  SPIN UP
  DFT orbital  QP orbital   DFT energy [eV]   QP energy [eV]   proj     occ
      5           5           17.224           18.314         0.994   0.000
      6           6           19.294           20.538         0.915   0.000
      7           7           20.158           21.536         0.907   0.000
      8           8           20.523           21.775         0.979   0.000
      9           9           23.231           24.635         0.985   0.000
     10          10           24.472           26.249         0.998   0.000
     11          11           25.901           28.006         0.998   0.000
     12          12           27.508           29.931         0.999   0.000

-----------------------------------------------------------------

 Energy of highest occupied level (eV) =     13.485
 Energy of lowest unoccupied level (eV) =     18.314

Reading quasi-particle Hamiltonian from file hmat_qp.


 All values in eV. Read    144 spin      1 k-point      3 matrix elements.
  QP HAMILTONIAN IS SYMMETRIZED

-----------------------------------------------------------------

 1-electron, quasi-particle eigenvalues, occupied states:
  SPIN UP
  DFT orbital  QP orbital   DFT energy [eV]   QP energy [eV]   proj     occ
      1           1            7.162            6.301         0.995   1.000
      2           2            8.517            7.588         0.996   1.000
      3           3           11.305           11.098         0.999   1.000
      4           4           12.095           11.896         0.999   1.000

-----------------------------------------------------------------


 1-electron, quasi-particle eigenvalues, unoccupied states:
  SPIN UP
  DFT orbital  QP orbital   DFT energy [eV]   QP energy [eV]   proj     occ
      5           5           18.904           20.142         0.992   0.000
      6           6           19.647           21.023         0.994   0.000
      7           7           20.191           21.402         0.996   0.000
      8           8           22.113           23.387         0.992   0.000
      9           9           24.600           25.565         0.993   0.000
     10          10           26.631           28.169         0.995   0.000
     11          11           28.036           29.674         0.996   0.000
     12          12           29.774           31.939         0.998   0.000

-----------------------------------------------------------------

 Energy of highest occupied level (eV) =     11.896
 Energy of lowest unoccupied level (eV) =     20.142

Reading quasi-particle Hamiltonian from file hmat_qp.


 All values in eV. Read    144 spin      1 k-point      4 matrix elements.
  QP HAMILTONIAN IS SYMMETRIZED

-----------------------------------------------------------------

 1-electron, quasi-particle eigenvalues, occupied states:
  SPIN UP
  DFT orbital  QP orbital   DFT energy [eV]   QP energy [eV]   proj     occ
      1           1            6.313            5.417         0.998   1.000
      2           2            9.184            8.600         0.997   1.000
      3           3           11.276           11.163         0.995   1.000
      4           4           13.559           12.993         1.000   1.000

-----------------------------------------------------------------


 1-electron, quasi-particle eigenvalues, unoccupied states:
  SPIN UP
  DFT orbital  QP orbital   DFT energy [eV]   QP energy [eV]   proj     occ
      5           5           17.572           18.690         0.994   0.000
      6           6           20.579           21.878         0.994   0.000
      7           7           21.499           22.910         0.983   0.000
      8           8           22.135           23.433         0.963   0.000
      9           9           23.204           24.200         0.882   0.000
     10          10           23.363           24.950         0.864   0.000
     11          11           28.429           30.935         0.992   0.000
     12          12           30.046           32.492         0.992   0.000

-----------------------------------------------------------------

 Energy of highest occupied level (eV) =     12.993
 Energy of lowest unoccupied level (eV) =     18.690

Reading quasi-particle Hamiltonian from file hmat_qp.


 All values in eV. Read    144 spin      1 k-point      5 matrix elements.
  QP HAMILTONIAN IS SYMMETRIZED

-----------------------------------------------------------------

 1-electron, quasi-particle eigenvalues, occupied states:
  SPIN UP
  DFT orbital  QP orbital   DFT energy [eV]   QP energy [eV]   proj     occ
      1           1            7.298            6.307         0.996   1.000
      2           2            8.370            7.669         0.996   1.000
      3           3           11.186           11.099         0.994   1.000
      4           4           12.202           11.852         0.994   1.000

-----------------------------------------------------------------


 1-electron, quasi-particle eigenvalues, unoccupied states:
  SPIN UP
  DFT orbital  QP orbital   DFT energy [eV]   QP energy [eV]   proj     occ
      5           5           18.402           19.702         0.995   0.000
      6           6           20.190           21.527         0.989   0.000
      7           7           20.746           21.970         0.984   0.000
      8           8           21.544           22.835         0.993   0.000
      9           9           24.590           26.003         0.998   0.000
     10          10           26.297           27.782         0.991   0.000
     11          11           28.295           30.135         0.990   0.000
     12          12           29.894           32.094         0.997   0.000

-----------------------------------------------------------------

 Energy of highest occupied level (eV) =     11.852
 Energy of lowest unoccupied level (eV) =     19.702

Reading quasi-particle Hamiltonian from file hmat_qp.


 All values in eV. Read    144 spin      1 k-point      6 matrix elements.
  QP HAMILTONIAN IS SYMMETRIZED

-----------------------------------------------------------------

 1-electron, quasi-particle eigenvalues, occupied states:
  SPIN UP
  DFT orbital  QP orbital   DFT energy [eV]   QP energy [eV]   proj     occ
      1           1            5.002            4.129         0.999   1.000
      2           2           10.747           10.265         0.998   1.000
      3           3           12.463           12.202         0.998   1.000
      4           4           14.422           13.878         1.000   1.000

-----------------------------------------------------------------


 1-electron, quasi-particle eigenvalues, unoccupied states:
  SPIN UP
  DFT orbital  QP orbital   DFT energy [eV]   QP energy [eV]   proj     occ
      5           5           18.393           19.383         0.985   0.000
      6           6           19.139           20.382         0.992   0.000
      7           7           20.020           21.351         0.991   0.000
      8           8           21.042           22.487         0.963   0.000
      9           9           22.294           24.070         0.975   0.000
     10          10           25.774           27.560         0.974   0.000
     11          11           26.521           28.104         0.993   0.000
     12          12           27.698           29.784         0.974   0.000

-----------------------------------------------------------------

 Energy of highest occupied level (eV) =     13.878
 Energy of lowest unoccupied level (eV) =     19.383

Reading quasi-particle Hamiltonian from file hmat_qp.


 All values in eV. Read    144 spin      1 k-point      7 matrix elements.
  QP HAMILTONIAN IS SYMMETRIZED

-----------------------------------------------------------------

 1-electron, quasi-particle eigenvalues, occupied states:
  SPIN UP
  DFT orbital  QP orbital   DFT energy [eV]   QP energy [eV]   proj     occ
      1           1            5.957            5.112         0.998   1.000
      2           2            9.577            8.696         0.998   1.000
      3           3           11.591           11.353         0.996   1.000
      4           4           13.512           13.044         0.999   1.000

-----------------------------------------------------------------


 1-electron, quasi-particle eigenvalues, unoccupied states:
  SPIN UP
  DFT orbital  QP orbital   DFT energy [eV]   QP energy [eV]   proj     occ
      5           5           18.362           19.591         0.984   0.000
      6           6           19.362           20.511         0.988   0.000
      7           7           20.795           22.134         0.969   0.000
      8           8           21.767           22.855         0.975   0.000
      9           9           23.816           25.299         0.979   0.000
     10          10           24.468           25.954         0.982   0.000
     11          11           28.088           30.169         0.992   0.000
     12          12           29.350           31.209         0.992   0.000

-----------------------------------------------------------------

 Energy of highest occupied level (eV) =     13.044
 Energy of lowest unoccupied level (eV) =     19.591

Reading quasi-particle Hamiltonian from file hmat_qp.


 All values in eV. Read    144 spin      1 k-point      8 matrix elements.
  QP HAMILTONIAN IS SYMMETRIZED

-----------------------------------------------------------------

 1-electron, quasi-particle eigenvalues, occupied states:
  SPIN UP
  DFT orbital  QP orbital   DFT energy [eV]   QP energy [eV]   proj     occ
      1           1            5.024            4.098         1.000   1.000
      2           2           11.159           10.408         0.994   1.000
      3           3           13.019           12.603         0.931   1.000
      4           4           13.353           12.877         0.936   1.000

-----------------------------------------------------------------


 1-electron, quasi-particle eigenvalues, unoccupied states:
  SPIN UP
  DFT orbital  QP orbital   DFT energy [eV]   QP energy [eV]   proj     occ
      5           5           16.834           17.979         0.996   0.000
      6           6           18.452           19.876         0.984   0.000
      7           7           21.114           22.264         0.992   0.000
      8           8           21.641           22.778         0.997   0.000
      9           9           24.470           25.623         0.982   0.000
     10          10           25.379           26.896         0.987   0.000
     11          11           26.963           28.860         0.996   0.000
     12          12           28.517           30.774         0.998   0.000

-----------------------------------------------------------------

 Energy of highest occupied level (eV) =     12.877
 Energy of lowest unoccupied level (eV) =     17.979

-----------------------------------------------------------------
 Calculation of Bare Exchange for representation  1

 ELAPSED TIME =      123.88 s.  Starting readmatrix kernel_vc

 Calculating kernel matrix elements in blocks of        50000 (buffer size) 

  kernel K_x (Hartree/Exchange kernel)
 Using  263  data blocks to store matrix elements.
 ELAPSED TIME =      123.88 s. Starting calculation of kernel
 ELAPSED TIME =      125.46 s.  Kernel matrix calculation
     49920 matrix elements calculated by PE  0 representation  1 spin  1 1
Kernel done!      65536 matrix elements calculated by PE  0 representation  1
 Buffer sizes:  3
 49920 15616 0
 
 50000 50000 50000
 
 ELAPSED TIME =      125.95 s. FFT finalized
  Reconstructing kernel in blocks of  50000  matrix elements
 ELAPSED TIME =      125.97 s. Calling exchange_b

-----------------------------------------------------------------
 Calculation of Direct_bare kernel of BSE  Hamiltonian for representation  1

 ELAPSED TIME =      126.13 s.  Starting readmatrix kernel_x

 Calculating kernel matrix elements in blocks of        50000 (buffer size) 

  kernel K_x (Hartree/Exchange kernel)
 Using  135  data blocks to store matrix elements.
 ELAPSED TIME =      126.13 s. Starting calculation of kernel
 ELAPSED TIME =      127.63 s.  Kernel matrix calculation
     49664 matrix elements calculated by PE  0 representation  1 spin  1 1
Kernel done!      65536 matrix elements calculated by PE  0 representation  1
 Buffer sizes:  3
 49664 15872 0
 
 50000 50000 50000
 
 ELAPSED TIME =      128.12 s. FFT finalized
  Reconstructing kernel in blocks of  50000  matrix elements
 ELAPSED TIME =      128.13 s. Calling direct_b

-----------------------------------------------------------------
 Calculation of Direct_screened kernel of BSE Hamiltonian for representation  1

 Seek representation   1 in pol_diag.dat.   1  1     256
 ELAPSED TIME =      128.72 s.  Starting readmatrix kernel_vv c

 Calculating kernel matrix elements in blocks of        50000 (buffer size) 

  kernel K_x (Hartree/Exchange kernel)
 Using  135  data blocks to store matrix elements.
 ELAPSED TIME =      128.72 s. Starting calculation of kernel
Kernel done!      32768 matrix elements calculated by PE  0 representation  1
 Buffer sizes:  2
 32768 0
 
 50000 50000
 
 ELAPSED TIME =      129.40 s. FFT finalized
  Reconstructing kernel in blocks of  50000  matrix elements
 ELAPSED TIME =      129.40 s. Calling potential pot_c vcvv
 ELAPSED TIME =      129.41 s.  Starting readmatrix kernel_cc c

 Calculating kernel matrix elements in blocks of        50000 (buffer size) 

  kernel K_x (Hartree/Exchange kernel)
 Using  263  data blocks to store matrix elements.
 ELAPSED TIME =      129.41 s. Starting calculation of kernel
 ELAPSED TIME =      130.87 s.  Kernel matrix calculation
     49664 matrix elements calculated by PE  0 representation  1 spin  1 1
 ELAPSED TIME =      132.34 s.  Kernel matrix calculation
     99328 matrix elements calculated by PE  0 representation  1 spin  1 1
Kernel done!     131072 matrix elements calculated by PE  0 representation  1
 Buffer sizes:  4
 49664 49664 31744 0
 
 50000 50000 50000 50000
 
 ELAPSED TIME =      133.28 s. FFT finalized
  Reconstructing kernel in blocks of  50000  matrix elements
 ELAPSED TIME =      133.31 s. Calling potential pot_c1 vccc
 ELAPSED TIME =      133.35 s. Calling direct_s
 DIRECT , xsum =  0.000000000000000000E+00

-----------------------------------------------------------------
 Calculation of Direct_screened kernel of BSE Hamiltonian for representation  1

 Seek representation   1 in pol_diag.dat.   1  2     256
 ELAPSED TIME =      134.79 s.  Starting readmatrix kernel_vv c

 Calculating kernel matrix elements in blocks of        50000 (buffer size) 

  kernel K_x (Hartree/Exchange kernel)
 Using  135  data blocks to store matrix elements.
 ELAPSED TIME =      134.79 s. Starting calculation of kernel
Kernel done!      32768 matrix elements calculated by PE  0 representation  1
 Buffer sizes:  2
 32768 0
 
 50000 50000
 
 ELAPSED TIME =      140.93 s. FFT finalized
  Reconstructing kernel in blocks of  50000  matrix elements
 ELAPSED TIME =      140.93 s. Calling potential pot_c vcvv
 ELAPSED TIME =      140.94 s.  Starting readmatrix kernel_cc c

 Calculating kernel matrix elements in blocks of        50000 (buffer size) 

  kernel K_x (Hartree/Exchange kernel)
 Using  263  data blocks to store matrix elements.
 ELAPSED TIME =      140.95 s. Starting calculation of kernel
 ELAPSED TIME =      150.92 s.  Kernel matrix calculation
     49664 matrix elements calculated by PE  0 representation  1 spin  1 1
 ELAPSED TIME =      160.92 s.  Kernel matrix calculation
     99328 matrix elements calculated by PE  0 representation  1 spin  1 1
Kernel done!     131072 matrix elements calculated by PE  0 representation  1
 Buffer sizes:  4
 49664 49664 31744 0
 
 50000 50000 50000 50000
 
 ELAPSED TIME =      167.27 s. FFT finalized
  Reconstructing kernel in blocks of  50000  matrix elements
 ELAPSED TIME =      167.29 s. Calling potential pot_c1 vccc
 ELAPSED TIME =      167.33 s. Calling direct_s
 DIRECT , xsum =  0.000000000000000000E+00

-----------------------------------------------------------------
 Calculation of Direct_screened kernel of BSE Hamiltonian for representation  1

 Seek representation   1 in pol_diag.dat.   1  3     256
 ELAPSED TIME =      168.77 s.  Starting readmatrix kernel_vv c

 Calculating kernel matrix elements in blocks of        50000 (buffer size) 

  kernel K_x (Hartree/Exchange kernel)
 Using  135  data blocks to store matrix elements.
 ELAPSED TIME =      168.77 s. Starting calculation of kernel
Kernel done!      32768 matrix elements calculated by PE  0 representation  1
 Buffer sizes:  2
 32768 0
 
 50000 50000
 
 ELAPSED TIME =      174.92 s. FFT finalized
  Reconstructing kernel in blocks of  50000  matrix elements
 ELAPSED TIME =      174.92 s. Calling potential pot_c vcvv
 ELAPSED TIME =      174.93 s.  Starting readmatrix kernel_cc c

 Calculating kernel matrix elements in blocks of        50000 (buffer size) 

  kernel K_x (Hartree/Exchange kernel)
 Using  263  data blocks to store matrix elements.
 ELAPSED TIME =      174.94 s. Starting calculation of kernel
 ELAPSED TIME =      184.91 s.  Kernel matrix calculation
     49664 matrix elements calculated by PE  0 representation  1 spin  1 1
 ELAPSED TIME =      194.91 s.  Kernel matrix calculation
     99328 matrix elements calculated by PE  0 representation  1 spin  1 1
Kernel done!     131072 matrix elements calculated by PE  0 representation  1
 Buffer sizes:  4
 49664 49664 31744 0
 
 50000 50000 50000 50000
 
 ELAPSED TIME =      201.28 s. FFT finalized
  Reconstructing kernel in blocks of  50000  matrix elements
 ELAPSED TIME =      201.29 s. Calling potential pot_c1 vccc
 ELAPSED TIME =      201.33 s. Calling direct_s
 DIRECT , xsum =  0.000000000000000000E+00

-----------------------------------------------------------------
 Calculation of Direct_screened kernel of BSE Hamiltonian for representation  1

 Seek representation   1 in pol_diag.dat.   1  4     256
 ELAPSED TIME =      202.77 s.  Starting readmatrix kernel_vv c

 Calculating kernel matrix elements in blocks of        50000 (buffer size) 

  kernel K_x (Hartree/Exchange kernel)
 Using  135  data blocks to store matrix elements.
 ELAPSED TIME =      202.77 s. Starting calculation of kernel
Kernel done!      32768 matrix elements calculated by PE  0 representation  1
 Buffer sizes:  2
 32768 0
 
 50000 50000
 
 ELAPSED TIME =      211.65 s. FFT finalized
  Reconstructing kernel in blocks of  50000  matrix elements
 ELAPSED TIME =      211.66 s. Calling potential pot_c vcvv
 ELAPSED TIME =      211.67 s.  Starting readmatrix kernel_cc c

 Calculating kernel matrix elements in blocks of        50000 (buffer size) 

  kernel K_x (Hartree/Exchange kernel)
 Using  263  data blocks to store matrix elements.
 ELAPSED TIME =      211.67 s. Starting calculation of kernel
 ELAPSED TIME =      225.92 s.  Kernel matrix calculation
     49664 matrix elements calculated by PE  0 representation  1 spin  1 1
 ELAPSED TIME =      240.17 s.  Kernel matrix calculation
     99328 matrix elements calculated by PE  0 representation  1 spin  1 1
Kernel done!     131072 matrix elements calculated by PE  0 representation  1
 Buffer sizes:  4
 49664 49664 31744 0
 
 50000 50000 50000 50000
 
 ELAPSED TIME =      249.25 s. FFT finalized
  Reconstructing kernel in blocks of  50000  matrix elements
 ELAPSED TIME =      249.27 s. Calling potential pot_c1 vccc
 ELAPSED TIME =      249.31 s. Calling direct_s
 DIRECT , xsum =  0.000000000000000000E+00

-----------------------------------------------------------------
 Calculation of Direct_screened kernel of BSE Hamiltonian for representation  1

 Seek representation   1 in pol_diag.dat.   1  5     256
 ELAPSED TIME =      250.74 s.  Starting readmatrix kernel_vv c

 Calculating kernel matrix elements in blocks of        50000 (buffer size) 

  kernel K_x (Hartree/Exchange kernel)
 Using  135  data blocks to store matrix elements.
 ELAPSED TIME =      250.74 s. Starting calculation of kernel
Kernel done!      32768 matrix elements calculated by PE  0 representation  1
 Buffer sizes:  2
 32768 0
 
 50000 50000
 
 ELAPSED TIME =      256.88 s. FFT finalized
  Reconstructing kernel in blocks of  50000  matrix elements
 ELAPSED TIME =      256.89 s. Calling potential pot_c vcvv
 ELAPSED TIME =      256.90 s.  Starting readmatrix kernel_cc c

 Calculating kernel matrix elements in blocks of        50000 (buffer size) 

  kernel K_x (Hartree/Exchange kernel)
 Using  263  data blocks to store matrix elements.
 ELAPSED TIME =      256.90 s. Starting calculation of kernel
 ELAPSED TIME =      266.89 s.  Kernel matrix calculation
     49664 matrix elements calculated by PE  0 representation  1 spin  1 1
 ELAPSED TIME =      276.90 s.  Kernel matrix calculation
     99328 matrix elements calculated by PE  0 representation  1 spin  1 1
Kernel done!     131072 matrix elements calculated by PE  0 representation  1
 Buffer sizes:  4
 49664 49664 31744 0
 
 50000 50000 50000 50000
 
 ELAPSED TIME =      283.28 s. FFT finalized
  Reconstructing kernel in blocks of  50000  matrix elements
 ELAPSED TIME =      283.29 s. Calling potential pot_c1 vccc
 ELAPSED TIME =      283.33 s. Calling direct_s
 DIRECT , xsum =  0.000000000000000000E+00

-----------------------------------------------------------------
 Calculation of Direct_screened kernel of BSE Hamiltonian for representation  1

 Seek representation   1 in pol_diag.dat.   1  6     256
 ELAPSED TIME =      284.77 s.  Starting readmatrix kernel_vv c

 Calculating kernel matrix elements in blocks of        50000 (buffer size) 

  kernel K_x (Hartree/Exchange kernel)
 Using  135  data blocks to store matrix elements.
 ELAPSED TIME =      284.77 s. Starting calculation of kernel
Kernel done!      32768 matrix elements calculated by PE  0 representation  1
 Buffer sizes:  2
 32768 0
 
 50000 50000
 
 ELAPSED TIME =      293.65 s. FFT finalized
  Reconstructing kernel in blocks of  50000  matrix elements
 ELAPSED TIME =      293.65 s. Calling potential pot_c vcvv
 ELAPSED TIME =      293.66 s.  Starting readmatrix kernel_cc c

 Calculating kernel matrix elements in blocks of        50000 (buffer size) 

  kernel K_x (Hartree/Exchange kernel)
 Using  263  data blocks to store matrix elements.
 ELAPSED TIME =      293.66 s. Starting calculation of kernel
 ELAPSED TIME =      307.86 s.  Kernel matrix calculation
     49664 matrix elements calculated by PE  0 representation  1 spin  1 1
 ELAPSED TIME =      322.06 s.  Kernel matrix calculation
     99328 matrix elements calculated by PE  0 representation  1 spin  1 1
Kernel done!     131072 matrix elements calculated by PE  0 representation  1
 Buffer sizes:  4
 49664 49664 31744 0
 
 50000 50000 50000 50000
 
 ELAPSED TIME =      331.14 s. FFT finalized
  Reconstructing kernel in blocks of  50000  matrix elements
 ELAPSED TIME =      331.15 s. Calling potential pot_c1 vccc
 ELAPSED TIME =      331.20 s. Calling direct_s
 DIRECT , xsum =  0.000000000000000000E+00

-----------------------------------------------------------------
 Calculation of Direct_screened kernel of BSE Hamiltonian for representation  1

 Seek representation   1 in pol_diag.dat.   1  7     256
 ELAPSED TIME =      332.63 s.  Starting readmatrix kernel_vv c

 Calculating kernel matrix elements in blocks of        50000 (buffer size) 

  kernel K_x (Hartree/Exchange kernel)
 Using  135  data blocks to store matrix elements.
 ELAPSED TIME =      332.63 s. Starting calculation of kernel
Kernel done!      32768 matrix elements calculated by PE  0 representation  1
 Buffer sizes:  2
 32768 0
 
 50000 50000
 
 ELAPSED TIME =      341.52 s. FFT finalized
  Reconstructing kernel in blocks of  50000  matrix elements
 ELAPSED TIME =      341.52 s. Calling potential pot_c vcvv
 ELAPSED TIME =      341.53 s.  Starting readmatrix kernel_cc c

 Calculating kernel matrix elements in blocks of        50000 (buffer size) 

  kernel K_x (Hartree/Exchange kernel)
 Using  263  data blocks to store matrix elements.
 ELAPSED TIME =      341.54 s. Starting calculation of kernel
 ELAPSED TIME =      355.82 s.  Kernel matrix calculation
     49664 matrix elements calculated by PE  0 representation  1 spin  1 1
 ELAPSED TIME =      370.10 s.  Kernel matrix calculation
     99328 matrix elements calculated by PE  0 representation  1 spin  1 1
Kernel done!     131072 matrix elements calculated by PE  0 representation  1
 Buffer sizes:  4
 49664 49664 31744 0
 
 50000 50000 50000 50000
 
 ELAPSED TIME =      379.23 s. FFT finalized
  Reconstructing kernel in blocks of  50000  matrix elements
 ELAPSED TIME =      379.25 s. Calling potential pot_c1 vccc
 ELAPSED TIME =      379.29 s. Calling direct_s
 DIRECT , xsum =  0.000000000000000000E+00

-----------------------------------------------------------------
 Calculation of Direct_screened kernel of BSE Hamiltonian for representation  1

 Seek representation   1 in pol_diag.dat.   1  8     256
 ELAPSED TIME =      380.72 s.  Starting readmatrix kernel_vv c

 Calculating kernel matrix elements in blocks of        50000 (buffer size) 

  kernel K_x (Hartree/Exchange kernel)
 Using  135  data blocks to store matrix elements.
 ELAPSED TIME =      380.72 s. Starting calculation of kernel
Kernel done!      32768 matrix elements calculated by PE  0 representation  1
 Buffer sizes:  2
 32768 0
 
 50000 50000
 
 ELAPSED TIME =      390.99 s. FFT finalized
  Reconstructing kernel in blocks of  50000  matrix elements
 ELAPSED TIME =      391.00 s. Calling potential pot_c vcvv
 ELAPSED TIME =      391.01 s.  Starting readmatrix kernel_cc c

 Calculating kernel matrix elements in blocks of        50000 (buffer size) 

  kernel K_x (Hartree/Exchange kernel)
 Using  263  data blocks to store matrix elements.
 ELAPSED TIME =      391.01 s. Starting calculation of kernel
 ELAPSED TIME =      407.32 s.  Kernel matrix calculation
     49664 matrix elements calculated by PE  0 representation  1 spin  1 1
 ELAPSED TIME =      423.62 s.  Kernel matrix calculation
     99328 matrix elements calculated by PE  0 representation  1 spin  1 1
Kernel done!     131072 matrix elements calculated by PE  0 representation  1
 Buffer sizes:  4
 49664 49664 31744 0
 
 50000 50000 50000 50000
 
 ELAPSED TIME =      434.06 s. FFT finalized
  Reconstructing kernel in blocks of  50000  matrix elements
 ELAPSED TIME =      434.08 s. Calling potential pot_c1 vccc
 ELAPSED TIME =      434.12 s. Calling direct_s
 DIRECT , xsum =  0.000000000000000000E+00
  ERROR! Negative eigenvalues for representation  1  : (eV)
 37.6270390707909783
 35.4171775034136616
 33.4813225692926082
 32.0266483559027506
 31.1653500917157587
 30.7528719643736039
 30.2723341010848337
 29.3625968646853259
 28.2979062543241966
 27.9761363097515563
 27.7866236074963986
 27.5649464510454223
 27.2819283117122495
 26.9730682713876710
 26.8404288577762671
 26.4876903531813639
 26.4149586884101524
 26.0445848508636502
 25.8075774336386630
 25.6783079560309773
 25.4192267993277667
 25.1854581989554411
 25.0886178507795279
 24.8808339501629341
 24.7656401854025141
 24.4360748194716813
 24.1582232579089293
 24.1094410456763164
 23.8396485482523204
 23.6631233617578900
 23.4751071740743491
 23.3355162527002129
 23.2146434548684439
 23.0196484121970109
 22.8861729295161211
 22.7087804631066312
 22.6545813063248183
 22.4789266639908902
 22.4218173781170300
 22.1733152098463009
 22.0763481260107923
 21.9664004493826219
 21.8162347165352877
 21.7327360149642992
 21.5599216056976708
 21.4975583540448731
 21.3341016566464496
 21.2275756205226109
 21.1192107456823166
 20.9465453139022380
 20.9224192318788553
 20.7590831374388038
 20.6364769967138528
 20.5153738444049623
 20.4216571075006676
 20.2386520827089207
 20.1924364612730187
 20.1418410189796901
 20.0303377897090193
 20.0090823759707988
 19.8912197238022728
 19.7425863954021992
 19.5552870426014174
 19.5453303385595305
 19.4585165959727320
 19.3117017525670214
 19.2171081840690192
 19.1349268784889190
 19.0242816356707678
 18.9981201554087633
 18.9122109850880449
 18.8582927544295487
 18.7787611675519699
 18.6749206355650763
 18.5793813693006165
 18.4968678850997676
 18.4456551450272705
 18.3488819396800231
 18.2580623346674535
 18.1594703050919897
 18.0869562772146537
 18.0202296306282790
 17.9544282764163619
 17.8206181234752776
 17.7323169864978034
 17.6791990253763736
 17.6019086514237983
 17.5385269439771960
 17.4916708963689871
 17.3115684246903143
 17.2325493725809480
 17.1263736546674039
 17.0658984614670715
 17.0127686162134317
 16.9307623623020298
 16.8548184546800641
 16.7677829262787021
 16.6959180180293316
 16.6729419044866454
 16.5959143179971278
 16.5290324524114034
 16.4911888724568954
 16.4267371187342519
 16.3406456966977025
 16.2781061487739898
 16.1945636488676818
 16.1302031016330965
 16.0906294124201885
 16.0175864586948506
 15.9101826790632259
 15.8474149651873155
 15.7878529428211571
 15.7448114334655234
 15.6933389774387386
 15.5474342019692973
 15.4893702464847038
 15.3569043371671690
 15.2881222367122156
 15.1938318824231207
 15.1318209906905530
 15.0451212877288985
 15.0093477731540581
 14.9565432864533552
 14.8320461825174750
 14.7711206901260006
 14.6993132942519953
 14.6463336571153704
 14.5455915136030907
 14.4762156403766831
 14.3783297127881990
 14.3115988104313683
 14.1885030864972652
 14.1461730225555566
 14.1011203708673563
 14.0068779759881625
 13.9246381672121640
 13.8543817306643078
 13.7760564983536185
 13.7187500223985044
 13.6693865645927435
 13.5914067628007444
 13.5267144422438843
 13.4548746630117524
 13.4170602615779728
 13.3311607126321547
 13.2417469102009360
 13.1852963627977520
 13.0711915545999808
 12.9958535789333887
 12.9267744469999837
 12.8910460190181819
 12.7481613867420798
 12.6243015435431261
 12.5979140396456444
 12.5455823792051007
 12.4606855815017941
 12.3658422363558778
 12.3029818978999383
 12.2199318063762785
 12.1894360064299878
 12.0920715097365381
 12.0730587782994796
 11.9875605718974487
 11.8625065620876331
 11.7414175251794113
 11.6781374747373761
 11.5599579908846373
 11.5222122830813234
 11.3839118436588809
 11.3193219482949381
 11.2785027051741906
 11.2174628072456635
 11.0760785712093384
 11.0539386363699883
 10.9423334814234163
 10.8156063326831706
 10.6910591249417948
 10.6301024025492445
 10.5649926258768083
 10.5290475340446559
 10.4600945256999722
 10.4139731572612266
 10.3364694667166432
 10.2262072977228780
 10.1925388416815697
 10.0977075585302476
 10.0438062598132269
 10.0126161525935338
 9.95154911543138709
 9.83875859649256768
 9.80500148124100512
 9.60335745763068083
 9.53703207063101921
 9.47227604634615972
 9.45784483653003427
 9.39545226326893435
 9.35544096839932848
 9.30379122455397756
 9.12636876237417205
 9.07058089796959166
 8.96748666306134723
 8.88623509503434050
 8.83270340201102577
 8.73552180605630291
 8.69463868336756107
 8.61640918579769277
 8.56153449040442105
 8.47395689652044481
 8.36421583931479340
 8.29978878163370482
 8.25360763945405651
 8.19511422579979865
 8.09754854218313724
 7.98610469552168389
 7.91452386593997659
 7.83846090707642595
 7.76301238935692073
 7.54759842901487676
 7.48988452926203241
 7.37241181212165753
 7.21207921619709769
 7.11328603034748941
 7.04183995910790461
 6.87266844353648487
 6.82352448015026969
 6.76882278000105053
 6.60830867040596548
 6.55610732440345689
 6.40007843803706855
 6.22271184179530934
 6.12352182186548877
 5.92787638127335015
 5.86343792168180755
 5.64208600939354632
 5.49388924268971124
 5.41614068490135114
 5.21136453194640925
 4.96800249771951119
 4.84281465006658429
 4.67621665430565869
 4.30017500760137228
 4.07511625409685863
 4.01668617589938037
 3.37098633770763989
 3.29485234464394594
 2.68554301810008988
 2.27246801364241247
 2.04513926518378186
 1.23555106247491087
 0.761232120265662004
 0.289911442310036627

#################################################################
  Calculation of BSE eigenvectors for representation  1
  number of pair transitions =  256
#################################################################

  Lowest eigenvalues for this representation (eV) : 
 -2.83827167617916043
 -2.35841690043105956
 -1.09911533929725280

-----------------------------------------------------------------

 Checking oscillator strength sum rule 
 Ratio between numerical and exact values : 
                            Field polarization 
                           x  ----  y  ----  z  ---- average
      BSE Sum Rule  =   3.4650   3.6185   2.2934      3.1256

-----------------------------------------------------------------

 Static polarizability (a.u.) 
                                 Field polarization 
                                x  ----  y  ----  z  ---- average
     BSE Polarizability =   844.6250 871.6679 107.3244    607.8724

-----------------------------------------------------------------

  Lowest eigenvalues from BSE, all representations
 Order      Energy (eV)  Representation
    1        0.289911         1
    2        0.761232         1
    3        1.235551         1
    4        2.045139         1
    5        2.272468         1
    6        2.685543         1
    7        3.294852         1
    8        3.370986         1
    9        4.016686         1
   10        4.075116         1
 

-----------------------------------------------------------------
                               CPU [s]     WALL [s]           #

 SETUP_B:                         1.530        1.543          1
 KERNEL:                        418.230      419.583         26
 DIAG_POL:                        2.910        2.933          8
 POTENTIAL:                       0.400        0.407         16
 EXCHANGE_B:                      0.150        0.152          1
 DIRECT_B:                        0.590        0.587          1
 DIRECT_S:                       11.370       11.397          8
 DIRECT_MIX:                      0.000        0.000          0
 
 DIAG_BSE:                        0.370        0.373          1
 POISSON_FFT:                   231.970      234.370    2133888
 EIGENSOLVER:                     2.870        2.883          8
 INTEGRATION:                   413.790      415.332       5504

                TOTAL           435.980      439.797

 Finished 2009 Mar 10 13:33:49  -420 UTC
-----------------------------------------------------------------
