
=================================================================

 SIGMA   2009 Jan 23 14:19:34  -420 UTC

 Running serial version (no MPI)

Version date : Fri Jan  2 17:07:49 EST 2009
architecture = sp5_nersc
pre-processing options = -DUSEESSL 
compilation options = -O3 -qextname=flush -qarch=auto -qtune=auto -qhot -qalias=noaryovrlp -Q -qautodbl=dbl4 -q64

=================================================================


 Electronic structure data :
 ---------------------------

 Reading electron wavefunctions from file parsec.dat/wfn.dat
 WARNING: parsec.dat file not found
          Looking for file wfn.dat
 ELAPSED TIME =        0.00 s. parsec_wfn:  reading wfn.dat

 Wavefunction file created on 22-JAN-2009 07:57:26 -0700 UTC

 Spin polarized calculation.

  Number of occupied levels, spin  1  :  2.00000000000000000
 DFT Eigenvalues (eV), spin  1  :
  -3.87  -2.59  -2.00  -1.38  -1.09  -0.82  -0.46  -0.40   0.03   0.19
   0.26   0.52   0.67   0.68   0.79   0.98   1.01   1.07   1.07   1.25
   1.29   1.30   1.38   1.44   1.67   1.82   1.84   1.93   1.99   2.01
   2.07   2.12   2.13   2.18   2.27   2.27   2.46   2.50   2.63   2.73
   2.74   2.86   2.89   2.90   2.93   3.00   3.00   3.05   3.06   3.07
   3.13   3.14   3.15   3.15   3.24   3.24   3.75   3.76   3.81   3.93
   3.95   3.95   4.01   4.02   4.03   4.06   4.08   4.08   4.08   4.11
   4.11   4.15   4.17   4.17   4.19   4.24   4.24   4.27   4.32   4.39
   4.40   4.53   4.63   4.63   5.05   5.08   5.09   5.14   5.14   5.17
   5.18   5.19   5.20   5.21   5.23   5.24   5.27   5.28   5.29   5.33
   5.33   5.45   5.45   5.53   5.55   5.58   5.67   5.68   5.72   5.77
   5.79   5.82   5.86   5.90   5.95   6.00   6.12   6.12   6.17   6.18
   6.27   6.28   6.33   6.33   6.36   6.36   6.38   6.38   6.38   6.40
   6.40   6.43   6.43   6.47   6.47   6.50   6.51   6.98   7.02   7.07
   7.08   7.10   7.21   7.23   7.24   7.33   7.35   7.36   7.38   7.39
   7.41   7.43   7.47   7.47   7.52   7.53   7.55   7.56   7.60   7.61
 Irreducible representations, spin  1  :
    1    4    1    3    1    4    1    2    3    4
    1    1    3    4    1    3    2    4    1    4
    1    3    1    2    3    4    1    1    2    3
    1    4    2    4    1    3    4    1    3    2
    1    3    4    1    4    2    3    1    4    3
    2    4    3    1    1    3    4    1    1    2
    4    1    1    2    3    4    1    4    2    3
    1    2    4    2    3    3    1    3    1    4
    2    1    3    1    4    1    4    2    3    4
    1    3    2    4    3    1    2    4    4    1
    3    1    4    3    1    2    3    2    1    3
    4    1    3    4    2    4    3    1    1    3
    1    4    2    3    4    1    2    3    1    2
    4    3    1    4    2    1    3    4    1    4
    1    2    1    2    3    4    1    3    2    4
    2    1    3    1    2    4    4    1    2    3
 
  Number of occupied levels, spin  2  :  1.00000000000000000
 DFT Eigenvalues (eV), spin  2  :
  -3.61  -2.07  -1.80  -1.21  -0.77  -0.50  -0.30  -0.10   0.12   0.34
   0.39   0.58   0.73   0.85   0.93   1.11   1.11   1.18   1.23   1.33
   1.33   1.39   1.46   1.59   1.72   1.93   1.94   1.99   2.07   2.08
   2.13   2.16   2.18   2.28   2.29   2.39   2.61   2.66   2.78   2.82
   2.88   2.95   2.95   2.96   3.04   3.05   3.07   3.10   3.10   3.12
   3.15   3.17   3.19   3.19   3.25   3.25   3.90   3.93   3.99   4.00
   4.00   4.06   4.07   4.09   4.11   4.11   4.13   4.13   4.14   4.14
   4.18   4.18   4.22   4.24   4.25   4.27   4.30   4.36   4.45   4.49
   4.50   4.58   4.66   4.66   5.11   5.11   5.16   5.17   5.20   5.20
   5.22   5.22   5.23   5.25   5.25   5.28   5.28   5.29   5.33   5.34
   5.45   5.60   5.61   5.71   5.72   5.72   5.78   5.81   5.81   5.84
   5.91   5.91   5.96   6.00   6.01   6.12   6.14   6.14   6.22   6.22
   6.30   6.30   6.35   6.35   6.38   6.38   6.40   6.40   6.40   6.42
   6.42   6.44   6.44   6.47   6.47   6.51   6.51   7.18   7.19   7.20
   7.23   7.31   7.34   7.35   7.39   7.43   7.43   7.47   7.49   7.50
   7.52   7.52   7.53   7.57   7.58   7.58   7.58   7.58   7.62   7.62
 Irreducible representations, spin  2  :
    1    4    1    3    1    4    1    2    3    1
    4    1    3    4    1    3    2    4    1    1
    3    4    1    2    3    4    1    1    2    3
    1    4    2    1    3    4    4    1    3    1
    2    4    3    1    2    3    4    1    4    3
    2    4    1    3    1    3    1    4    1    4
    1    2    3    2    1    4    1    2    3    1
    4    2    4    3    1    3    2    3    1    4
    2    1    3    1    4    1    2    3    4    1
    3    2    4    3    1    4    2    4    1    3
    4    1    4    1    2    3    3    2    1    3
    4    1    3    4    2    4    3    1    3    1
    1    4    2    3    4    1    2    3    1    2
    4    3    1    4    2    1    3    4    1    4
    1    2    2    3    1    4    1    3    2    4
    2    1    1    4    1    3    2    4    2    3
 
 Maximum value of electron density (a.u.^-3) =   0.83880977E-02
 Total number of electrons =     3.0000

 MPI data :
 ----------

  Group partition information: 
  Distributing  1  processors among  1  groups.
  Each group contains  1  processors.
  I am processor rank  0  in group  0
  I am master in my group, with master rank  0
  My group has representations: 
    1    2    3    4

  Wavefunction partition information: 
  Distributing  1  processors among  1  groups.
  Each group contains  1  processors.
  I am processor rank  0  in group  0
  I am master in my group, with master rank    0

 Atom data :
 -----------

 Atom coordinates input in Bohr radii.

  Atomic coordinates (all atoms) are :
           x [a.u.]          y [a.u.]          z [a.u.]           Type
   1       3.871752333      -2.134634490       0.000000000         Na
   2      -3.871752333      -2.134634490       0.000000000         Na
   3       0.000000000       2.236526979       0.000000000         Na

 Total number of atoms =    3
 Total number of atom types =    1

 Pseudopotential messages, element Na :
 --------------------------------------

 Pseudopotential format : new Martins
 Pseudopotential file for this atom type is Na_POTRE.DAT
  Na ca nrl nc
  atom 5.69p26-Aug-06   Improved Troullier - Martins potential
 3s(  1.00)  rc= 2.983p(   .00)  rc= 2.983d(   .00)  rc= 3.07

 logarithmic parameters of pseudopot. radial grid
 r(i) = a*[Exp(b(i-1)) - 1)]
 a (a.u.) = 0.225341E-03 b = 0.100000E-01 c = 0.225341E-03 nr =     1319

 # of pseudopot= 3, Local component is l = 0
 Core radius (a.u.) =  3.10

 Normalization check and Kleinman-Bylander Integral:
                        s             p             d
 Normalization        1.00001667    1.00001667    1.00767879
 K-B Integral (Ry)   -0.52245599    0.00030275    0.00000000
 WARNING: The K-B Integral is too small!!
 the Kleinman-Bylander integral of L = 2 is   -0.273671E-09
 Integrals are renormalized to one.

 Grid data :
 -----------

 Gradients and Laplacians calculated with finite differences, order   6

 Number of finite difference directions =  3
 Finite difference directions:
     1     0     0     weight =  1.000000
     0     1     0     weight =  1.000000
     0     0     1     weight =  1.000000

  ELECTRONIC SYSTEM IS CONFINED !


 Confining radius (a.u.) =        17.993541

 Grid spacing (a.u.) =         0.700000        0.700000        0.700000

 Real-space FFT grid =  110 110 110 112

 Long-wavelength Coulomb energy (eV) =         0.0000000000

 Coulomb truncation length (a.u.) =        35.9870810153

 Full grid has      71136 points.
 Irreducible wedge has      17784 points.

 ELAPSED TIME =        0.00 s. parsec_wfn:  reading wave functions

 Read wavefunctions for        160 levels, spin    1

 Read wavefunctions for        160 levels, spin    2

-----------------------------------------------------------------


-----------------------------------------------------------------

 ELAPSED TIME =        0.68 s. Calling setup_s

  Spin up channel:
  Calculating  6  diagonal matrix elements
  and  4  off-diagonal matrix elements.
  Calculating  6  diagonal matrix elements
  and  4  off-diagonal matrix elements beyond COHSEX.

  Spin down chanel:
  Calculating  6  diagonal matrix elements
  and  4  off-diagonal matrix elements.
  Calculating  6  diagonal matrix elements
  and  4  off-diagonal matrix elements beyond COHSEX.
  Calculating exchange matrix elements, spin  1
 Functional : Slater exchange
  Calculating correlation matrix elements, spin  1
 Functional : Perdew & Wang
  Calculating exchange matrix elements, spin  1
 Functional : Slater exchange
  Calculating correlation matrix elements, spin  1
 Functional : Perdew & Wang

 V_xc MATRIX ELEMENTS (eV): 
    spin =  1
   n     E_dft     E_0       V_xc      V_x       V_c
   1    -3.869    -3.869    -4.672    -3.847    -0.825
   2    -2.591    -2.591    -4.128    -3.503    -0.625
   3    -2.001    -2.001    -3.383    -2.727    -0.656
   4    -1.384    -1.384    -3.266    -2.626    -0.640
   5    -1.087    -1.087    -3.439    -2.860    -0.579
   6    -0.825    -0.825    -3.222    -2.679    -0.544
-----------------------------------------------------------------

  Calculating exchange matrix elements, spin  1
 Functional : Slater exchange
  Calculating correlation matrix elements, spin  1
 Functional : Perdew & Wang
  Calculating exchange matrix elements, spin  2
 Functional : Slater exchange
  Calculating correlation matrix elements, spin  2
 Functional : Perdew & Wang
  Calculating exchange matrix elements, spin  2
 Functional : Slater exchange
  Calculating correlation matrix elements, spin  2
 Functional : Perdew & Wang

 V_xc MATRIX ELEMENTS (eV): 
    spin =  2
   n     E_dft     E_0       V_xc      V_x       V_c
   1    -3.609    -3.609    -4.427    -3.350    -1.077
   2    -2.066    -2.066    -3.521    -2.300    -1.221
   3    -1.804    -1.804    -3.119    -2.232    -0.887
   4    -1.209    -1.209    -3.020    -2.172    -0.848
   5    -0.770    -0.770    -2.842    -1.824    -1.018
   6    -0.499    -0.499    -2.672    -1.708    -0.964
-----------------------------------------------------------------

  Calculating exchange matrix elements, spin  2
 Functional : Slater exchange
  Calculating correlation matrix elements, spin  2
 Functional : Perdew & Wang
 ELAPSED TIME =        8.52 s. FFT finalized
 ELAPSED TIME =       14.37 s. FFT finalized
 
                  Eigenvalue Energy =        -0.7400018070 [Ry]
                     Kinetic Energy =         0.4332997855 [Ry]
       Local Pseudopotential Energy =        -3.5573441997 [Ry]
   Non-local Pseudopotential Energy =        -0.0009195747 [Ry]
                     Ion-ion Energy =         0.9432936515 [Ry]
                       Total Energy =        -0.9891892465 [Ry]
 Total energy excludes Exc - Int_{Vxc*rho}/2 term.
 

-----------------------------------------------------------------

 Self-energy input data: 
 -----------------------

 Number of transitions per representation in TDLDA polarizabillity:
      76      48      52      69
 total =        245

 Energy cutoff applied in TDLDA polarizability =  8.00000000000000000  eV
 Not using the Tamm-Dancoff approximation in TDLDA polarizability.

 Sum rule not renormalized

 Order of highest LDA state included in Green function =   160
 Order of highest LDA state included in COHSEX approximation =     6

 Energy resolution in energy poles, self-energy (eV) = 0.2500    

 Energy range used to calculate self-energy  =    20.0000 eV 

 Number of data points used to calculate self-energy =   801

 Calculating < n_1 | Sigma | n_2 > at the energy of orbital n_1

 Calculating W_pol in static limit with nr =  9810
 Fraction of electron density within nr =  99.9900025755161295  %
 Disk space used =      36.67 MB

 Memory needed to store wavefunctions :      43.42 MB/proc.
 Memory needed to calculate kernel matrix elements :       0.68 MB/proc.
 Memory needed for diagonalization :       0.13 MB/proc.
 Memory needed in self-energy calculation :      1.04 MB/proc.
 Minimum memory needed :       1.04 MB/proc.

-----------------------------------------------------------------


*****************************************************************

  Start self-consistent iteration  0  out of  0
 
 ELAPSED TIME =       14.45 s.  Calling readmatrix kernel_p

 Calculating kernel matrix elements in blocks of        50000 (buffer size) 

  kernel K_x + K_f (TDLDA spin singlet)
 Using  86  data blocks to store matrix elements.
 ELAPSED TIME =       14.69 s. Starting calculation of kernel
Kernel done!       4226 matrix elements calculated by PE  0 representation  1
 Buffer sizes:  5
 1275 1300 1300 351 0
 
 50000 50000 50000 50000 50000
 
 ELAPSED TIME =       26.19 s. FFT finalized
  Reconstructing kernel in blocks of  50000  matrix elements
 ELAPSED TIME =       26.19 s.  Calling diag_pol

#################################################################
 Calculation of polarizability eigenvectors for representation  1
 number of pair transitions =           76
 pair transitions per PE =           76
#################################################################

 ELAPSED TIME =       26.19 s. diag_pol: Calling eigensolver
 ELAPSED TIME =       26.20 s. diag_pol: eigensolver done
 ELAPSED TIME =       26.20 s. diag_pol: energy factors included in eigenvectors
  Lowest energy eigenvalues in polarizability (eV): 
        1.438628
        1.729439
        2.482642
 ELAPSED TIME =       26.20 s.  Calling readmatrix kernel_p

 Calculating kernel matrix elements in blocks of        50000 (buffer size) 

  kernel K_x + K_f (TDLDA spin singlet)
 Using  58  data blocks to store matrix elements.
 ELAPSED TIME =       26.43 s. Starting calculation of kernel
Kernel done!       1631 matrix elements calculated by PE  0 representation  2
 Buffer sizes:  5
 630 455 455 91 0
 
 50000 50000 50000 50000 50000
 
 ELAPSED TIME =       33.67 s. FFT finalized
  Reconstructing kernel in blocks of  50000  matrix elements
 ELAPSED TIME =       33.67 s.  Calling diag_pol

#################################################################
 Calculation of polarizability eigenvectors for representation  2
 number of pair transitions =           48
 pair transitions per PE =           48
#################################################################

 ELAPSED TIME =       33.67 s. diag_pol: Calling eigensolver
 ELAPSED TIME =       33.67 s. diag_pol: eigensolver done
 ELAPSED TIME =       33.67 s. diag_pol: energy factors included in eigenvectors
  Lowest energy eigenvalues in polarizability (eV): 
        1.176452
        2.496541
        3.118407
 ELAPSED TIME =       33.68 s.  Calling readmatrix kernel_p

 Calculating kernel matrix elements in blocks of        50000 (buffer size) 

  kernel K_x + K_f (TDLDA spin singlet)
 Using  62  data blocks to store matrix elements.
 ELAPSED TIME =       33.92 s. Starting calculation of kernel
Kernel done!       2005 matrix elements calculated by PE  0 representation  3
 Buffer sizes:  5
 561 627 627 190 0
 
 50000 50000 50000 50000 50000
 
 ELAPSED TIME =       41.75 s. FFT finalized
  Reconstructing kernel in blocks of  50000  matrix elements
 ELAPSED TIME =       41.75 s.  Calling diag_pol

#################################################################
 Calculation of polarizability eigenvectors for representation  3
 number of pair transitions =           52
 pair transitions per PE =           52
#################################################################

 ELAPSED TIME =       41.75 s. diag_pol: Calling eigensolver
 ELAPSED TIME =       41.75 s. diag_pol: eigensolver done
 ELAPSED TIME =       41.75 s. diag_pol: energy factors included in eigenvectors
  Lowest energy eigenvalues in polarizability (eV): 
        1.973748
        2.220486
        3.001020
 ELAPSED TIME =       41.76 s.  Calling readmatrix kernel_p

 Calculating kernel matrix elements in blocks of        50000 (buffer size) 

  kernel K_x + K_f (TDLDA spin singlet)
 Using  79  data blocks to store matrix elements.
 ELAPSED TIME =       42.00 s. Starting calculation of kernel
Kernel done!       3365 matrix elements calculated by PE  0 representation  4
 Buffer sizes:  5
 1275 950 950 190 0
 
 50000 50000 50000 50000 50000
 
 ELAPSED TIME =       52.39 s. FFT finalized
  Reconstructing kernel in blocks of  50000  matrix elements
 ELAPSED TIME =       52.39 s.  Calling diag_pol

#################################################################
 Calculation of polarizability eigenvectors for representation  4
 number of pair transitions =           69
 pair transitions per PE =           69
#################################################################

 ELAPSED TIME =       52.39 s. diag_pol: Calling eigensolver
 ELAPSED TIME =       52.39 s. diag_pol: eigensolver done
 ELAPSED TIME =       52.39 s. diag_pol: energy factors included in eigenvectors
  Lowest energy eigenvalues in polarizability (eV): 
        0.607891
        1.339578
        1.847509

-----------------------------------------------------------------

 Checking oscillator strength sum rule
 Ratio between numerical and exact values :
                            Field polarization
                           x  ----  y  ----  z  ---- average
  RPA-LDA Sum Rule  =   0.9914   0.9960   0.9908      0.9927
     ALDA Sum Rule  =   0.9914   0.9960   0.9908      0.9927

-----------------------------------------------------------------

 Static polarizability (a.u.) 
                                 Field polarization 
                                x  ----  y  ----  z  ---- average
 RPA-LDA Polarizability =  1116.13   652.01   391.04      719.726
    ALDA Polarizability =   546.56   318.32   237.50      367.460

  Average ALDA sum rule =  0.992749397811830137
  Average static RPA-LDA polarizability =  719.726422727006593
-----------------------------------------------------------------

  Lowest energy eigenvalues in polarizability, all representations:
 Order      Energy (eV)  Representation
    1        0.607891         4
    2        1.176452         2
    3        1.339578         4
    4        1.438628         1
    5        1.729439         1
    6        1.847509         4
    7        1.973748         3
    8        2.220486         3
    9        2.226248         4
   10        2.482642         1
 ELAPSED TIME =       52.64 s.  Memory allocation done. Start calculating vvc,fvc.
 ELAPSED TIME =       53.76 s.  vvc/fvc calculation
        15 out of         76 representation  1 spin  1
 ELAPSED TIME =       54.88 s.  vvc/fvc calculation
        30 out of         76 representation  1 spin  1
 ELAPSED TIME =       56.01 s.  vvc/fvc calculation
        45 out of         76 representation  1 spin  1
 ELAPSED TIME =       57.13 s.  vvc/fvc calculation
        60 out of         76 representation  1 spin  2
 ELAPSED TIME =       58.25 s.  vvc/fvc calculation
        75 out of         76 representation  1 spin  2
 ELAPSED TIME =       58.33 s. FFT finalized
 ELAPSED TIME =       58.33 s. Finished calculation of vvc/fvc.
 ELAPSED TIME =       58.57 s.  Memory allocation done. Start calculating vvc,fvc.
 ELAPSED TIME =       59.24 s.  vvc/fvc calculation
         9 out of         48 representation  2 spin  1
 ELAPSED TIME =       59.92 s.  vvc/fvc calculation
        18 out of         48 representation  2 spin  1
 ELAPSED TIME =       60.60 s.  vvc/fvc calculation
        27 out of         48 representation  2 spin  1
 ELAPSED TIME =       61.27 s.  vvc/fvc calculation
        36 out of         48 representation  2 spin  2
 ELAPSED TIME =       61.94 s.  vvc/fvc calculation
        45 out of         48 representation  2 spin  2
 ELAPSED TIME =       62.16 s. FFT finalized
 ELAPSED TIME =       62.16 s. Finished calculation of vvc/fvc.
 ELAPSED TIME =       62.40 s.  Memory allocation done. Start calculating vvc,fvc.
 ELAPSED TIME =       63.15 s.  vvc/fvc calculation
        10 out of         52 representation  3 spin  1
 ELAPSED TIME =       63.90 s.  vvc/fvc calculation
        20 out of         52 representation  3 spin  1
 ELAPSED TIME =       64.66 s.  vvc/fvc calculation
        30 out of         52 representation  3 spin  1
 ELAPSED TIME =       65.40 s.  vvc/fvc calculation
        40 out of         52 representation  3 spin  2
 ELAPSED TIME =       66.15 s.  vvc/fvc calculation
        50 out of         52 representation  3 spin  2
 ELAPSED TIME =       66.30 s. FFT finalized
 ELAPSED TIME =       66.30 s. Finished calculation of vvc/fvc.
 ELAPSED TIME =       66.54 s.  Memory allocation done. Start calculating vvc,fvc.
 ELAPSED TIME =       67.51 s.  vvc/fvc calculation
        13 out of         69 representation  4 spin  1
 ELAPSED TIME =       68.48 s.  vvc/fvc calculation
        26 out of         69 representation  4 spin  1
 ELAPSED TIME =       69.46 s.  vvc/fvc calculation
        39 out of         69 representation  4 spin  1
 ELAPSED TIME =       70.43 s.  vvc/fvc calculation
        52 out of         69 representation  4 spin  2
 ELAPSED TIME =       71.41 s.  vvc/fvc calculation
        65 out of         69 representation  4 spin  2
 ELAPSED TIME =       71.70 s. FFT finalized
 ELAPSED TIME =       71.70 s. Finished calculation of vvc/fvc.
  Distributing grid points among PEs. 
 9810  grid points per PE. 
 Seek representation   1 in pol_diag.dat.   1  1      76
 ELAPSED TIME =       71.79 s.  vr/fr calculation
      1962 out of       9810 representation  1 processor    0
 ELAPSED TIME =       71.82 s.  vr/fr calculation
      3924 out of       9810 representation  1 processor    0
 ELAPSED TIME =       71.85 s.  vr/fr calculation
      5886 out of       9810 representation  1 processor    0
 ELAPSED TIME =       71.89 s.  vr/fr calculation
      7848 out of       9810 representation  1 processor    0
 ELAPSED TIME =       71.92 s.  vr/fr calculation
      9810 out of       9810 representation  1 processor    0
 Seek representation   2 in pol_diag.dat.   2  1      48
 ELAPSED TIME =       71.95 s.  vr/fr calculation
      1962 out of       9810 representation  2 processor    0
 ELAPSED TIME =       71.97 s.  vr/fr calculation
      3924 out of       9810 representation  2 processor    0
 ELAPSED TIME =       71.98 s.  vr/fr calculation
      5886 out of       9810 representation  2 processor    0
 ELAPSED TIME =       71.99 s.  vr/fr calculation
      7848 out of       9810 representation  2 processor    0
 ELAPSED TIME =       72.01 s.  vr/fr calculation
      9810 out of       9810 representation  2 processor    0
 Seek representation   3 in pol_diag.dat.   3  1      52
 ELAPSED TIME =       72.06 s.  vr/fr calculation
      1962 out of       9810 representation  3 processor    0
 ELAPSED TIME =       72.07 s.  vr/fr calculation
      3924 out of       9810 representation  3 processor    0
 ELAPSED TIME =       72.09 s.  vr/fr calculation
      5886 out of       9810 representation  3 processor    0
 ELAPSED TIME =       72.11 s.  vr/fr calculation
      7848 out of       9810 representation  3 processor    0
 ELAPSED TIME =       72.12 s.  vr/fr calculation
      9810 out of       9810 representation  3 processor    0
 Seek representation   4 in pol_diag.dat.   4  1      69
 ELAPSED TIME =       72.19 s.  vr/fr calculation
      1962 out of       9810 representation  4 processor    0
 ELAPSED TIME =       72.22 s.  vr/fr calculation
      3924 out of       9810 representation  4 processor    0
 ELAPSED TIME =       72.25 s.  vr/fr calculation
      5886 out of       9810 representation  4 processor    0
 ELAPSED TIME =       72.28 s.  vr/fr calculation
      7848 out of       9810 representation  4 processor    0
 ELAPSED TIME =       72.31 s.  vr/fr calculation
      9810 out of       9810 representation  4 processor    0

 Checkpoint control =     0

 ELAPSED TIME =       72.54 s.  Calling exchange
 ELAPSED TIME =       73.50 s. FFT finalized
 ELAPSED TIME =       74.02 s. FFT finalized

 Checkpoint control =     8


-----------------------------------------------------------------
 Working now with representation   1 out of   4

 Seek representation   1 in pol_diag.dat.   1  1      76
 ELAPSED TIME =       74.03 s.  Calling readmatrix kernel_c

 Calculating kernel matrix elements in blocks of        50000 (buffer size) 

  kernel K_x (Hartree/Exchange kernel)
 Using  86  data blocks to store matrix elements.
 ELAPSED TIME =       74.09 s. Starting calculation of kernel
Kernel done!      39490 matrix elements calculated by PE  0 representation  1
 Buffer sizes:  5
 12275 13500 7020 6695 0
 
 50000 50000 50000 50000 50000
 
 ELAPSED TIME =       86.76 s. FFT finalized
  Reconstructing kernel in blocks of  50000  matrix elements
 ELAPSED TIME =       86.76 s.  Calling potential pot_c
 ELAPSED TIME =       86.77 s.  Calling correlation
 CORRELATION , xsum =         1.0000000000 spin    1   1
 CORRELATION , xsum =         1.0000000000 spin    2   1
 ELAPSED TIME =       87.10 s.  Calling readmatrix kernel_f

 Calculating kernel matrix elements in blocks of        50000 (buffer size) 

  kernel K_f (TDLDA kernel)
 Using  86  data blocks to store matrix elements.
 ELAPSED TIME =       87.34 s. Starting calculation of kernel
Kernel done!      39490 matrix elements calculated by PE  0 representation  1
 Buffer sizes:  5
 12275 13500 7020 6695 0
 
 50000 50000 50000 50000 50000
 
 ELAPSED TIME =       88.42 s. FFT finalized
  Reconstructing kernel in blocks of  50000  matrix elements
 ELAPSED TIME =       88.42 s.  Calling potential pot_f
 ELAPSED TIME =       88.43 s.  Calling vertex
 VERTEX , xsum =         1.0000000000 spin    1   1
 VERTEX , xsum =         1.0000000000 spin    2   1

 Checkpoint control =     9


-----------------------------------------------------------------
 Working now with representation   2 out of   4

 Seek representation   2 in pol_diag.dat.   2  1      48
 ELAPSED TIME =       89.10 s.  Calling readmatrix kernel_c

 Calculating kernel matrix elements in blocks of        50000 (buffer size) 

  kernel K_x (Hartree/Exchange kernel)
 Using  58  data blocks to store matrix elements.
 ELAPSED TIME =       89.18 s. Starting calculation of kernel
Kernel done!      18911 matrix elements calculated by PE  0 representation  2
 Buffer sizes:  5
 6545 7140 2652 2574 0
 
 50000 50000 50000 50000 50000
 
 ELAPSED TIME =       96.96 s. FFT finalized
  Reconstructing kernel in blocks of  50000  matrix elements
 ELAPSED TIME =       96.97 s.  Calling potential pot_c
 ELAPSED TIME =       96.97 s.  Calling correlation
 CORRELATION , xsum =         1.0000000000 spin    1   1
 CORRELATION , xsum =         1.0000000000 spin    2   1
 ELAPSED TIME =       97.12 s.  Calling readmatrix kernel_f

 Calculating kernel matrix elements in blocks of        50000 (buffer size) 

  kernel K_f (TDLDA kernel)
 Using  58  data blocks to store matrix elements.
 ELAPSED TIME =       97.37 s. Starting calculation of kernel
Kernel done!      18911 matrix elements calculated by PE  0 representation  2
 Buffer sizes:  5
 6545 7140 2652 2574 0
 
 50000 50000 50000 50000 50000
 
 ELAPSED TIME =       97.88 s. FFT finalized
  Reconstructing kernel in blocks of  50000  matrix elements
 ELAPSED TIME =       97.89 s.  Calling potential pot_f
 ELAPSED TIME =       97.89 s.  Calling vertex
 VERTEX , xsum =         1.0000000000 spin    1   1
 VERTEX , xsum =         1.0000000000 spin    2   1

 Checkpoint control =    10


-----------------------------------------------------------------
 Working now with representation   3 out of   4

 Seek representation   3 in pol_diag.dat.   3  1      52
 ELAPSED TIME =       98.20 s.  Calling readmatrix kernel_c

 Calculating kernel matrix elements in blocks of        50000 (buffer size) 

  kernel K_x (Hartree/Exchange kernel)
 Using  62  data blocks to store matrix elements.
 ELAPSED TIME =       98.27 s. Starting calculation of kernel
Kernel done!      22493 matrix elements calculated by PE  0 representation  3
 Buffer sizes:  5
 6831 7359 4237 4066 0
 
 50000 50000 50000 50000 50000
 
 ELAPSED TIME =      106.79 s. FFT finalized
  Reconstructing kernel in blocks of  50000  matrix elements
 ELAPSED TIME =      106.79 s.  Calling potential pot_c
 ELAPSED TIME =      106.79 s.  Calling correlation
 CORRELATION , xsum =         1.0000000000 spin    1   1
 CORRELATION , xsum =         1.0000000000 spin    2   1
 ELAPSED TIME =      106.98 s.  Calling readmatrix kernel_f

 Calculating kernel matrix elements in blocks of        50000 (buffer size) 

  kernel K_f (TDLDA kernel)
 Using  62  data blocks to store matrix elements.
 ELAPSED TIME =      107.22 s. Starting calculation of kernel
Kernel done!      22493 matrix elements calculated by PE  0 representation  3
 Buffer sizes:  5
 6831 7359 4237 4066 0
 
 50000 50000 50000 50000 50000
 
 ELAPSED TIME =      107.83 s. FFT finalized
  Reconstructing kernel in blocks of  50000  matrix elements
 ELAPSED TIME =      107.84 s.  Calling potential pot_f
 ELAPSED TIME =      107.84 s.  Calling vertex
 VERTEX , xsum =         1.0000000000 spin    1   1
 VERTEX , xsum =         1.0000000000 spin    2   1

 Checkpoint control =    11


-----------------------------------------------------------------
 Working now with representation   4 out of   4

 Seek representation   4 in pol_diag.dat.   4  1      69
 ELAPSED TIME =      108.21 s.  Calling readmatrix kernel_c

 Calculating kernel matrix elements in blocks of        50000 (buffer size) 

  kernel K_x (Hartree/Exchange kernel)
 Using  79  data blocks to store matrix elements.
 ELAPSED TIME =      108.28 s. Starting calculation of kernel
Kernel done!      32828 matrix elements calculated by PE  0 representation  4
 Buffer sizes:  5
 11175 12400 4712 4541 0
 
 50000 50000 50000 50000 50000
 
 ELAPSED TIME =      119.66 s. FFT finalized
  Reconstructing kernel in blocks of  50000  matrix elements
 ELAPSED TIME =      119.67 s.  Calling potential pot_c
 ELAPSED TIME =      119.67 s.  Calling correlation
 CORRELATION , xsum =         1.0000000000 spin    1   1
 CORRELATION , xsum =         1.0000000000 spin    2   1
 ELAPSED TIME =      119.95 s.  Calling readmatrix kernel_f

 Calculating kernel matrix elements in blocks of        50000 (buffer size) 

  kernel K_f (TDLDA kernel)
 Using  79  data blocks to store matrix elements.
 ELAPSED TIME =      120.18 s. Starting calculation of kernel
Kernel done!      32828 matrix elements calculated by PE  0 representation  4
 Buffer sizes:  5
 11175 12400 4712 4541 0
 
 50000 50000 50000 50000 50000
 
 ELAPSED TIME =      121.08 s. FFT finalized
  Reconstructing kernel in blocks of  50000  matrix elements
 ELAPSED TIME =      121.08 s.  Calling potential pot_f
 ELAPSED TIME =      121.09 s.  Calling vertex
 VERTEX , xsum =         1.0000000000 spin    1   1
 VERTEX , xsum =         1.0000000000 spin    2   1

 Checkpoint control =    12


 Checkpoint control =    12


 Found wpol0.dat file. Calculating static correction 


 Reading static correction from file wpol0.dat.
      r          rho        Wpol0_v          Wpol0_f
   2  -1   0      0.0084     -0.4718      0.1734      0.1756
   1  -1   0      0.0083     -0.4569      0.1609      0.1641
   2   0   0      0.0081     -0.4733      0.1800      0.1754
   0  -1   0      0.0080     -0.4363      0.1480      0.1524
   3   0   0      0.0079     -0.4879      0.1945      0.1852
   1  -2   0      0.0077     -0.4474      0.1563      0.1623
   3  -1   0      0.0077     -0.4551      0.1726      0.1738
   2  -2   0      0.0075     -0.4398      0.1591      0.1651
   0  -2   0      0.0075     -0.4394      0.1479      0.1547
   1   0   0      0.0075     -0.4292      0.1536      0.1531
 

 Checkpoint control =    16

 ELAPSED TIME =      121.94 s.  All matrix elements calculated. Start printout
 ELAPSED TIME =      121.96 s.  Calling rotate.
 
 Spin  1
 Maximum difference between input and output densities : 
    0.2199041418E-03 a.u.^-3
 Standard deviation of the difference between densities : 
    0.1299139974E-04 a.u.^-3
 Old integrated charge =      2.000000000    
 New integrated charge =      2.000000000    

 Spin  2
 Maximum difference between input and output densities : 
    0.4655346794E-04 a.u.^-3
 Standard deviation of the difference between densities : 
    0.3621669871E-05 a.u.^-3
 Old integrated charge =      1.000000000    
 New integrated charge =      1.000000000    

 ELAPSED TIME =      122.47 s. FFT finalized
 ELAPSED TIME =      128.78 s. FFT finalized
 ELAPSED TIME =      134.75 s. FFT finalized
 
                  Eigenvalue Energy =        -1.0099128713 [Ry]
                     Kinetic Energy =         0.4374562455 [Ry]
       Local Pseudopotential Energy =        -3.5713917478 [Ry]
   Non-local Pseudopotential Energy =        -0.0009178125 [Ry]
                     Ion-ion Energy =         0.9432936515 [Ry]
                       Total Energy =        -1.1290894416 [Ry]
 Total energy excludes Exc - Int_{Vxc*rho}/2 term.
 

 Iteration     0. Maximum potential (eV) =    1.85490


-----------------------------------------------------------------
                               CPU [s]     WALL [s]           #

 SETUP_S:                         0.600        0.614          1
 KERNEL:                         82.640       83.691         12
 DIAG_POL:                        0.010        0.012          4
 WPOL_0:                         20.140       21.317          1
 EXCHANGE:                        1.480        1.504          2
 POTENTIAL:                       0.020        0.008          8
 CORRELATION:                     0.940        0.952          4
 VERTEX:                          1.920        1.944          4
 
 ROTATE:                          0.920        0.960          1
 POISSON_FFT:                    73.020       73.674       2496
 EIGENSOLVER:                     0.010        0.012          4
 INTEGRATION:                     6.610        7.018       1470

                TOTAL           135.630      140.098

 Finished 2009 Jan 23 14:21:54  -420 UTC
-----------------------------------------------------------------
