 
 =================================================================
 
  PARSEC 1.3.6patch - Real-space DFT Program
  partial support for wire boundary conditions
 
  serial run, no MPI interface

 starting run on 13-MAR-2009 14:08:33 -0400 UTC

 =================================================================
 
 Initial Run - starting from atomic potentials
 
 Grid data:
 ----------
 
 Tube boundary conditions!
 System is non-periodic on the yz plane
 and periodic along x direction.
 
 Periodicity length [bohr] : 
   4.6430600000
 
 Boundary cylinder radius is  12.000000 bohrs
 User-provided grid spacing is  0.400000 bohrs
 WARNING: grid spacing may be rescaled below!!
 
 Grid points are shifted from origin! 
 shift vector =   0.5000  0.5000  0.5000   [units of grid spacing]
  Kpoint sampling is off.
  Calculation at gamma point
 WAVEFUNCTIONS ARE REAL!
 Finite-difference expansion of order 12

 Eigenvalue data: 
 ---------------- 
 Number of states:           20
 Net cluster charge =  0.00      [e] 
 
 Fermi temperature =   80.0 [K]
 
 Self-consistency data: 
 ----------------------
 Maximum number of iterations is           50
 Using Chebyshev-Davidson eigensolver
 Polynomial degree for Chebyshev-Davidson is     20
 
 
 Performing Chebyshev subspace filtering
 Polynomial degree for Chebyshev filtering is     15
 Change in polynomial degree (dpm) for Chebyshev filtering is      3
 Performing Rayleigh-Ritz rotation on all SCF iterations
 
 Self-consistency convergence criterion is  0.00020 Ry
 Self-consistency convergence indicator criterion is  0.02000 Ry
 If applicable, Chebyshev polynomial order will decrease to 
 10 after SRE becomes less than the self-consistency 
 convergence indicator.
 Diagonalization tolerance is     0.00010
 Buffer size in subspace is      5

  With Chebyshev subspace, buffer size  must be at least 6
 New buffer size is      6
 
 Mixer data:
 -----------
 Anderson mixer
 Initial Jacobian:  0.300  Mixing memory is  4
 Mixing restarted after           20  iterations
 
 Atom data:
 ----------

 Total # of atom types is     2

 Atom coordinates input in Bohr radii
 

 Chemical element : C
 martins_new                                                 
  pseudopotential format : new Martins
 There are      2 C  atoms
 and their initial coordinates are:
 
    x [bohr]          y [bohr]          z [bohr]     movable?
   -1.208950000      -0.643450000       0.000000000      1
    1.208950000       0.643450000       0.000000000      1

 Chemical element : H
 martins_new                                                 
  pseudopotential format : new Martins
 There are      2 H  atoms
 and their initial coordinates are:
 
    x [bohr]          y [bohr]          z [bohr]     movable?
   -1.256200000      -2.702710000       0.000000000      1
    1.256200000       2.702710000       0.000000000      1

 Total number of atoms =       4

 Correlation data:
 -----------------
 Exchange-Correlation functional is ca
 LDA, Ceperley-Alder, Perdew-Zunger parametrization
 
 Other input data:
 -----------------
 Writing all calculated wave functions to parsec.dat file
 
 No spin effects!

 
 Using new (r*V_ps) interpolation of pseudopot. !

 output level [1 - 6] =  0

 No eigenvalue output File!
 outevflag =            0
 
 No minimization!
 
 No molecular dynamics!
 No polarizability!
 


 Pseudopotential messages
 ------------------------

 Pseudopotential file for atom type  1 is C_POTRE.DAT
New Martins generator


C   ca  nrl  nc  
  ATM3      26-JUN- 4 Troullier-Martins
 2s 2.00  r= 1.60/2p 2.00  r= 1.60/

 ion charge =  4.000    
 
 logarithmic parameters of pseudopot. radial grid
 r(i) = a*Exp(b(i-1)) - c
 C :   a [bohr] = 0.413125E-03  b = 0.100000E-01  c [bohr] = 0.413125E-03

 NOTICE: No Core-Correction !

 Occupancy of orbitals : 
   2.000   2.000
 # of pseudopot= 2, Local component is l = 1, Core radius [bohr] =  1.61

 Pseudopotential file for atom type  2 is H_POTRE.DAT
New Martins generator


H   ca  nrl  nc  
  ATM3      16-JUL- 4 Troullier-Martins
 1s 1.00  r= 1.39/

 ion charge =  1.000    
 
 logarithmic parameters of pseudopot. radial grid
 r(i) = a*Exp(b(i-1)) - c
 H :   a [bohr] = 0.247875E-02  b = 0.100000E-01  c [bohr] = 0.247875E-02

 NOTICE: No Core-Correction !

 Occupancy of orbitals : 
   1.000
 # of pseudopot= 1, Local component is l = 0, Core radius [bohr] =  1.39

 Using order          18 for calculating dV/dr in pseudo

 Normalization check and Kleinman-Bylander Integral

                           s           p           d           f
  C    Normalization      1.0000      1.0000
  C    K-B Int. [Ry]      1.0326      0.0000
 
  H    Normalization      1.0000
  H    K-B Int. [Ry]      0.0000
 
 K-B Energy Integrals renormalized to unity
 
 Performing Fourier transform of pseudopotentials:
 
 C      nql= 1052     delq= 0.015
 
 H      nql= 1052     delq= 0.015

 Symmetry Properties:
 --------------------

 The crystallographic system is tetragonal with operations: 
       1  2  3  4 17 18 19 20 25 26 27 28 41 42 43 44


 The space group of the crystal is symmorphic
 (this usually means that symmetry operations do not
 involve rotations and translations simultaneously)

 Operation number: 
       1  4 25 28


    Rotation matrices (r-lattice) and fractional translations (r-lattice)

    1     1  0  0     0  1  0     0  0  1      0.00000  0.00000  0.00000   E  
    2    -1  0  0     0 -1  0     0  0  1      0.00000  0.00000  0.00000   C2 
    3    -1  0  0     0 -1  0     0  0 -1      0.00000  0.00000  0.00000   IE 
    4     1  0  0     0  1  0     0  0 -1      0.00000  0.00000  0.00000   IC2
 
  Found Abelian subgroup C_2h  with            4  symmetry operations
 
  Character table : character = exp(i*Pi*x/3)
--------------------------------------
 Representation |    E   C2   IE  IC2
   Ag      1   |     0    0    0    0
   Bg      2   |     0    3    0    3
   Au      3   |     0    0    3    3
   Bu      4   |     0    3    3    0
--------------------------------------
 Operation number:   1    2    3    4
 
 Reciprocal Space Data:
 ----------------------
 Reciprocal Lattice (a.u.):
   1.3532423245

       11 g-vectors are set up in       6 stars - kmax =    5   0   0
 
 Input grid spacing:  0.400 bohr
 Final grid spacings:  0.464  0.400  0.400 bohr
 Number of grid points along each direction:  10  62  62
 
                     ********************                    
 
  Distributing            1  processors among            1  groups.
  Each group contains            1  processors.
 
                     ********************                    
 
 Setup messages:
 ---------------
 The Hamiltonian matrix size is       28280
  reduced size is         7070
  maximum distance between grid points and their images is
   0.000      [bohr]
 
 There are 36 laplacian-related non-diagonal elements per row
 pbc shift indices =           -5           0           0
 pbc shift [latt. vect. units] =    -0.4500    0.0000    0.0000
 
  Maximum number of matrix-vector operations =        35355
 
 
 Non-local pseudopotential messages:
 -----------------------------------
 Max # of nonlocal points for one atom =          238
 
 Sizes of all non-local blocks 
   238   238   148   148
 
 
 Memory usage:
 -------------
 estimated memory usage (no MPI)  :    12.12 MB
 

 Charge neutrality check.
 net charge in unit cell [e] =  -0.289E-09   out of    10.0    

 Total electron charge from atomic density [e] =       9.9997    
 Renormalizing charge density
 Total electron charge from atomic density [e] =       10.000    

 Max and min values of charge density [e/bohr^3]:  0.2576E+00  0.7953E-08     
 
 Hartree potential time [sec]:       0.26
 
 
Setup time [sec] :       0.77
 
 -----------------------------------------------------------------
 
 Number of converged eigen-pairs per representation: 
     11     11     11     11
   total =      44
 Number of matrix-vector multiplications: 
    798    735    835    798
   total =    3166
 cumulated number of matrix-vector multiplications =        3166
 
 Diagonalization time [sec] :       1.51,      tdiag_sum =        1.51
 
 Fermi level at    -0.8070 [Ry]
 
   State   Eigenvalue [Ry]      Eigenvalue [eV]    Occup.     Repr.
 
    1        -1.9314543022       -26.2789809450    1.0000        1
    2        -1.3904469701       -18.9181433864    1.0000        4
    3        -1.1214012070       -15.2575605417    1.0000        1
    4        -1.0021150965       -13.6345775799    1.0000        3
    5        -0.9887185742       -13.4523071769    1.0000        1
    6        -0.2485660897        -3.3819405037    0.0000        2
    7        -0.1744967023        -2.3741672320    0.0000        4
    8        -0.1037096834        -1.4110532111    0.0000        1
    9        -0.0272757259        -0.3711080710    0.0000        3
   10        -0.0229735643        -0.3125737209    0.0000        4
   11        -0.0076503936        -0.1040897254    0.0000        1
   12         0.0777181190         1.0574171832    0.0000        2
   13         0.1412480003         1.9217920430    0.0000        4
   14         0.1787766429         2.4323992477    0.0000        1
   15         0.1789259679         2.4344309340    0.0000        3
   16         0.1954398626         2.6591156821    0.0000        4
   17         0.2245103580         3.0546430282    0.0000        1
   18         0.2379567693         3.2375922121    0.0000        3
   19         0.2926205319         3.9813364324    0.0000        4
   20         0.3174784680         4.3195485405    0.0000        2
 

 Max and min values of charge density [e/bohr^3]:  0.4137E+00  0.2946E-11     
 
 Hartree potential time [sec]:       0.27
 
 
   Eigenvalue Energy             =         -12.86827230 [Ry]
   Hartree Energy                =          46.83330873 [Ry]
   Integral_{Vxc*rho}            =         -11.20310269 [Ry]
   Exc = Integral{eps_xc*rho}    =          -8.56749925 [Ry]
   Electron-Ion energy           =        -112.10887118 [Ry]
   Ion-Ion Energy                =          25.44441136 [Ry]
 
   Total Energy =           -25.04110752 [Ry]
   Energy/atom  =           -85.17607517 [eV]
 
 
  0-  1    SRE of pot. & charge weighted pot =   3.1476821488    0.7111798538

 Number of converged eigen-pairs per representation: 
     11      8     10     11
   total =      40
 Number of matrix-vector multiplications: 
    184    127    165    184
   total =     660
 cumulated number of matrix-vector multiplications =        3826
 
 Diagonalization time [sec] :       0.28,      tdiag_sum =        1.79
 
 Fermi level at    -0.6887 [Ry]
 
   State   Eigenvalue [Ry]      Eigenvalue [eV]    Occup.     Repr.
 
    1        -1.7150143406       -23.3341421156    1.0000        1
    2        -1.2275144867       -16.7013166029    1.0000        4
    3        -0.8760005979       -11.9186889352    1.0000        1
    4        -0.8267137292       -11.2481016561    1.0000        3
    5        -0.8151588051       -11.0908876707    1.0000        1
    6        -0.1138904358        -1.5495704909    0.0000        2
    7        -0.1021506870        -1.3898418172    0.0000        4
    8        -0.0588425238        -0.8005996098    0.0000        1
    9         0.0079446873         0.1080938266    0.0000        3
   10         0.0375497445         0.5108943136    0.0000        1
   11         0.1239405682         1.6863105827    0.0000        2
   12         0.1301043268         1.7701734493    0.0000        4
   13         0.1964516205         2.6728814588    0.0000        3
   14         0.1980760971         2.6949837617    0.0000        4
   15         0.2113115487         2.8750626693    0.0000        1
   16         0.2363617580         3.2158908070    0.0000        4
   17         0.2678353528         3.6441142425    0.0000        1
   18         0.2703437652         3.6782432011    0.0000        3
   19         0.3368015106         4.5824539924    0.0000        1
   20         0.3376222181         4.5936203755    0.0000        2
 

 Max and min values of charge density [e/bohr^3]:  0.3959E+00  0.1339E-09     
 
 Hartree potential time [sec]:       0.26
 
 
   Eigenvalue Energy             =         -10.92080392 [Ry]
   Hartree Energy                =          44.99501817 [Ry]
   Integral_{Vxc*rho}            =         -10.91295192 [Ry]
   Exc = Integral{eps_xc*rho}    =          -8.34725246 [Ry]
   Electron-Ion energy           =        -109.31688763 [Ry]
   Ion-Ion Energy                =          25.44441136 [Ry]
   (E(new)-E(old))/atom  =            -0.43259689 [eV]
 
   Total Energy =           -25.16828766 [Ry]
   Energy/atom  =           -85.60867206 [eV]
 
 
  0-  2    SRE of pot. & charge weighted pot =   1.3454323780    0.2952307185

 Number of converged eigen-pairs per representation: 
     11      8     10     11
   total =      40
 Number of matrix-vector multiplications: 
    184    127    165    184
   total =     660
 cumulated number of matrix-vector multiplications =        4486
 
 Diagonalization time [sec] :       0.28,      tdiag_sum =        2.07
 
 Fermi level at    -0.6073 [Ry]
 
   State   Eigenvalue [Ry]      Eigenvalue [eV]    Occup.     Repr.
 
    1        -1.5627785435       -21.2628523069    1.0000        1
    2        -1.1045406810       -15.0281595981    1.0000        4
    3        -0.7191625580        -9.7847819320    1.0000        1
    4        -0.7091113640        -9.6480273961    1.0000        3
    5        -0.6648541955        -9.0458732136    1.0000        1
    6        -0.0577321697        -0.7854923543    0.0000        4
    7        -0.0372987249        -0.5074789915    0.0000        2
    8        -0.0277550778        -0.3776300381    0.0000        1
    9         0.0315642581         0.4294569832    0.0000        3
   10         0.0661637895         0.9002112874    0.0000        1
   11         0.1619133964         2.2029612885    0.0000        2
   12         0.1809739419         2.4622952584    0.0000        4
   13         0.2098654766         2.8553877021    0.0000        3
   14         0.2283353175         3.1066846624    0.0000        4
   15         0.2348760920         3.1956771323    0.0000        1
   16         0.2941023139         4.0014972627    0.0000        3
   17         0.3032676541         4.1261990487    0.0000        1
   18         0.3397572434         4.6226691023    0.0000        4
   19         0.3470948870         4.7225036135    0.0000        1
   20         0.3480902179         4.7360458872    0.0000        2
 

 Max and min values of charge density [e/bohr^3]:  0.3826E+00  0.1849E-09     
 
 Hartree potential time [sec]:       0.26
 
 
   Eigenvalue Energy             =          -9.52089468 [Ry]
   Hartree Energy                =          43.61414430 [Ry]
   Integral_{Vxc*rho}            =         -10.69145134 [Ry]
   Exc = Integral{eps_xc*rho}    =          -8.17903085 [Ry]
   Electron-Ion energy           =        -107.20221021 [Ry]
   Ion-Ion Energy                =          25.44441136 [Ry]
   (E(new)-E(old))/atom  =            -0.08794828 [eV]
 
   Total Energy =           -25.19414377 [Ry]
   Energy/atom  =           -85.69662034 [eV]
 
 
  0-  3    SRE of pot. & charge weighted pot =   0.1720874794    0.0231279609

 Number of converged eigen-pairs per representation: 
     11      8     10     11
   total =      40
 Number of matrix-vector multiplications: 
    184    127    165    184
   total =     660
 cumulated number of matrix-vector multiplications =        5146
 
 Diagonalization time [sec] :       0.28,      tdiag_sum =        2.34
 
 Fermi level at    -0.6120 [Ry]
 
   State   Eigenvalue [Ry]      Eigenvalue [eV]    Occup.     Repr.
 
    1        -1.5727353190       -21.3983222037    1.0000        1
    2        -1.1019591772       -14.9930361728    1.0000        4
    3        -0.7236564858        -9.8459254145    1.0000        3
    4        -0.7189322029        -9.7816477658    1.0000        1
    5        -0.6715049299        -9.1363617757    1.0000        1
    6        -0.0543589011        -0.7395963366    0.0000        4
    7        -0.0422510817        -0.5748597679    0.0000        2
    8        -0.0284700473        -0.3873577694    0.0000        1
    9         0.0290113259         0.3947222980    0.0000        3
   10         0.0649027198         0.8830534248    0.0000        1
   11         0.1593662661         2.1683055428    0.0000        2
   12         0.1821744279         2.4786288316    0.0000        4
   13         0.2101315609         2.8590079915    0.0000        3
   14         0.2290714422         3.1167002283    0.0000        4
   15         0.2325594553         3.1641574363    0.0000        1
   16         0.2913395905         3.9639081999    0.0000        3
   17         0.3039468116         4.1354395292    0.0000        1
   18         0.3298869963         4.4883764941    0.0000        4
   19         0.3477286146         4.7311259841    0.0000        1
   20         0.3486946812         4.7442700937    0.0000        2
 

 Max and min values of charge density [e/bohr^3]:  0.3827E+00  0.4589E-10     
 
 Hartree potential time [sec]:       0.27
 
 
   Eigenvalue Energy             =          -9.57757623 [Ry]
   Hartree Energy                =          43.79540655 [Ry]
   Integral_{Vxc*rho}            =         -10.70798696 [Ry]
   Exc = Integral{eps_xc*rho}    =          -8.19158131 [Ry]
   Electron-Ion energy           =        -107.46703366 [Ry]
   Ion-Ion Energy                =          25.44441136 [Ry]
   (E(new)-E(old))/atom  =            -0.00240004 [eV]
 
   Total Energy =           -25.19484937 [Ry]
   Energy/atom  =           -85.69902038 [eV]
 
 
  0-  4    SRE of pot. & charge weighted pot =   0.1062920078    0.0241429201

 Number of converged eigen-pairs per representation: 
     11      8     10     11
   total =      40
 Number of matrix-vector multiplications: 
    184    127    165    184
   total =     660
 cumulated number of matrix-vector multiplications =        5806
 
 Diagonalization time [sec] :       0.29,      tdiag_sum =        2.64
 
 Fermi level at    -0.6036 [Ry]
 
   State   Eigenvalue [Ry]      Eigenvalue [eV]    Occup.     Repr.
 
    1        -1.5568686665       -21.1824437023    1.0000        1
    2        -1.0893614695       -14.8216342814    1.0000        4
    3        -0.7120833273        -9.6884633345    1.0000        3
    4        -0.7030860897        -9.5660487197    1.0000        1
    5        -0.6547101647        -8.9078555595    1.0000        1
    6        -0.0504159361        -0.6859491434    0.0000        4
    7        -0.0355244674        -0.4833387984    0.0000        2
    8        -0.0257270260        -0.3500367705    0.0000        1
    9         0.0312060131         0.4245827729    0.0000        3
   10         0.0674376974         0.9175438238    0.0000        1
   11         0.1633060980         2.2219101088    0.0000        2
   12         0.1857380712         2.5271150485    0.0000        4
   13         0.2113569839         2.8756808518    0.0000        3
   14         0.2317469910         3.1531032103    0.0000        4
   15         0.2347850876         3.1944389455    0.0000        1
   16         0.2937041048         3.9960793095    0.0000        3
   17         0.3075001959         4.1837861651    0.0000        1
   18         0.3423134322         4.6574480964    0.0000        4
   19         0.3487256375         4.7446912784    0.0000        1
   20         0.3497004282         4.7579540861    0.0000        2
 

 Max and min values of charge density [e/bohr^3]:  0.3807E+00  0.5274E-10     
 
 Hartree potential time [sec]:       0.26
 
 
   Eigenvalue Energy             =          -9.43221944 [Ry]
   Hartree Energy                =          43.63931572 [Ry]
   Integral_{Vxc*rho}            =         -10.68253605 [Ry]
   Exc = Integral{eps_xc*rho}    =          -8.17225066 [Ry]
   Electron-Ion energy           =        -107.22575266 [Ry]
   Ion-Ion Energy                =          25.44441136 [Ry]
   (E(new)-E(old))/atom  =            -0.00064800 [eV]
 
   Total Energy =           -25.19503988 [Ry]
   Energy/atom  =           -85.69966838 [eV]
 
 
  0-  5    SRE of pot. & charge weighted pot =   0.0465700850    0.0086028466

 Number of converged eigen-pairs per representation: 
     11      8     10     11
   total =      40
 Number of matrix-vector multiplications: 
    184    127    165    184
   total =     660
 cumulated number of matrix-vector multiplications =        6466
 
 Diagonalization time [sec] :       0.28,      tdiag_sum =        2.92
 
 Fermi level at    -0.6064 [Ry]
 
   State   Eigenvalue [Ry]      Eigenvalue [eV]    Occup.     Repr.
 
    1        -1.5621064655       -21.2537081482    1.0000        1
    2        -1.0937497600       -14.8813404845    1.0000        4
    3        -0.7166864562        -9.7510925858    1.0000        3
    4        -0.7078654232        -9.6310753750    1.0000        1
    5        -0.6599024455        -8.9785006936    1.0000        1
    6        -0.0521460287        -0.7094884369    0.0000        4
    7        -0.0384041527        -0.5225192207    0.0000        2
    8        -0.0271410475        -0.3692756639    0.0000        1
    9         0.0301586994         0.4103332322    0.0000        3
   10         0.0661027886         0.8993813215    0.0000        1
   11         0.1616981001         2.2000320109    0.0000        2
   12         0.1845886351         2.5114760516    0.0000        4
   13         0.2107118119         2.8669027710    0.0000        3
   14         0.2305238460         3.1364613446    0.0000        4
   15         0.2338080067         3.1811449770    0.0000        1
   16         0.2927126416         3.9825896586    0.0000        3
   17         0.3059817701         4.1631267681    0.0000        1
   18         0.3378335651         4.5964959199    0.0000        4
   19         0.3482392609         4.7380737362    0.0000        1
   20         0.3492567222         4.7519171104    0.0000        2
 

 Max and min values of charge density [e/bohr^3]:  0.3810E+00  0.3922E-10     
 
 Hartree potential time [sec]:       0.26
 
 
   Eigenvalue Energy             =          -9.48062110 [Ry]
   Hartree Energy                =          43.69265136 [Ry]
   Integral_{Vxc*rho}            =         -10.69049459 [Ry]
   Exc = Integral{eps_xc*rho}    =          -8.17829526 [Ry]
   Electron-Ion energy           =        -107.30916080 [Ry]
   Ion-Ion Energy                =          25.44441136 [Ry]
   (E(new)-E(old))/atom  =            -0.00009033 [eV]
 
   Total Energy =           -25.19506643 [Ry]
   Energy/atom  =           -85.69975871 [eV]
 
 
  0-  6    SRE of pot. & charge weighted pot =   0.0117106564    0.0024369310

 Number of converged eigen-pairs per representation: 
     11      8     10     11
   total =      40
 Number of matrix-vector multiplications: 
    173    119    155    173
   total =     620
 cumulated number of matrix-vector multiplications =        7086
 
 Diagonalization time [sec] :       0.26,      tdiag_sum =        3.18
 
 Fermi level at    -0.6058 [Ry]
 
   State   Eigenvalue [Ry]      Eigenvalue [eV]    Occup.     Repr.
 
    1        -1.5609102479       -21.2374326504    1.0000        1
    2        -1.0929802827       -14.8708711298    1.0000        4
    3        -0.7159580681        -9.7411822824    1.0000        3
    4        -0.7066746032        -9.6148733160    1.0000        1
    5        -0.6585692063        -8.9603609065    1.0000        1
    6        -0.0521132134        -0.7090419595    0.0000        4
    7        -0.0381039892        -0.5184352558    0.0000        2
    8        -0.0271230697        -0.3690310611    0.0000        1
    9         0.0302385437         0.4114195775    0.0000        3
   10         0.0661004513         0.8993495208    0.0000        1
   11         0.1619071649         2.2028765043    0.0000        2
   12         0.1848048447         2.5144177558    0.0000        4
   13         0.2107009366         2.8667548035    0.0000        3
   14         0.2305400090         3.1366812549    0.0000        4
   15         0.2339209237         3.1826813043    0.0000        1
   16         0.2928514908         3.9844788140    0.0000        3
   17         0.3060666568         4.1642817186    0.0000        1
   18         0.3386621735         4.6077698005    0.0000        4
   19         0.3482355585         4.7380233623    0.0000        1
   20         0.3492734366         4.7521445233    0.0000        2
 

 Max and min values of charge density [e/bohr^3]:  0.3808E+00  0.4221E-10     
 
 Hartree potential time [sec]:       0.26
 
 
   Eigenvalue Energy             =          -9.47018482 [Ry]
   Hartree Energy                =          43.67886636 [Ry]
   Integral_{Vxc*rho}            =         -10.68812643 [Ry]
   Exc = Integral{eps_xc*rho}    =          -8.17649699 [Ry]
   Electron-Ion energy           =        -107.28784245 [Ry]
   Ion-Ion Energy                =          25.44441136 [Ry]
   (E(new)-E(old))/atom  =            -0.00000881 [eV]
 
   Total Energy =           -25.19506902 [Ry]
   Energy/atom  =           -85.69976752 [eV]
 
 
  0-  7    SRE of pot. & charge weighted pot =   0.0014472371    0.0003544711

 Number of converged eigen-pairs per representation: 
     11      8     10     11
   total =      40
 Number of matrix-vector multiplications: 
    162    111    145    162
   total =     580
 cumulated number of matrix-vector multiplications =        7666
 
 Diagonalization time [sec] :       0.25,      tdiag_sum =        3.43
 
 Fermi level at    -0.6059 [Ry]
 
   State   Eigenvalue [Ry]      Eigenvalue [eV]    Occup.     Repr.
 
    1        -1.5610604202       -21.2394758655    1.0000        1
    2        -1.0929897092       -14.8709993850    1.0000        4
    3        -0.7160197618        -9.7420216752    1.0000        3
    4        -0.7068101146        -9.6167170579    1.0000        1
    5        -0.6587498675        -8.9628189472    1.0000        1
    6        -0.0521048394        -0.7089280235    0.0000        4
    7        -0.0380973047        -0.5183443079    0.0000        2
    8        -0.0271006763        -0.3687263814    0.0000        1
    9         0.0302479506         0.4115475667    0.0000        3
   10         0.0661129782         0.8995199589    0.0000        1
   11         0.1619059941         2.2028605746    0.0000        2
   12         0.1847895845         2.5142101284    0.0000        4
   13         0.2107139677         2.8669321020    0.0000        3
   14         0.2305397554         3.1366778039    0.0000        4
   15         0.2339287570         3.1827878817    0.0000        1
   16         0.2928509919         3.9844720254    0.0000        3
   17         0.3060672507         4.1642897991    0.0000        1
   18         0.3385496184         4.6062383981    0.0000        4
   19         0.3482439339         4.7381373160    0.0000        1
   20         0.3492803920         4.7522391577    0.0000        2
 

 Max and min values of charge density [e/bohr^3]:  0.3808E+00  0.4129E-10     
 
 Hartree potential time [sec]:       0.26
 
 
   Eigenvalue Energy             =          -9.47125975 [Ry]
   Hartree Energy                =          43.68047894 [Ry]
   Integral_{Vxc*rho}            =         -10.68841171 [Ry]
   Exc = Integral{eps_xc*rho}    =          -8.17671336 [Ry]
   Electron-Ion energy           =        -107.29042726 [Ry]
   Ion-Ion Energy                =          25.44441136 [Ry]
   (E(new)-E(old))/atom  =            -0.00000044 [eV]
 
   Total Energy =           -25.19506915 [Ry]
   Energy/atom  =           -85.69976795 [eV]
 
 
  0-  8    SRE of pot. & charge weighted pot =   0.0007538695    0.0000776935

 No Spin Orbit Correction
 
Time for self-consistent field [sec] :       5.55,    tdiag_sum =        3.43
 
 
 Coordinates, forces, torque
 ============================
 
  symmetrizing forces according to symmetry operations 
             total (net) force [Ry/bohr]:      0.000000    0.000000    0.000000
 
 coordinates and total forces (after setting net force to zero)
-atom-  ----x----   ----y----   ----z-----   ----Fx----  ----Fy----   ----Fz---
                       [bohr]                             [Ry/bohr]            

   1    -1.208950   -0.643450    0.000000      0.210780    0.249336    0.000000
   2     1.208950    0.643450    0.000000     -0.210780   -0.249336    0.000000
   3    -1.256200   -2.702710    0.000000     -0.019237   -0.065477    0.000000
   4     1.256200    2.702710    0.000000      0.019237    0.065477    0.000000
 
Time for movement    0 is [sec]:       5.68
 
 =================================================================
 
 Setup time [sec] :        0.77
 Total time spent in Hartree potential [sec] :        2.37
 Total time spent during diagonalization [sec] :        3.43
 
 Total CPU time [sec] :       6.45
 Wall-clock time [sec] :       6.48
 Current date/time: 13-MAR-2009 14:08:39 -0400 UTC
 
 =================================================================
 
